#FORMAT=WebAnno TSV 3.2
#T_SP=de.tudarmstadt.ukp.dkpro.core.api.segmentation.type.Lemma|value
#T_SP=de.tudarmstadt.ukp.dkpro.core.api.lexmorph.type.pos.POS|PosValue
#T_RL=de.tudarmstadt.ukp.dkpro.core.api.syntax.type.dependency.Dependency|DependencyType|flavor|BT_de.tudarmstadt.ukp.dkpro.core.api.lexmorph.type.pos.POS
#T_SP=de.tudarmstadt.ukp.dkpro.core.api.ner.type.NamedEntity|value
#T_SP=webanno.custom.ID|value


#Text=Ir iespēja iegūt studiju pārtraukumu, ja ir akadēmiskais parāds lielāks par 10 kredītpunktiem?
1-1	0-2	Ir	būt	vcnipii30an	root	basic	1-1	_	ak_15842_119328
1-2	3-10	iespēja	iespēja	ncfsn4	nsubj	basic	1-1	_	ak_15842_119328
1-3	11-16	iegūt	iegūt	vmnn0_1000n	acl	basic	1-2	_	ak_15842_119328
1-4	17-24	studiju	studijas	ncfdg4	nmod	basic	1-5	_	ak_15842_119328
1-5	25-36	pārtraukumu	pārtraukums	ncmsa1	obj	basic	1-3	_	ak_15842_119328
1-6	36-37	,	,	zc	punct	basic	1-8	_	ak_15842_119328
1-7	38-40	ja	ja	cs	mark	basic	1-8	_	ak_15842_119328
1-8	41-43	ir	būt	vcnipii30an	advcl	basic	1-2	_	ak_15842_119328
1-9	44-56	akadēmiskais	akadēmisks	afmsnyp	amod	basic	1-10	_	ak_15842_119328
1-10	57-63	parāds	parāds	ncmsn1	nsubj	basic	1-8	_	ak_15842_119328
1-11	64-71	lielāks	liels	afmsnnc	conj	basic	1-8	_	ak_15842_119328
1-12	72-75	par	par	sppd	case	basic	1-14	_	ak_15842_119328
1-13	76-78	10	10	xn	nummod	basic	1-14	_	ak_15842_119328
1-14	79-93	kredītpunktiem	kredītpunkts	ncmpd1	iobj	basic	1-11	_	ak_15842_119328
1-15	93-94	?	?	zs	punct	basic	1-1	_	ak_15842_119328

#Text=Labdien!!
2-1	96-103	Labdien	labdien	is	root	basic	2-1	_	ak_15842_119329
2-2	103-105	!!	!!	zs	punct	basic	2-1	_	ak_15842_119329

#Text=Par to lemj dekāns.
3-1	106-109	Par	par	spsa	case	basic	3-2	_	ak_15842_119329
3-2	110-112	to	tas	pd3msan	iobj	basic	3-3	_	ak_15842_119329
3-3	113-117	lemj	lemt	vmnipt130an	root	basic	3-3	_	ak_15842_119329
3-4	118-124	dekāns	dekāns	ncmsn1	nsubj	basic	3-3	_	ak_15842_119329
3-5	124-125	.	.	zs	punct	basic	3-3	_	ak_15842_119329

#Text=Pārtraukums var tikt piešķirts, ja ir attaisnojoši iemesli parādiem.
4-1	126-137	Pārtraukums	pārtraukums	ncmsn1	nsubj	basic	4-2	_	ak_15842_119329
4-2	138-141	var	varēt	vonip_330an	root	basic	4-2	_	ak_15842_119329
4-3	142-146	tikt	tikt	vtnn0i1000n	aux:pass	basic	4-4	_	ak_15842_119329
4-4	147-156	piešķirts	piešķirt	vmnpdmsnpsnpn	xcomp	basic	4-2	_	ak_15842_119329
4-5	156-157	,	,	zc	punct	basic	4-11	_	ak_15842_119329
4-6	158-160	ja	ja	cs	mark	basic	4-7	_	ak_15842_119329
4-7	161-163	ir	būt	vcnipii30an	advcl	basic	4-5	_	ak_15842_119329
4-8	164-176	attaisnojoši	attaisnojošs	afmpnnp	amod	basic	4-9	_	ak_15842_119329
4-9	177-184	iemesli	iemesls	ncmpn1	nsubj	basic	4-7	_	ak_15842_119329
4-10	185-193	parādiem	parāds	ncmpd1	obl	basic	4-9	_	ak_15842_119329
4-11	193-194	.	.	zs	punct	basic	4-2	_	ak_15842_119329

#Text=Ar cieņu,\nStudentu servisa konsultants
5-1	195-197	Ar	ar	spsa	case	basic	5-2	_	ak_15842_119329
5-2	198-203	cieņu	cieņa	ncfsa4	acl	basic	5-2	_	ak_15842_119329
5-3	203-204	,	,	zc	punct	basic	5-2	_	ak_15842_119329
5-4	205-213	Studentu	students	ncmpg1	nmod	basic	5-5	_	ak_15842_119329
5-5	214-221	servisa	serviss	ncmsg1	nmod	basic	5-6	_	ak_15842_119329
5-6	222-233	konsultants	konsultants	ncmsn1	root	basic	5-6	_	ak_15842_119329
