#FORMAT=WebAnno TSV 3.2
#T_SP=de.tudarmstadt.ukp.dkpro.core.api.segmentation.type.Lemma|value
#T_SP=de.tudarmstadt.ukp.dkpro.core.api.lexmorph.type.pos.POS|PosValue
#T_RL=de.tudarmstadt.ukp.dkpro.core.api.syntax.type.dependency.Dependency|DependencyType|flavor|BT_de.tudarmstadt.ukp.dkpro.core.api.lexmorph.type.pos.POS
#T_SP=de.tudarmstadt.ukp.dkpro.core.api.ner.type.NamedEntity|value
#T_SP=webanno.custom.ID|value


#Text=Vai drīkst ņemt akadēmisko atvaļinājumu, ja NEnokārtota sesija?
1-1	0-3	Vai	vai	q	discourse	basic	1-2	_	ak_845_7247
1-2	4-10	drīkst	drīkstēt	vonip_330an	root	basic	1-2	_	ak_845_7247
1-3	11-15	ņemt	ņemt	vmnn0t1000n	xcomp	basic	1-2	_	ak_845_7247
1-4	16-26	akadēmisko	akadēmisks	afmpgyp	amod	basic	1-5	_	ak_845_7247
1-5	27-39	atvaļinājumu	atvaļinājums	ncmsa1	obj	basic	1-3	_	ak_845_7247
1-6	39-40	,	,	zc	punct	basic	1-8	_	ak_845_7247
1-7	41-43	ja	ja	cs	mark	basic	1-8	_	ak_845_7247
1-8	44-55	NEnokārtota	nenokārtot	vmnpdfsnpsnpy	advcl	basic	1-2	location[1]	ak_845_7247
1-9	56-62	sesija	sesija	ncfsn4	nsubj	basic	1-8	_	ak_845_7247
1-10	62-63	?	?	zs	punct	basic	1-2	_	ak_845_7247

#Text=Es mācos 1. semestri.
2-1	64-66	Es	es	pp10snn	nsubj	basic	2-2	_	ak_845_7247
2-2	67-72	mācos	mākties	vmyip_11san	root	basic	2-2	_	ak_845_7247
2-3	73-75	1.	1.	xo	amod	basic	2-4	time[2]	ak_845_7247
2-4	76-84	semestri	semestris	ncmsa2	obj	basic	2-2	time[2]	ak_845_7247
2-5	84-85	.	.	zs	punct	basic	2-2	_	ak_845_7247

#Text=Šāda iespēja pastāv tikai īpašos gadījumos!
3-1	87-91	Šāda	šāda	pd0fsnn	det	basic	3-2	_	ak_845_7248
3-2	92-99	iespēja	iespēja	ncfsn4	nsubj	basic	3-3	_	ak_845_7248
3-3	100-106	pastāv	pastāvēt	vmnipi330an	root	basic	3-3	_	ak_845_7248
3-4	107-112	tikai	tikai	q	discourse	basic	3-6	_	ak_845_7248
3-5	113-119	īpašos	īpašs	afmplnp	amod	basic	3-6	_	ak_845_7248
3-6	120-129	gadījumos	gadījums	ncmpl1	obl	basic	3-3	_	ak_845_7248
3-7	129-130	!	!	zs	punct	basic	3-3	_	ak_845_7248

#Text=Labdien.
4-1	132-139	Labdien	labdien	is	root	basic	4-1	_	ak_845_7249
4-2	139-140	.	.	zs	punct	basic	4-1	_	ak_845_7249

#Text=http://www.lu.lv/par/dokumenti/noteikumiunkartibas/studiju-partrauksanas-kartiba-latvijas-universitate/ Jūsu gadījumā saistošs ir 1.6 punkts.
5-1	142-245	http://www.lu.lv/par/dokumenti/noteikumiunkartibas/studiju-partrauksanas-kartiba-latvijas-universitate/	http://www.lu.lv/par/dokumenti/noteikumiunkartibas/studiju-partrauksanas-kartiba-latvijas-universitate/	q	discourse	basic	5-4	_	ak_845_7249
5-2	246-250	Jūsu	jūs	pp20pgn	det	basic	5-3	_	ak_845_7249
5-3	251-259	gadījumā	gadījums	ncmsl1	obl	basic	5-4	_	ak_845_7249
5-4	260-268	saistošs	saistīt	vmnpdmsnapnpn	root	basic	5-4	_	ak_845_7249
5-5	269-271	ir	būt	vcnipii30an	cop	basic	5-4	_	ak_845_7249
5-6	272-275	1.6	1.6	xn	nummod	basic	5-7	_	ak_845_7249
5-7	276-282	punkts	punkts	ncmsn1	nsubj	basic	5-4	_	ak_845_7249
5-8	282-283	.	.	zs	punct	basic	5-4	_	ak_845_7249

#Text=ar cieņu\nStudentu servisa konsultants
6-1	285-287	ar	ar	spsa	case	basic	6-2	_	ak_845_7249
6-2	288-293	cieņu	cieņa	ncfsa4	root	basic	6-2	_	ak_845_7249
6-3	294-302	Studentu	students	ncmpg1	nmod	basic	6-4	_	ak_845_7249
6-4	303-310	servisa	serviss	ncmsg1	nmod	basic	6-5	_	ak_845_7249
6-5	311-322	konsultants	konsultants	ncmsn1	nsubj	basic	6-2	_	ak_845_7249
