#FORMAT=WebAnno TSV 3.2
#T_SP=de.tudarmstadt.ukp.dkpro.core.api.segmentation.type.Lemma|value
#T_SP=de.tudarmstadt.ukp.dkpro.core.api.lexmorph.type.pos.POS|PosValue
#T_RL=de.tudarmstadt.ukp.dkpro.core.api.syntax.type.dependency.Dependency|DependencyType|flavor|BT_de.tudarmstadt.ukp.dkpro.core.api.lexmorph.type.pos.POS
#T_SP=de.tudarmstadt.ukp.dkpro.core.api.ner.type.NamedEntity|value
#T_SP=webanno.custom.ID|value


#Text=Esmu maģistratūras 1. kursa budžeta students.
1-1	0-4	Esmu	būt	vcnip_i1san	cop	basic	1-6	_	ak_834_7207
1-2	5-18	maģistratūras	maģistratūra	ncfsg4	nmod	basic	1-4	_	ak_834_7207
1-3	19-21	1.	1.	xo	dep	basic	1-2	_	ak_834_7207
1-4	22-27	kursa	kurss	ncmsg1	nmod	basic	1-5	_	ak_834_7207
1-5	28-35	budžeta	budžets	ncmsg1	nmod	basic	1-6	_	ak_834_7207
1-6	36-44	students	students	ncmsn1	root	basic	1-6	_	ak_834_7207
1-7	44-45	.	.	zs	punct	basic	1-6	_	ak_834_7207

#Text=Vai es tagad varu paņemt akadēmisko pārtraukumu, saglabājot budžeta vietu, vai man obligāti jābeidz vismaz 1 semestris / 1 gads.
2-1	46-49	Vai	vai	q	discourse	basic	2-4	_	ak_834_7207
2-2	50-52	es	es	pp10snn	nsubj	basic	2-4	_	ak_834_7207
2-3	53-58	tagad	tagad	r0_	advmod	basic	2-4	_	ak_834_7207
2-4	59-63	varu	varēt	vonip_31san	root	basic	2-4	_	ak_834_7207
2-5	64-70	paņemt	paņemt	vmnn0t1000n	xcomp	basic	2-4	_	ak_834_7207
2-6	71-81	akadēmisko	akadēmisks	afmpgyp	amod	basic	2-7	_	ak_834_7207
2-7	82-93	pārtraukumu	pārtraukums	ncmsa1	obj	basic	2-5	_	ak_834_7207
2-8	93-94	,	,	zc	punct	basic	2-9	_	ak_834_7207
2-9	95-105	saglabājot	saglabāt	vmnpu0000000n	advcl	basic	2-16	_	ak_834_7207
2-10	106-113	budžeta	budžets	ncmsg1	nmod	basic	2-11	_	ak_834_7207
2-11	114-119	vietu	vieta	ncfsa4	obj	basic	2-9	_	ak_834_7207
2-12	119-120	,	,	zc	punct	basic	2-16	_	ak_834_7207
2-13	121-124	vai	vai	cs	cc	basic	2-16	_	ak_834_7207
2-14	125-128	man	es	pp10sdn	iobj	basic	2-16	_	ak_834_7207
2-15	129-137	obligāti	obligāti	r0_	advmod	basic	2-16	_	ak_834_7207
2-16	138-145	jābeidz	beigt	vpnd0t100an	conj	basic	2-5	_	ak_834_7207
2-17	146-152	vismaz	vismaz	r0_	advmod	basic	2-18	_	ak_834_7207
2-18	153-154	1	1	xn	nummod	basic	2-19	time[1]	ak_834_7207
2-19	155-164	semestris	semestris	ncmsn2	obj	basic	2-16	time[1]	ak_834_7207
2-20	165-166	/	/	zx	punct	basic	2-22	time[1]	ak_834_7207
2-21	167-168	1	1	xn	conj	basic	2-20	time[1]	ak_834_7207
2-22	169-173	gads	gads	ncmsn1	flat:name	basic	2-19	time[1]	ak_834_7207
2-23	173-174	.	.	zs	punct	basic	2-16	_	ak_834_7207

#Text=Studiju pārtraukumu var pieprasīt reģistrācijas nedēļā semestrim.
3-1	176-183	Studiju	studijas	ncfdg4	nmod	basic	3-2	_	ak_834_7208
3-2	184-195	pārtraukumu	pārtraukums	ncmsa1	obj	basic	3-3	_	ak_834_7208
3-3	196-199	var	varēt	vonip_330an	root	basic	3-3	_	ak_834_7208
3-4	200-209	pieprasīt	pieprasīt	vmnn0t3000n	xcomp	basic	3-3	_	ak_834_7208
3-5	210-223	reģistrācijas	reģistrācija	ncfsg4	nmod	basic	3-6	_	ak_834_7208
3-6	224-230	nedēļā	nedēļa	ncfsl4	acl	basic	3-4	_	ak_834_7208
3-7	231-240	semestrim	semestris	ncmsd2	iobj	basic	3-4	_	ak_834_7208
3-8	240-241	.	.	zs	punct	basic	3-3	_	ak_834_7208
