#FORMAT=WebAnno TSV 3.2
#T_SP=de.tudarmstadt.ukp.dkpro.core.api.segmentation.type.Lemma|value
#T_SP=de.tudarmstadt.ukp.dkpro.core.api.lexmorph.type.pos.POS|PosValue
#T_RL=de.tudarmstadt.ukp.dkpro.core.api.syntax.type.dependency.Dependency|DependencyType|flavor|BT_de.tudarmstadt.ukp.dkpro.core.api.lexmorph.type.pos.POS
#T_SP=de.tudarmstadt.ukp.dkpro.core.api.ner.type.NamedEntity|value
#T_SP=webanno.custom.ID|value


#Text=Labvakar viesiem!
1-1	0-8	Labvakar	labvakar	is	nummod	basic	1-2	_	ak_840_7222
1-2	9-16	viesiem	viesis	ncmpd2	root	basic	1-2	_	ak_840_7222
1-3	16-17	!	!	zs	punct	basic	1-2	_	ak_840_7222

#Text=Man ir jautājums par akadēmisko atvaļinājumu: kur var par to atrast informāciju?
2-1	18-21	Man	es	pp10sdn	obl	basic	2-2	_	ak_840_7222
2-2	22-24	ir	būt	vcnipii30an	root	basic	2-2	_	ak_840_7222
2-3	25-34	jautājums	jautājums	ncmsn1	nsubj	basic	2-2	_	ak_840_7222
2-4	35-38	par	par	spsa	case	basic	2-6	_	ak_840_7222
2-5	39-49	akadēmisko	akadēmisks	afmpgyp	amod	basic	2-6	_	ak_840_7222
2-6	50-62	atvaļinājumu	atvaļinājums	ncmsa1	nmod	basic	2-3	_	ak_840_7222
2-7	62-63	:	:	zo	punct	basic	2-9	_	ak_840_7222
2-8	64-67	kur	kur	r0_	advmod	basic	2-9	_	ak_840_7222
2-9	68-71	var	varēt	vonip_330an	acl	basic	2-6	_	ak_840_7222
2-10	72-75	par	par	spsa	case	basic	2-11	_	ak_840_7222
2-11	76-78	to	tas	pd3msan	iobj	basic	2-12	_	ak_840_7222
2-12	79-85	atrast	atrast	vmnn0i1000n	xcomp	basic	2-9	_	ak_840_7222
2-13	86-97	informāciju	informācija	ncfsa4	obj	basic	2-12	_	ak_840_7222
2-14	97-98	?	?	zs	punct	basic	2-2	_	ak_840_7222

#Text=Ir tāda situācija: esmu tagad SZF 2. kursā, vēl jāmācās 1,5 gadu.
3-1	99-101	Ir	būt	vcnipii30an	root	basic	3-1	_	ak_840_7222
3-2	102-106	tāda	tāda	pd0fsnn	det	basic	3-3	_	ak_840_7222
3-3	107-116	situācija	situācija	ncfsn4	nsubj	basic	3-1	_	ak_840_7222
3-4	116-117	:	:	zo	punct	basic	3-5	_	ak_840_7222
3-5	118-122	esmu	būt	vcnip_i1san	conj	basic	3-1	_	ak_840_7222
3-6	123-128	tagad	tagad	r0_	advmod	basic	3-5	_	ak_840_7222
3-7	129-132	SZF	SZF	y	nmod	basic	3-9	organization[1]	ak_840_7222
3-8	133-135	2.	2.	xo	amod	basic	3-9	_	ak_840_7222
3-9	136-141	kursā	kurss	ncmsl1	obl	basic	3-5	_	ak_840_7222
3-10	141-142	,	,	zc	punct	basic	3-12	_	ak_840_7222
3-11	143-146	vēl	vēl	r0_	advmod	basic	3-12	_	ak_840_7222
3-12	147-154	jāmācās	mācīties	vmyd0_300an	conj	basic	3-5	_	ak_840_7222
3-13	155-158	1,5	1,5	xn	nummod	basic	3-14	_	ak_840_7222
3-14	159-163	gadu	gads	ncmpg1	obl	basic	3-12	_	ak_840_7222
3-15	163-164	.	.	zs	punct	basic	3-1	_	ak_840_7222

#Text=Plānoju aizbraukt strādāt uz ārzemēm...
4-1	165-172	Plānoju	plānot	vmnipt21san	root	basic	4-1	_	ak_840_7222
4-2	173-182	aizbraukt	aizbraukt	vmnn0_1000n	xcomp	basic	4-1	_	ak_840_7222
4-3	183-190	strādāt	strādāt	vmnn0_2000n	ccomp	basic	4-2	_	ak_840_7222
4-4	191-193	uz	uz	sppd	case	basic	4-5	_	ak_840_7222
4-5	194-201	ārzemēm	ārzemes	ncfdd5	obl	basic	4-3	_	ak_840_7222
4-6	201-204	...	...	zs	punct	basic	4-1	_	ak_840_7222

#Text=Vai es varu paņemt akadēmisko atvaļinājumu un uz kādu laiku?
5-1	205-208	Vai	vai	q	discourse	basic	5-3	_	ak_840_7222
5-2	209-211	es	es	pp10snn	nsubj	basic	5-3	_	ak_840_7222
5-3	212-216	varu	varēt	vonip_31san	root	basic	5-3	_	ak_840_7222
5-4	217-223	paņemt	paņemt	vmnn0t1000n	xcomp	basic	5-3	_	ak_840_7222
5-5	224-234	akadēmisko	akadēmisks	afmpgyp	amod	basic	5-6	_	ak_840_7222
5-6	235-247	atvaļinājumu	atvaļinājums	ncmsa1	obj	basic	5-4	_	ak_840_7222
5-7	248-250	un	un	cc	cc	basic	5-10	_	ak_840_7222
5-8	251-253	uz	uz	spsa	case	basic	5-10	_	ak_840_7222
5-9	254-258	kādu	kāds	pi0msan	det	basic	5-10	_	ak_840_7222
5-10	259-264	laiku	laiks	ncmsa1	conj	basic	5-6	_	ak_840_7222
5-11	264-265	?	?	zs	punct	basic	5-3	_	ak_840_7222

#Text=Vai var atjaunoties studijām budžetā vai arī pēc atvaļinājuma par studijām būs jāmaksā?
6-1	266-269	Vai	vai	q	discourse	basic	6-2	_	ak_840_7222
6-2	270-273	var	varēt	vonip_330an	root	basic	6-2	_	ak_840_7222
6-3	274-285	atjaunoties	atjaunoties	vmyn0_2000n	xcomp	basic	6-2	_	ak_840_7222
6-4	286-294	studijām	studijas	ncfdd4	obj	basic	6-2	_	ak_840_7222
6-5	295-302	budžetā	budžets	ncmsl1	obl	basic	6-4	_	ak_840_7222
6-6	303-306	vai	vai	cs	cc	basic	6-13	_	ak_840_7222
6-7	307-310	arī	arī	q	discourse	basic	6-13	_	ak_840_7222
6-8	311-314	pēc	pēc	spsg	case	basic	6-9	_	ak_840_7222
6-9	315-327	atvaļinājuma	atvaļinājums	ncmsg1	nsubj	basic	6-13	_	ak_840_7222
6-10	328-331	par	par	sppd	case	basic	6-11	_	ak_840_7222
6-11	332-340	studijām	studijas	ncfdd4	nmod	basic	6-9	_	ak_840_7222
6-12	341-344	būs	būt	vcnif_i30an	aux	basic	6-13	_	ak_840_7222
6-13	345-352	jāmaksā	maksāt	vmnd0i200an	conj	basic	6-2	_	ak_840_7222
6-14	352-353	?	?	zs	punct	basic	6-2	_	ak_840_7222

#Text=Vēl - ja es gribu turpināt studijas kādā ārzemju koledžā utt., vai LU 1.5 gadu ieskaitīs vai nē?
7-1	354-357	Vēl	vēl	r0_	root	basic	7-1	_	ak_840_7222
7-2	358-359	-	-	zd	punct	basic	7-1	_	ak_840_7222
7-3	360-362	ja	ja	cs	mark	basic	7-5	_	ak_840_7222
7-4	363-365	es	es	pp10snn	nsubj	basic	7-5	_	ak_840_7222
7-5	366-371	gribu	gribēt	vonip_31san	csubj	basic	7-1	_	ak_840_7222
7-6	372-380	turpināt	turpināt	vmnn0t3000n	xcomp	basic	7-5	_	ak_840_7222
7-7	381-389	studijas	studijas	ncfda4	obj	basic	7-6	_	ak_840_7222
7-8	390-394	kādā	kāds	pi0msln	det	basic	7-10	_	ak_840_7222
7-9	395-402	ārzemju	ārzemes	ncfdg5	nmod	basic	7-10	_	ak_840_7222
7-10	403-410	koledžā	koledža	ncfsl4	obl	basic	7-17	_	ak_840_7222
7-11	411-415	utt.	utt.	y	nmod	basic	7-17	_	ak_840_7222
7-12	415-416	,	,	zc	punct	basic	7-17	_	ak_840_7222
7-13	417-420	vai	vai	cs	mark	basic	7-17	_	ak_840_7222
7-14	421-423	LU	LU	yp	nmod	basic	7-15	organization[2]	ak_840_7222
7-15	424-427	1.5	1.5	xn	nummod	basic	7-16	time[3]	ak_840_7222
7-16	428-432	gadu	gads	ncmpg1	nsubj	basic	7-17	time[3]	ak_840_7222
7-17	433-442	ieskaitīs	ieskaitīt	vmnift330an	acl	basic	7-7	_	ak_840_7222
7-18	443-446	vai	vai	cs	cc	basic	7-19	_	ak_840_7222
7-19	447-449	nē	nē	q	conj	basic	7-17	_	ak_840_7222
7-20	449-450	?	?	zs	punct	basic	7-5	_	ak_840_7222

#Text=Iepriekš paldies!
8-1	451-459	Iepriekš	iepriekš	r0_	advmod	basic	8-2	_	ak_840_7222
8-2	460-467	paldies	paldies	is	root	basic	8-2	_	ak_840_7222
8-3	467-468	!	!	zs	punct	basic	8-2	_	ak_840_7222

#Text=Studiju pārtraukuma paņemšanas kārtība ir noteikta šajā dokumentā:\nhttp://www.lu.lv/par/svarigakie-dokumenti-un-statistika/noteikumi-un-kartibas/studiju-partrauksanas-kartiba-latvijas-universitate/\nPrincipā ir tā, ka studiju pārtraukums ir jāņem semestra reģistrācijas nedēļā.
9-1	470-477	Studiju	studijas	ncfdg4	nmod	basic	9-2	_	ak_840_7223
9-2	478-489	pārtraukuma	pārtraukums	ncmsg1	nmod	basic	9-3	_	ak_840_7223
9-3	490-500	paņemšanas	paņemšana	ncfsg4	nmod	basic	9-4	_	ak_840_7223
9-4	501-508	kārtība	kārtība	ncfsn4	nsubj	basic	9-6	_	ak_840_7223
9-5	509-511	ir	būt	vcnipii30an	aux:pass	basic	9-6	_	ak_840_7223
9-6	512-520	noteikta	noteikt	vmnpdfsnpsnpn	root	basic	9-6	_	ak_840_7223
9-7	521-525	šajā	šis	pd3msln	det	basic	9-8	_	ak_840_7223
9-8	526-535	dokumentā	dokuments	ncmsl1	obl	basic	9-6	_	ak_840_7223
9-9	535-536	:	:	zo	punct	basic	9-13	_	ak_840_7223
9-10	537-667	http://www.lu.lv/par/svarigakie-dokumenti-un-statistika/noteikumi-un-kartibas/studiju-partrauksanas-kartiba-latvijas-universitate/	http://www.lu.lv/par/svarigakie-dokumenti-un-statistika/noteikumi-un-kartibas/studiju-partrauksanas-kartiba-latvijas-universitate/	xx	obl	basic	9-13	person[4]	ak_840_7223
9-11	668-676	Principā	princips	ncmsl1	obl	basic	9-10	person[4]	ak_840_7223
9-12	677-679	ir	būt	vcnipii30an	cop	basic	9-13	_	ak_840_7223
9-13	680-682	tā	tā	r0_	conj	basic	9-6	_	ak_840_7223
9-14	682-683	,	,	zc	punct	basic	9-19	_	ak_840_7223
9-15	684-686	ka	ka	cs	mark	basic	9-19	_	ak_840_7223
9-16	687-694	studiju	studijas	ncfdg4	nmod	basic	9-17	_	ak_840_7223
9-17	695-706	pārtraukums	pārtraukums	ncmsn1	obj	basic	9-19	_	ak_840_7223
9-18	707-709	ir	būt	vcnipii30an	aux	basic	9-19	_	ak_840_7223
9-19	710-715	jāņem	ņemt	vmnd0t100an	advcl	basic	9-13	_	ak_840_7223
9-20	716-724	semestra	semestris	ncmsg2	nmod	basic	9-22	_	ak_840_7223
9-21	725-738	reģistrācijas	reģistrācija	ncfsg4	nmod	basic	9-22	_	ak_840_7223
9-22	739-745	nedēļā	nedēļa	ncfsl4	obl	basic	9-19	_	ak_840_7223
9-23	745-746	.	.	zs	punct	basic	9-6	_	ak_840_7223

#Text=Atjaunojoties pēc studiju pārtraukuma, saglabāsies tas studiju finansēšanas veids, kas bija pirms pārtraukuma (resp. ja esat budžeta students, tad pēc atjaunošanās arī būsiet budžeta students).
10-1	747-760	Atjaunojoties	atjaunoties	vmypu0000000n	advcl	basic	10-6	_	ak_840_7223
10-2	761-764	pēc	pēc	sppd	case	basic	10-4	_	ak_840_7223
10-3	765-772	studiju	studijas	ncfdg4	nmod	basic	10-4	_	ak_840_7223
10-4	773-784	pārtraukuma	pārtraukums	ncmsg1	obl	basic	10-1	_	ak_840_7223
10-5	784-785	,	,	zc	punct	basic	10-1	_	ak_840_7223
10-6	786-797	saglabāsies	saglabāties	vmyif_230an	root	basic	10-6	_	ak_840_7223
10-7	798-801	tas	tas	pd3msnn	det	basic	10-10	_	ak_840_7223
10-8	802-809	studiju	studijas	ncfdg4	nmod	basic	10-10	_	ak_840_7223
10-9	810-822	finansēšanas	finansēšana	ncfsg4	nmod	basic	10-10	_	ak_840_7223
10-10	823-828	veids	veids	ncmsn1	nsubj	basic	10-6	_	ak_840_7223
10-11	828-829	,	,	zc	punct	basic	10-13	_	ak_840_7223
10-12	830-833	kas	kas	pr000nn	nsubj	basic	10-13	_	ak_840_7223
10-13	834-838	bija	būt	vcnis_i30an	acl	basic	10-10	_	ak_840_7223
10-14	839-844	pirms	pirms	spsg	case	basic	10-15	_	ak_840_7223
10-15	845-856	pārtraukuma	pārtraukums	ncmsg1	obl	basic	10-13	_	ak_840_7223
10-16	857-858	(	(	zb	punct	basic	10-21	_	ak_840_7223
10-17	858-863	resp.	resp.	y	discourse	basic	10-21	_	ak_840_7223
10-18	864-866	ja	ja	cs	mark	basic	10-19	_	ak_840_7223
10-19	867-871	esat	būt	vcnip_i2pan	cop	basic	10-21	_	ak_840_7223
10-20	872-879	budžeta	budžets	ncmsg1	nmod	basic	10-21	_	ak_840_7223
10-21	880-888	students	students	ncmsn1	parataxis	basic	10-15	_	ak_840_7223
10-22	888-889	,	,	zc	punct	basic	10-21	_	ak_840_7223
10-23	890-893	tad	tad	r0_	advmod	basic	10-27	_	ak_840_7223
10-24	894-897	pēc	pēc	spsg	case	basic	10-25	_	ak_840_7223
10-25	898-910	atjaunošanās	atjaunošanās	ncfsgr	obl	basic	10-27	_	ak_840_7223
10-26	911-914	arī	arī	q	discourse	basic	10-27	_	ak_840_7223
10-27	915-921	būsiet	būt	vmnif_i2pan	conj	basic	10-6	_	ak_840_7223
10-28	922-929	budžeta	budžets	ncmsg1	nmod	basic	10-29	_	ak_840_7223
10-29	930-938	students	students	ncmsn1	nsubj	basic	10-27	_	ak_840_7223
10-30	938-939	)	)	zb	punct	basic	10-27	_	ak_840_7223
10-31	939-940	.	.	zs	punct	basic	10-6	_	ak_840_7223

#Text=Ārvalstu augstskolu prasības iepriekš iegūtās izglītības ieskaitīšanai jānoskaidro atbilstošajā ārvalstu augstskolā.
11-1	941-949	Ārvalstu	ārvalsts	ncfpg6	nmod	basic	11-2	_	ak_840_7223
11-2	950-960	augstskolu	augstskola	ncfpg4	nmod	basic	11-3	_	ak_840_7223
11-3	961-969	prasības	prasība	ncfpn4	nsubj	basic	11-8	_	ak_840_7223
11-4	970-978	iepriekš	iepriekš	r0_	advmod	basic	11-8	_	ak_840_7223
11-5	979-986	iegūtās	iegūt	vmnpdfpnpsypn	amod	basic	11-7	_	ak_840_7223
11-6	987-997	izglītības	izglītība	ncfsg4	nmod	basic	11-7	_	ak_840_7223
11-7	998-1011	ieskaitīšanai	ieskaitīšana	ncfsd4	iobj	basic	11-8	_	ak_840_7223
11-8	1012-1023	jānoskaidro	noskaidrot	vmnd0t200an	root	basic	11-8	_	ak_840_7223
11-9	1024-1036	atbilstošajā	atbilst	vmnpdmslapypn	amod	basic	11-10	_	ak_840_7223
11-10	1037-1045	ārvalstu	ārvalsts	ncfpg6	nmod	basic	11-11	_	ak_840_7223
11-11	1046-1056	augstskolā	augstskola	ncfsl4	obl	basic	11-8	_	ak_840_7223
11-12	1056-1057	.	.	zs	punct	basic	11-8	_	ak_840_7223

#Text=Interesējos par akadēmiskā atvaļinājuma paņemšanu uzreiz pēc iestāšanās universitātē pamatstudijām.
12-1	1059-1070	Interesējos	interesēties	vmyip_21san	root	basic	12-1	_	ak_840_7224
12-2	1071-1074	par	par	spsa	case	basic	12-5	_	ak_840_7224
12-3	1075-1085	akadēmiskā	akadēmisks	afmsgyp	amod	basic	12-5	_	ak_840_7224
12-4	1086-1098	atvaļinājuma	atvaļinājums	ncmsg1	nmod	basic	12-5	_	ak_840_7224
12-5	1099-1108	paņemšanu	paņemšana	ncfsa4	iobj	basic	12-1	_	ak_840_7224
12-6	1109-1115	uzreiz	uzreiz	r0_	advmod	basic	12-10	_	ak_840_7224
12-7	1116-1119	pēc	pēc	spsg	case	basic	12-8	_	ak_840_7224
12-8	1120-1130	iestāšanās	iestāšanās	ncfsgr	obl	basic	12-10	_	ak_840_7224
12-9	1131-1143	universitātē	universitāte	ncfsl5	obl	basic	12-10	_	ak_840_7224
12-10	1144-1157	pamatstudijām	pamatstudijīt	vmnip_31pan	acl	basic	12-1	_	ak_840_7224
12-11	1157-1158	.	.	zs	punct	basic	12-1	_	ak_840_7224

#Text=Dokumentā par akadēmiskajiem atvaļinājumiem nevarēju atrast, kas tad tieši ir tie īpašie gadījumi, kad uzreiz pēc iestāšanās var ņemt akadēmisko atvaļinājumu (2 semestri).
13-1	1159-1168	Dokumentā	dokuments	ncmsl1	obl	basic	13-5	_	ak_840_7224
13-2	1169-1172	par	par	sppd	case	basic	13-4	_	ak_840_7224
13-3	1173-1187	akadēmiskajiem	akadēmisks	afmpdyp	amod	basic	13-4	_	ak_840_7224
13-4	1188-1202	atvaļinājumiem	atvaļinājums	ncmpd1	iobj	basic	13-5	_	ak_840_7224
13-5	1203-1211	nevarēju	nevarēt	vonis_31san	root	basic	13-5	_	ak_840_7224
13-6	1212-1218	atrast	atrast	vmnn0i1000n	xcomp	basic	13-5	_	ak_840_7224
13-7	1218-1219	,	,	zc	punct	basic	13-14	_	ak_840_7224
13-8	1220-1223	kas	kas	pr000nn	nsubj	basic	13-14	_	ak_840_7224
13-9	1224-1227	tad	tad	r0_	advmod	basic	13-14	_	ak_840_7224
13-10	1228-1233	tieši	tieši	q	discourse	basic	13-11	_	ak_840_7224
13-11	1234-1236	ir	būt	vcnipii30an	cop	basic	13-14	_	ak_840_7224
13-12	1237-1240	tie	tas	pd3mpnn	det	basic	13-14	_	ak_840_7224
13-13	1241-1247	īpašie	īpašs	afmpnyp	amod	basic	13-14	_	ak_840_7224
13-14	1248-1256	gadījumi	gadījums	ncmpn1	ccomp	basic	13-6	_	ak_840_7224
13-15	1256-1257	,	,	zc	punct	basic	13-20	_	ak_840_7224
13-16	1258-1261	kad	kad	r0_	advmod	basic	13-20	_	ak_840_7224
13-17	1262-1268	uzreiz	uzreiz	r0_	advmod	basic	13-20	_	ak_840_7224
13-18	1269-1272	pēc	pēc	spsg	case	basic	13-19	_	ak_840_7224
13-19	1273-1283	iestāšanās	iestāšanās	ncfsgr	obl	basic	13-20	_	ak_840_7224
13-20	1284-1287	var	varēt	vonip_330an	acl	basic	13-14	_	ak_840_7224
13-21	1288-1292	ņemt	ņemt	vmnn0t1000n	xcomp	basic	13-20	_	ak_840_7224
13-22	1293-1303	akadēmisko	akadēmisks	afmpgyp	amod	basic	13-23	_	ak_840_7224
13-23	1304-1316	atvaļinājumu	atvaļinājums	ncmsa1	obj	basic	13-21	_	ak_840_7224
13-24	1317-1318	(	(	zb	punct	basic	13-26	_	ak_840_7224
13-25	1318-1319	2	2	xn	discourse	basic	13-26	_	ak_840_7224
13-26	1320-1328	semestri	semestris	ncmpn2	discourse	basic	13-14	_	ak_840_7224
13-27	1328-1329	)	)	zb	punct	basic	13-26	_	ak_840_7224
13-28	1329-1330	.	.	zs	punct	basic	13-5	_	ak_840_7224

#Text=Varbūt kāds šeit to zina?
14-1	1331-1337	Varbūt	varbūt	q	discourse	basic	14-5	_	ak_840_7224
14-2	1338-1342	kāds	kāds	pi0msnn	nsubj	basic	14-5	_	ak_840_7224
14-3	1343-1347	šeit	šeit	r0_	advmod	basic	14-5	_	ak_840_7224
14-4	1348-1350	to	tas	pd3msan	obj	basic	14-5	_	ak_840_7224
14-5	1351-1355	zina	zināt	vmnipt330an	root	basic	14-5	_	ak_840_7224
14-6	1355-1356	?	?	zs	punct	basic	14-5	_	ak_840_7224

#Text=Paldies!
15-1	1357-1364	Paldies	paldies	is	root	basic	15-1	_	ak_840_7224
15-2	1364-1365	!	!	zs	punct	basic	15-1	_	ak_840_7224

#Text=Labdien!\n"
16-1	1367-1374	Labdien	labdien	is	root	basic	16-1	_	ak_840_7225
16-2	1374-1375	!	!	zs	punct	basic	16-1	_	ak_840_7225
16-3	1376-1377	"	"	zq	punct	basic	16-1	_	ak_840_7225

#Text=Īpašie gadījumi" var būt veselības problēmas, ģimenes apstākļi vai citi objektīvi iemesli, kuru dēļ nevarat turpināt studijas attiecīgajā semestrī.
17-1	1377-1383	Īpašie	īpašs	afmpnyp	amod	basic	17-2	_	ak_840_7225
17-2	1384-1392	gadījumi	gadījums	ncmpn1	nsubj	basic	17-4	_	ak_840_7225
17-3	1392-1393	"	"	zq	punct	basic	17-2	_	ak_840_7225
17-4	1394-1397	var	varēt	vonip_330an	root	basic	17-4	_	ak_840_7225
17-5	1398-1401	būt	būt	vmnn0_i000n	xcomp	basic	17-4	_	ak_840_7225
17-6	1402-1411	veselības	veselība	ncfsg4	nmod	basic	17-7	_	ak_840_7225
17-7	1412-1421	problēmas	problēma	ncfpa4	obj	basic	17-5	_	ak_840_7225
17-8	1421-1422	,	,	zc	punct	basic	17-10	_	ak_840_7225
17-9	1423-1430	ģimenes	ģimene	ncfsg5	nmod	basic	17-10	_	ak_840_7225
17-10	1431-1439	apstākļi	apstāklis	ncmpn2	conj	basic	17-7	_	ak_840_7225
17-11	1440-1443	vai	vai	cs	cc	basic	17-14	_	ak_840_7225
17-12	1444-1448	citi	cits	pi0mpnn	det	basic	17-14	_	ak_840_7225
17-13	1449-1458	objektīvi	objektīvs	afmpnnp	amod	basic	17-14	_	ak_840_7225
17-14	1459-1466	iemesli	iemesls	ncmpn1	conj	basic	17-7	_	ak_840_7225
17-15	1466-1467	,	,	zc	punct	basic	17-18	_	ak_840_7225
17-16	1468-1472	kuru	kurš	pr0mpgn	obl	basic	17-18	_	ak_840_7225
17-17	1473-1476	dēļ	dēļ	sp__	case	basic	17-16	_	ak_840_7225
17-18	1477-1484	nevarat	nevarēt	vonip_32pan	acl	basic	17-14	_	ak_840_7225
17-19	1485-1493	turpināt	turpināt	vmnn0t3000n	xcomp	basic	17-18	_	ak_840_7225
17-20	1494-1502	studijas	studijas	ncfda4	obj	basic	17-19	_	ak_840_7225
17-21	1503-1514	attiecīgajā	attiecīgs	afmslyp	amod	basic	17-22	_	ak_840_7225
17-22	1515-1523	semestrī	semestris	ncmsl2	acl	basic	17-19	_	ak_840_7225
17-23	1523-1524	.	.	zs	punct	basic	17-4	_	ak_840_7225

#Text=Ar cieņu,\nStudentu servisa konsultants
18-1	1525-1527	Ar	ar	spsa	case	basic	18-2	_	ak_840_7225
18-2	1528-1533	cieņu	cieņa	ncfsa4	acl	basic	18-2	_	ak_840_7225
18-3	1533-1534	,	,	zc	punct	basic	18-2	_	ak_840_7225
18-4	1535-1543	Studentu	students	ncmpg1	nmod	basic	18-5	_	ak_840_7225
18-5	1544-1551	servisa	serviss	ncmsg1	nmod	basic	18-6	_	ak_840_7225
18-6	1552-1563	konsultants	konsultants	ncmsn1	root	basic	18-6	_	ak_840_7225
