#FORMAT=WebAnno TSV 3.2
#T_SP=de.tudarmstadt.ukp.dkpro.core.api.segmentation.type.Lemma|value
#T_SP=de.tudarmstadt.ukp.dkpro.core.api.lexmorph.type.pos.POS|PosValue
#T_RL=de.tudarmstadt.ukp.dkpro.core.api.syntax.type.dependency.Dependency|DependencyType|flavor|BT_de.tudarmstadt.ukp.dkpro.core.api.lexmorph.type.pos.POS
#T_SP=de.tudarmstadt.ukp.dkpro.core.api.ner.type.NamedEntity|value
#T_SP=webanno.custom.ID|value


#Text=Sveiki!
1-1	0-6	Sveiki	sveiks	afmpnnp	root	basic	1-1	_	ak_809_7114
1-2	6-7	!	!	zs	punct	basic	1-1	_	ak_809_7114

#Text=Gribēju uzzināt, kā var paņemt gada pārtraukumu aktīvajās studijās - t.s. akadēmisko gadu?
2-1	8-15	Gribēju	gribēt	vonis_31san	root	basic	2-1	_	ak_809_7114
2-2	16-23	uzzināt	uzzināt	vmnn0t3000n	xcomp	basic	2-1	_	ak_809_7114
2-3	23-24	,	,	zc	punct	basic	2-5	_	ak_809_7114
2-4	25-27	kā	kā	r0_	advmod	basic	2-5	_	ak_809_7114
2-5	28-31	var	varēt	vonip_330an	ccomp	basic	2-2	_	ak_809_7114
2-6	32-38	paņemt	paņemt	vmnn0t1000n	xcomp	basic	2-5	_	ak_809_7114
2-7	39-43	gada	gads	ncmsg1	nmod	basic	2-8	_	ak_809_7114
2-8	44-55	pārtraukumu	pārtraukums	ncmsa1	obj	basic	2-6	_	ak_809_7114
2-9	56-65	aktīvajās	aktīvs	affplyp	amod	basic	2-10	_	ak_809_7114
2-10	66-74	studijās	studijas	ncfdl4	obl	basic	2-11	_	ak_809_7114
2-11	75-76	-	-	zd	punct	basic	2-14	_	ak_809_7114
2-12	77-81	t.s.	t.s.	y	nsubj	basic	2-14	_	ak_809_7114
2-13	82-92	akadēmisko	akadēmisks	afmpgyp	amod	basic	2-14	_	ak_809_7114
2-14	93-97	gadu	gads	ncmsa1	acl	basic	2-8	_	ak_809_7114
2-15	97-98	?	?	zs	punct	basic	2-1	_	ak_809_7114

#Text=Vai tādā gadījumā es nezaudēju savu budžeta vietu?
3-1	99-102	Vai	vai	q	discourse	basic	3-5	_	ak_809_7114
3-2	103-107	tādā	tāds	pd0msln	det	basic	3-3	_	ak_809_7114
3-3	108-116	gadījumā	gadījums	ncmsl1	obl	basic	3-5	_	ak_809_7114
3-4	117-119	es	es	pp10snn	nsubj	basic	3-5	_	ak_809_7114
3-5	120-129	nezaudēju	nezaudēt	vmnip_21say	root	basic	3-5	_	ak_809_7114
3-6	130-134	savu	sava	ps0fsan	det	basic	3-8	_	ak_809_7114
3-7	135-142	budžeta	budžets	ncmsg1	nmod	basic	3-8	_	ak_809_7114
3-8	143-148	vietu	vieta	ncfsa4	obj	basic	3-5	_	ak_809_7114
3-9	148-149	?	?	zs	punct	basic	3-5	_	ak_809_7114

#Text=Kur par to var uzzināt kaut ko vairāk?
4-1	150-153	Kur	kur	r0_	advmod	basic	4-4	_	ak_809_7114
4-2	154-157	par	par	spsa	case	basic	4-3	_	ak_809_7114
4-3	158-160	to	tas	pd3msan	iobj	basic	4-4	_	ak_809_7114
4-4	161-164	var	varēt	vonip_330an	root	basic	4-4	_	ak_809_7114
4-5	165-172	uzzināt	uzzināt	vmnn0t3000n	xcomp	basic	4-4	_	ak_809_7114
4-6	173-177	kaut	kaut	q	discourse	basic	4-7	_	ak_809_7114
4-7	178-180	ko	kas	pi000an	det	basic	4-8	_	ak_809_7114
4-8	181-187	vairāk	vairāk	r0_	advmod	basic	4-4	_	ak_809_7114
4-9	187-188	?	?	zs	punct	basic	4-4	_	ak_809_7114

#Text=Paldies.
5-1	189-196	Paldies	paldies	is	root	basic	5-1	_	ak_809_7114
5-2	196-197	.	.	zs	punct	basic	5-1	_	ak_809_7114

#Text=Lai noformētu akadēmisko gadu, Jums jādodas pie savas programmas lietveža.
6-1	199-202	Lai	lai	cs	mark	basic	6-2	_	ak_809_7115
6-2	203-212	noformētu	noformēt	vmnc0t200an	advcl	basic	6-7	_	ak_809_7115
6-3	213-223	akadēmisko	akadēmisks	afmpgyp	amod	basic	6-4	_	ak_809_7115
6-4	224-228	gadu	gads	ncmsa1	obl	basic	6-2	_	ak_809_7115
6-5	228-229	,	,	zc	punct	basic	6-2	_	ak_809_7115
6-6	230-234	Jums	jūs	pp20pdn	nsubj	basic	6-7	_	ak_809_7115
6-7	235-242	jādodas	doties	vmyd0_100an	root	basic	6-7	_	ak_809_7115
6-8	243-246	pie	pie	spsg	case	basic	6-11	_	ak_809_7115
6-9	247-252	savas	sava	ps0fsgn	det	basic	6-10	_	ak_809_7115
6-10	253-263	programmas	programma	ncfsg4	nmod	basic	6-11	_	ak_809_7115
6-11	264-272	lietveža	lietvedis	ncmsg2	obl	basic	6-7	_	ak_809_7115
6-12	272-273	.	.	zs	punct	basic	6-7	_	ak_809_7115

#Text=Budžeta vietu nezaudēsiet.
7-1	274-281	Budžeta	budžets	ncmsg1	nmod	basic	7-2	_	ak_809_7115
7-2	282-287	vietu	vieta	ncfsa4	obj	basic	7-3	_	ak_809_7115
7-3	288-299	nezaudēsiet	nezaudēt	vmnif_22pay	root	basic	7-3	_	ak_809_7115
7-4	299-300	.	.	zs	punct	basic	7-3	_	ak_809_7115

#Text=Jāpiezīmē, ka studiju pārtraukums ir jāpieprasa reģistrācijas nedēļā semestrim, izņemot dažus, īpašus gadījumus (piemēram, smaga slimība, grūtniecība vai tml.).
8-1	302-311	Jāpiezīmē	piezīmēt	vmnd0t200an	root	basic	8-1	_	ak_809_7116
8-2	311-312	,	,	zc	punct	basic	8-7	_	ak_809_7116
8-3	313-315	ka	ka	cs	mark	basic	8-7	_	ak_809_7116
8-4	316-323	studiju	studijas	ncfdg4	nmod	basic	8-5	_	ak_809_7116
8-5	324-335	pārtraukums	pārtraukums	ncmsn1	obj	basic	8-7	_	ak_809_7116
8-6	336-338	ir	būt	vcnipii30an	aux	basic	8-7	_	ak_809_7116
8-7	339-349	jāpieprasa	pieprasīt	vmnd0t300an	ccomp	basic	8-1	_	ak_809_7116
8-8	350-363	reģistrācijas	reģistrācija	ncfsg4	nmod	basic	8-9	_	ak_809_7116
8-9	364-370	nedēļā	nedēļa	ncfsl4	nmod	basic	8-10	_	ak_809_7116
8-10	371-380	semestrim	semestris	ncmsd2	obj	basic	8-7	_	ak_809_7116
8-11	380-381	,	,	zc	punct	basic	8-12	_	ak_809_7116
8-12	382-389	izņemot	izņemt	vmnpu0000000n	advcl	basic	8-7	_	ak_809_7116
8-13	390-395	dažus	dažs	pi0mpan	det	basic	8-16	_	ak_809_7116
8-14	395-396	,	,	zc	punct	basic	8-16	_	ak_809_7116
8-15	397-403	īpašus	īpašs	afmpanp	amod	basic	8-16	_	ak_809_7116
8-16	404-413	gadījumus	gadījums	ncmpa1	obj	basic	8-12	_	ak_809_7116
8-17	414-415	(	(	zb	punct	basic	8-21	_	ak_809_7116
8-18	415-423	piemēram	piemērs	ncmsd1	discourse	basic	8-21	_	ak_809_7116
8-19	423-424	,	,	zc	punct	basic	8-18	_	ak_809_7116
8-20	425-430	smaga	smags	affsnnp	amod	basic	8-21	_	ak_809_7116
8-21	431-438	slimība	slimība	ncfsn4	discourse	basic	8-16	_	ak_809_7116
8-22	438-439	,	,	zc	punct	basic	8-23	_	ak_809_7116
8-23	440-451	grūtniecība	grūtniecība	ncfsn4	conj	basic	8-21	_	ak_809_7116
8-24	452-460	vai tml.	vai tml.	y	acl	basic	8-23	_	ak_809_7116
8-25	460-461	)	)	zb	punct	basic	8-21	_	ak_809_7116
8-26	461-462	.	.	zs	punct	basic	8-1	_	ak_809_7116

#Text=Studiju pārtraukumu piešķiršanas kārtība:\nhttp://www.lu.lv/dokumenti/studiju_partrauksanas_kartiba.html
9-1	463-470	Studiju	studijas	ncfdg4	nmod	basic	9-2	_	ak_809_7116
9-2	471-482	pārtraukumu	pārtraukums	ncmpg1	nmod	basic	9-3	_	ak_809_7116
9-3	483-495	piešķiršanas	piešķiršana	ncfsg4	nmod	basic	9-4	_	ak_809_7116
9-4	496-503	kārtība	kārtība	ncfsn4	root	basic	9-4	_	ak_809_7116
9-5	503-504	:	:	zo	punct	basic	9-6	_	ak_809_7116
9-6	505-566	http://www.lu.lv/dokumenti/studiju\_partrauksanas\_kartiba.html	http://www.lu.lv/dokumenti/studiju\_partrauksanas\_kartiba.html	xf	parataxis	basic	9-4	_	ak_809_7116
