#FORMAT=WebAnno TSV 3.2
#T_SP=de.tudarmstadt.ukp.dkpro.core.api.segmentation.type.Lemma|value
#T_SP=de.tudarmstadt.ukp.dkpro.core.api.lexmorph.type.pos.POS|PosValue
#T_RL=de.tudarmstadt.ukp.dkpro.core.api.syntax.type.dependency.Dependency|DependencyType|flavor|BT_de.tudarmstadt.ukp.dkpro.core.api.lexmorph.type.pos.POS
#T_SP=de.tudarmstadt.ukp.dkpro.core.api.ner.type.NamedEntity|value
#T_SP=webanno.custom.ID|value


#Text=Kur un kā, kas nepieciešams, lai nokārtotu akadēmisko gadu?
1-1	0-3	Kur	kur	r0_	root	basic	1-1	_	ak_877_7382
1-2	4-6	un	un	cc	cc	basic	1-3	_	ak_877_7382
1-3	7-9	kā	kā	r0_	conj	basic	1-1	_	ak_877_7382
1-4	9-10	,	,	zc	punct	basic	1-6	_	ak_877_7382
1-5	11-14	kas	kas	pr000nn	nsubj	basic	1-6	_	ak_877_7382
1-6	15-27	nepieciešams	nepieciešams	afmsnnp	advcl	basic	1-1	_	ak_877_7382
1-7	27-28	,	,	zc	punct	basic	1-9	_	ak_877_7382
1-8	29-32	lai	lai	cs	mark	basic	1-9	_	ak_877_7382
1-9	33-42	nokārtotu	nokārtot	vmnc0t200an	advcl	basic	1-6	_	ak_877_7382
1-10	43-53	akadēmisko	akadēmisks	afmpgyp	amod	basic	1-11	_	ak_877_7382
1-11	54-58	gadu	gads	ncmsa1	nmod	basic	1-9	_	ak_877_7382
1-12	58-59	?	?	zs	punct	basic	1-6	_	ak_877_7382

#Text=Noteikumi?
2-1	60-69	Noteikumi	noteikums	ncmpn1	root	basic	2-1	_	ak_877_7382
2-2	69-70	?	?	zs	punct	basic	2-1	_	ak_877_7382

#Text=Sekas?
3-1	71-76	Sekas	sekas	ncfdn4	root	basic	3-1	_	ak_877_7382
3-2	76-77	?	?	zs	punct	basic	3-1	_	ak_877_7382

#Text=Attiecīgā LU kārtība:\nhttp://www.lu.lv/dokumenti/studiju_partrauksanas_kartiba.html
4-1	79-88	Attiecīgā	attiecīgs	afmsgyp	amod	basic	4-3	_	ak_877_7383
4-2	89-91	LU	LU	yp	nmod	basic	4-3	organization[1]	ak_877_7383
4-3	92-99	kārtība	kārtība	ncfsn4	root	basic	4-3	_	ak_877_7383
4-4	99-100	:	:	zo	punct	basic	4-5	_	ak_877_7383
4-5	101-162	http://www.lu.lv/dokumenti/studiju\_partrauksanas\_kartiba.html	http://www.lu.lv/dokumenti/studiju\_partrauksanas\_kartiba.html	xf	parataxis	basic	4-3	_	ak_877_7383

#Text=Lai noformētu studiju pārtraukumu, studējošais līdz semestra reģistrācijas nedēļas beigām iesniedz Dekānam vai viņa pilnvarotai personai rakstveida iesniegumu.
5-1	164-167	Lai	lai	cs	mark	basic	5-2	_	ak_877_7384
5-2	168-177	noformētu	noformēt	vmnc0t200an	advcl	basic	5-2	_	ak_877_7384
5-3	178-185	studiju	studijas	ncfdg4	nmod	basic	5-4	_	ak_877_7384
5-4	186-197	pārtraukumu	pārtraukums	ncmsa1	obj	basic	5-2	_	ak_877_7384
5-5	197-198	,	,	zc	punct	basic	5-2	_	ak_877_7384
5-6	199-210	studējošais	studēt	vmnpdmsnapypn	root	basic	5-6	_	ak_877_7384
5-7	211-215	līdz	līdz	spsd	case	basic	5-11	_	ak_877_7384
5-8	216-224	semestra	semestris	ncmsg2	nmod	basic	5-11	_	ak_877_7384
5-9	225-238	reģistrācijas	reģistrācija	ncfsg4	nmod	basic	5-10	_	ak_877_7384
5-10	239-246	nedēļas	nedēļa	ncfsg4	nmod	basic	5-11	_	ak_877_7384
5-11	247-253	beigām	beigas	ncfdd4	obl	basic	5-6	_	ak_877_7384
5-12	254-262	iesniedz	iesniegt	vmnipt130an	ccomp	basic	5-6	_	ak_877_7384
5-13	263-270	Dekānam	dekāns	ncmsd1	iobj	basic	5-12	product[2]	ak_877_7384
5-14	271-274	vai	vai	cs	cc	basic	5-15	_	ak_877_7384
5-15	275-279	viņa	viņa	pp3fsnn	det	basic	5-17	_	ak_877_7384
5-16	280-291	pilnvarotai	pilnvarots	affsdnp	amod	basic	5-17	_	ak_877_7384
5-17	292-300	personai	persona	ncfsd4	conj	basic	5-13	_	ak_877_7384
5-18	301-311	rakstveida	rakstveida	nc00g_	nmod	basic	5-19	_	ak_877_7384
5-19	312-322	iesniegumu	iesniegums	ncmsa1	obj	basic	5-12	_	ak_877_7384
5-20	322-323	.	.	zs	punct	basic	5-6	_	ak_877_7384

#Text=Uz kuru kabinetu jānes EVF fakultātē?
6-1	324-326	Uz	uz	spsa	case	basic	6-3	_	ak_877_7384
6-2	327-331	kuru	kurš	pr0mpgn	det	basic	6-3	_	ak_877_7384
6-3	332-340	kabinetu	kabinets	ncmsa1	obl	basic	6-4	_	ak_877_7384
6-4	341-346	jānes	nest	vmnd0t100an	root	basic	6-4	_	ak_877_7384
6-5	347-350	EVF	EVF	y	nmod	basic	6-6	organization[3]	ak_877_7384
6-6	351-360	fakultātē	fakultāte	ncfsl5	obl	basic	6-4	_	ak_877_7384
6-7	360-361	?	?	zs	punct	basic	6-4	_	ak_877_7384

#Text=Tiešām pašam dekānam jānes?
7-1	362-368	Tiešām	tiešām	q	discourse	basic	7-4	_	ak_877_7384
7-2	369-374	pašam	pats	pg0msdn	det	basic	7-3	_	ak_877_7384
7-3	375-382	dekānam	dekāns	ncmsd1	nsubj	basic	7-4	_	ak_877_7384
7-4	383-388	jānes	nest	vmnd0t100an	root	basic	7-4	_	ak_877_7384
7-5	388-389	?	?	zs	punct	basic	7-4	_	ak_877_7384

#Text=Vai arī man jājautā, kas ir viņa pilnvarotā persona?
8-1	390-393	Vai	vai	q	discourse	basic	8-4	_	ak_877_7384
8-2	394-397	arī	arī	q	discourse	basic	8-4	_	ak_877_7384
8-3	398-401	man	es	pp10sdn	nsubj	basic	8-4	_	ak_877_7384
8-4	402-409	jājautā	jautāt	vmnd0t200an	root	basic	8-4	_	ak_877_7384
8-5	409-410	,	,	zc	punct	basic	8-10	_	ak_877_7384
8-6	411-414	kas	kas	pr000nn	nsubj	basic	8-10	_	ak_877_7384
8-7	415-417	ir	būt	vcnipii30an	aux	basic	8-10	_	ak_877_7384
8-8	418-422	viņa	viņš	pp3msgn	det	basic	8-10	_	ak_877_7384
8-9	423-433	pilnvarotā	pilnvarot	vmnpdfsnpsypn	amod	basic	8-10	_	ak_877_7384
8-10	434-441	persona	persona	ncfsn4	ccomp	basic	8-4	_	ak_877_7384
8-11	441-442	?	?	zs	punct	basic	8-4	_	ak_877_7384

#Text=Savas programmas lietvedei!
9-1	444-449	Savas	sava	ps0fpan	det	basic	9-3	_	ak_877_7385
9-2	450-460	programmas	programma	ncfsg4	nmod	basic	9-3	_	ak_877_7385
9-3	461-470	lietvedei	lietvede	ncfsd5	root	basic	9-3	_	ak_877_7385
9-4	470-471	!	!	zs	punct	basic	9-3	_	ak_877_7385

#Text=Iesniegumā esot jāpievieno dokumenti. "
10-1	473-483	Iesniegumā	iesniegums	ncmsl1	obl	basic	10-3	_	ak_877_7386
10-2	484-488	esot	būt	vcnrp_i00an	aux	basic	10-3	_	ak_877_7386
10-3	489-499	jāpievieno	pievienot	vmnd0t200an	root	basic	10-3	_	ak_877_7386
10-4	500-509	dokumenti	dokuments	ncmpn1	obj	basic	10-3	_	ak_877_7386
10-5	509-510	.	.	zs	punct	basic	10-3	_	ak_877_7386
10-6	511-512	"	"	zq	punct	basic	10-3	_	ak_877_7386

#Text=Gadījumos, kad studiju pārtraukumu pieprasa grūtniecības un dzemdību, bērna kopšanas atvaļinājuma vai slimības dēļ".
11-1	512-521	Gadījumos	gadījums	ncmpl1	root	basic	11-1	_	ak_877_7386
11-2	521-522	,	,	zc	punct	basic	11-6	_	ak_877_7386
11-3	523-526	kad	kad	r0_	advmod	basic	11-6	_	ak_877_7386
11-4	527-534	studiju	studijas	ncfdg4	nmod	basic	11-5	_	ak_877_7386
11-5	535-546	pārtraukumu	pārtraukums	ncmsa1	obj	basic	11-6	_	ak_877_7386
11-6	547-555	pieprasa	pieprasīt	vmnipt330an	acl	basic	11-1	_	ak_877_7386
11-7	556-568	grūtniecības	grūtniecība	ncfsg4	nsubj	basic	11-6	_	ak_877_7386
11-8	569-571	un	un	cc	cc	basic	11-9	_	ak_877_7386
11-9	572-580	dzemdību	dzemdības	ncfdg4	conj	basic	11-7	_	ak_877_7386
11-10	580-581	,	,	zc	punct	basic	11-12	_	ak_877_7386
11-11	582-587	bērna	bērns	ncmsg1	nmod	basic	11-12	_	ak_877_7386
11-12	588-596	kopšanas	kopšana	ncfsg4	conj	basic	11-7	_	ak_877_7386
11-13	597-609	atvaļinājuma	atvaļinājums	ncmsg1	acl	basic	11-12	_	ak_877_7386
11-14	610-613	vai	vai	cs	cc	basic	11-15	_	ak_877_7386
11-15	614-622	slimības	slimība	ncfsg4	conj	basic	11-13	_	ak_877_7386
11-16	623-626	dēļ	dēļ	sp__	case	basic	11-13	_	ak_877_7386
11-17	626-627	"	"	zq	punct	basic	11-7	_	ak_877_7386
11-18	627-628	.	.	zs	punct	basic	11-1	_	ak_877_7386

#Text=Kas ir grūtniecību apliecinošs dokuments?
12-1	629-632	Kas	kas	pq000nn	nsubj	basic	12-5	_	ak_877_7386
12-2	633-635	ir	būt	vcnipii30an	cop	basic	12-1	_	ak_877_7386
12-3	636-647	grūtniecību	grūtniecība	ncfsa4	obj	basic	12-4	_	ak_877_7386
12-4	648-659	apliecinošs	apliecināt	vmnpdmsnapnpn	amod	basic	12-5	_	ak_877_7386
12-5	660-669	dokuments	dokuments	ncmsn1	root	basic	12-5	_	ak_877_7386
12-6	669-670	?	?	zs	punct	basic	12-5	_	ak_877_7386

#Text=Darbnespējas lapa.
13-1	672-684	Darbnespējas	Darbnespēja	ncfsg4	nmod	basic	13-2	_	ak_877_7387
13-2	685-689	lapa	lapa	ncfsn4	root	basic	13-2	_	ak_877_7387
13-3	689-690	.	.	zs	punct	basic	13-2	_	ak_877_7387

#Text=Bet ja nu darbnespējas lapa tiek izrakstīta pēc reģistrācijas nedēļas?
14-1	692-695	Bet	bet	cc	cc	basic	14-7	_	ak_877_7388
14-2	696-698	ja	ja	cs	mark	basic	14-7	_	ak_877_7388
14-3	699-701	nu	nu	q	discourse	basic	14-7	_	ak_877_7388
14-4	702-714	darbnespējas	darbnespēja	ncfsg4	nmod	basic	14-5	_	ak_877_7388
14-5	715-719	lapa	lapa	ncfsn4	nsubj:pass	basic	14-7	_	ak_877_7388
14-6	720-724	tiek	tikt	vtnipi130an	aux:pass	basic	14-7	_	ak_877_7388
14-7	725-735	izrakstīta	izrakstīt	vmnpdfsnpsnpn	root	basic	14-7	_	ak_877_7388
14-8	736-739	pēc	pēc	spsg	case	basic	14-10	_	ak_877_7388
14-9	740-753	reģistrācijas	reģistrācija	ncfsg4	nmod	basic	14-10	_	ak_877_7388
14-10	754-761	nedēļas	nedēļa	ncfpa4	obl	basic	14-7	_	ak_877_7388
14-11	761-762	?	?	zs	punct	basic	14-7	_	ak_877_7388

#Text=To taču nevar izrakstīt pirms dekrēta (darbnespējas) iestāšanās!
15-1	763-765	To	tas	pd3msan	obj	basic	15-3	_	ak_877_7388
15-2	766-770	taču	taču	q	discourse	basic	15-3	_	ak_877_7388
15-3	771-776	nevar	nevarēt	vonip_330an	root	basic	15-3	_	ak_877_7388
15-4	777-786	izrakstīt	izrakstīt	vmnn0t3000n	xcomp	basic	15-3	_	ak_877_7388
15-5	787-792	pirms	pirms	spsg	case	basic	15-6	_	ak_877_7388
15-6	793-800	dekrēta	dekrēts	ncmsg1	nmod	basic	15-10	_	ak_877_7388
15-7	801-802	(	(	zb	punct	basic	15-8	_	ak_877_7388
15-8	802-814	darbnespējas	darbnespēja	ncfsg4	discourse	basic	15-6	_	ak_877_7388
15-9	814-815	)	)	zb	punct	basic	15-8	_	ak_877_7388
15-10	816-826	iestāšanās	iestāšanās	ncfsgr	obl	basic	15-4	_	ak_877_7388
15-11	826-827	!	!	zs	punct	basic	15-3	_	ak_877_7388

#Text=Pieprasīt studiju pārtraukumu grūtniecības dēļ var arī citā semestra laikā, ne tikai reģistrācijas nedēļā (skat.
16-1	829-838	Pieprasīt	pieprasīt	vmnn0t3000n	root	basic	16-1	_	ak_877_7389
16-2	839-846	studiju	studijas	ncfdg4	nmod	basic	16-3	_	ak_877_7389
16-3	847-858	pārtraukumu	pārtraukums	ncmpg1	nmod	basic	16-4	_	ak_877_7389
16-4	859-871	grūtniecības	grūtniecība	ncfsg4	obl	basic	16-6	_	ak_877_7389
16-5	872-875	dēļ	dēļ	sp__	case	basic	16-4	_	ak_877_7389
16-6	876-879	var	varēt	vonip_330an	ccomp	basic	16-1	_	ak_877_7389
16-7	880-883	arī	arī	q	discourse	basic	16-8	_	ak_877_7389
16-8	884-888	citā	cita	pi0fsln	det	basic	16-9	_	ak_877_7389
16-9	889-897	semestra	semestris	ncmsg2	nmod	basic	16-10	_	ak_877_7389
16-10	898-903	laikā	laiks	ncmsl1	obl	basic	16-6	_	ak_877_7389
16-11	903-904	,	,	zc	punct	basic	16-15	_	ak_877_7389
16-12	905-907	ne	ne	cc	cc	basic	16-15	_	ak_877_7389
16-13	908-913	tikai	tikai	q	discourse	basic	16-12	_	ak_877_7389
16-14	914-927	reģistrācijas	reģistrācija	ncfsg4	nmod	basic	16-15	_	ak_877_7389
16-15	928-934	nedēļā	nedēļa	ncfsl4	acl	basic	16-10	_	ak_877_7389
16-16	935-936	(	(	zb	punct	basic	16-17	_	ak_877_7389
16-17	936-940	skat	skat	is	discourse	basic	16-15	_	ak_877_7389
16-18	940-941	.	.	zs	punct	basic	16-6	_	ak_877_7389

#Text=kārtības 1.4. punktu).
17-1	942-950	kārtības	kārtība	ncfpn4	nsubj	basic	17-5	_	ak_877_7389
17-2	951-955	1.4.	1.4.	xo	amod	basic	17-3	_	ak_877_7389
17-3	956-962	punktu	punkts	ncmsa1	nmod	basic	17-1	_	ak_877_7389
17-4	962-963	)	)	zb	punct	basic	17-1	_	ak_877_7389
17-5	963-964	.	.	zs	punct	basic	17-5	_	ak_877_7389

#Text=Bet kā tad sanāk - man tagad jāreģistrējas luisā kārtējam semestrim un jāmaksā par studijām, lai pēc nedēļas iesniegtu darnespējas lapu?
18-1	966-969	Bet	bet	cc	cc	basic	18-4	_	ak_877_7391
18-2	970-972	kā	kā	r0_	advmod	basic	18-4	_	ak_877_7391
18-3	973-976	tad	tad	r0_	advmod	basic	18-4	_	ak_877_7391
18-4	977-982	sanāk	sanākt	vmnipi130an	root	basic	18-4	_	ak_877_7391
18-5	983-984	-	-	zd	punct	basic	18-8	_	ak_877_7391
18-6	985-988	man	es	pp10sdn	nsubj	basic	18-8	_	ak_877_7391
18-7	989-994	tagad	tagad	r0_	advmod	basic	18-8	_	ak_877_7391
18-8	995-1008	jāreģistrējas	reģistrēties	vmyd0_200an	ccomp	basic	18-4	_	ak_877_7391
18-9	1009-1014	luisā	luisa	ncfsl4	obl	basic	18-8	_	ak_877_7391
18-10	1015-1023	kārtējam	kārtējs	afmsdnp	amod	basic	18-11	_	ak_877_7391
18-11	1024-1033	semestrim	semestris	ncmsd2	obj	basic	18-8	_	ak_877_7391
18-12	1034-1036	un	un	cc	cc	basic	18-13	_	ak_877_7391
18-13	1037-1044	jāmaksā	maksāt	vmnd0i200an	conj	basic	18-8	_	ak_877_7391
18-14	1045-1048	par	par	sppd	case	basic	18-15	_	ak_877_7391
18-15	1049-1057	studijām	studijas	ncfdd4	iobj	basic	18-13	_	ak_877_7391
18-16	1057-1058	,	,	zc	punct	basic	18-20	_	ak_877_7391
18-17	1059-1062	lai	lai	cs	mark	basic	18-20	_	ak_877_7391
18-18	1063-1066	pēc	pēc	spsg	case	basic	18-19	_	ak_877_7391
18-19	1067-1074	nedēļas	nedēļa	ncfsg4	obl	basic	18-20	_	ak_877_7391
18-20	1075-1084	iesniegtu	iesniegt	vmnc0t100an	advcl	basic	18-8	_	ak_877_7391
18-21	1085-1096	darnespējas	darnespēja	ncfsg4	nmod	basic	18-22	_	ak_877_7391
18-22	1097-1101	lapu	lapa	ncfsa4	obj	basic	18-20	_	ak_877_7391
18-23	1101-1102	?	?	zs	punct	basic	18-4	_	ak_877_7391

#Text=Vai arī nav jāreģistrējas?
19-1	1103-1106	Vai	vai	q	discourse	basic	19-4	_	ak_877_7391
19-2	1107-1110	arī	arī	q	discourse	basic	19-4	_	ak_877_7391
19-3	1111-1114	nav	nebūt	vcnipii30ay	aux	basic	19-4	_	ak_877_7391
19-4	1115-1128	jāreģistrējas	reģistrēties	vmyd0_200an	root	basic	19-4	_	ak_877_7391
19-5	1128-1129	?	?	zs	punct	basic	19-4	_	ak_877_7391

#Text=Un nav jāmaksā?
20-1	1130-1132	Un	un	cc	cc	basic	20-3	_	ak_877_7391
20-2	1133-1136	nav	nebūt	vcnipii30ay	aux	basic	20-3	_	ak_877_7391
20-3	1137-1144	jāmaksā	maksāt	vmnd0i200an	root	basic	20-3	_	ak_877_7391
20-4	1144-1145	?	?	zs	punct	basic	20-3	_	ak_877_7391

#Text=Noteikti reģistrējieties studijām.
21-1	1147-1155	Noteikti	noteikti	r0_	advmod	basic	21-2	_	ak_877_7392
21-2	1156-1171	reģistrējieties	reģistrēties	vmym0_22pan	root	basic	21-2	_	ak_877_7392
21-3	1172-1180	studijām	studijas	ncfdd4	iobj	basic	21-2	_	ak_877_7392
21-4	1180-1181	.	.	zs	punct	basic	21-2	_	ak_877_7392

#Text=Jums studiju maksa ir jāmaksā līdz 30. septembrim.
22-1	1182-1186	Jums	jūs	pp20pdn	det	basic	22-3	_	ak_877_7392
22-2	1187-1194	studiju	studijas	ncfdg4	nmod	basic	22-3	_	ak_877_7392
22-3	1195-1200	maksa	maksa	ncfsn4	nsubj	basic	22-5	_	ak_877_7392
22-4	1201-1203	ir	būt	vcnipii30an	aux	basic	22-5	_	ak_877_7392
22-5	1204-1211	jāmaksā	maksāt	vmnd0i200an	root	basic	22-5	_	ak_877_7392
22-6	1212-1216	līdz	līdz	spsd	case	basic	22-8	time[4]	ak_877_7392
22-7	1217-1220	30.	30.	xo	amod	basic	22-8	time[4]	ak_877_7392
22-8	1221-1231	septembrim	septembris	ncmsd2	obl	basic	22-5	time[4]	ak_877_7392
22-9	1231-1232	.	.	zs	punct	basic	22-5	_	ak_877_7392

#Text=Ja pieprasīsiet studiju pārtraukumu, tad Jums nebūs jāmaksā studiju maksu.
23-1	1233-1235	Ja	ja	cs	mark	basic	23-2	_	ak_877_7392
23-2	1236-1248	pieprasīsiet	pieprasīt	vmnift32pan	advcl	basic	23-9	_	ak_877_7392
23-3	1249-1256	studiju	studijas	ncfdg4	nmod	basic	23-4	_	ak_877_7392
23-4	1257-1268	pārtraukumu	pārtraukums	ncmsa1	obj	basic	23-2	_	ak_877_7392
23-5	1268-1269	,	,	zc	punct	basic	23-2	_	ak_877_7392
23-6	1270-1273	tad	tad	r0_	advmod	basic	23-9	_	ak_877_7392
23-7	1274-1278	Jums	jūs	pp20pdn	iobj	basic	23-9	_	ak_877_7392
23-8	1279-1284	nebūs	nebūt	vmnifii30an	aux	basic	23-9	_	ak_877_7392
23-9	1285-1292	jāmaksā	maksāt	vmnd0i200an	root	basic	23-9	_	ak_877_7392
23-10	1293-1300	studiju	studijas	ncfdg4	nmod	basic	23-11	_	ak_877_7392
23-11	1301-1306	maksu	maksa	ncfsa4	obj	basic	23-9	_	ak_877_7392
23-12	1306-1307	.	.	zs	punct	basic	23-9	_	ak_877_7392
