#FORMAT=WebAnno TSV 3.2
#T_SP=de.tudarmstadt.ukp.dkpro.core.api.segmentation.type.Lemma|value
#T_SP=de.tudarmstadt.ukp.dkpro.core.api.lexmorph.type.pos.POS|PosValue
#T_RL=de.tudarmstadt.ukp.dkpro.core.api.syntax.type.dependency.Dependency|DependencyType|flavor|BT_de.tudarmstadt.ukp.dkpro.core.api.lexmorph.type.pos.POS
#T_SP=de.tudarmstadt.ukp.dkpro.core.api.ner.type.NamedEntity|value
#T_SP=webanno.custom.ID|value


#Text=Vai kāds zina, uz kā vārda jāraksta iesniegums akadēmiskā gada piešķiršanai?
1-1	0-3	Vai	vai	q	discourse	basic	1-3	_	ak_857_7288
1-2	4-8	kāds	kāds	pi0msnn	nsubj	basic	1-3	_	ak_857_7288
1-3	9-13	zina	zināt	vmnipt330an	root	basic	1-3	_	ak_857_7288
1-4	13-14	,	,	zc	punct	basic	1-8	_	ak_857_7288
1-5	15-17	uz	uz	sp__	case	basic	1-7	_	ak_857_7288
1-6	18-20	kā	kā	pd0msg_	det	basic	1-7	_	ak_857_7288
1-7	21-26	vārda	vārds	ncmsg1	obl	basic	1-8	_	ak_857_7288
1-8	27-35	jāraksta	rakstīt	vmnd0t300an	conj	basic	1-3	_	ak_857_7288
1-9	36-46	iesniegums	iesniegums	ncmsn1	obj	basic	1-8	_	ak_857_7288
1-10	47-57	akadēmiskā	akadēmisks	afmsgyp	amod	basic	1-11	_	ak_857_7288
1-11	58-62	gada	gads	ncmsg1	nmod	basic	1-12	_	ak_857_7288
1-12	63-75	piešķiršanai	piešķiršana	ncfsd4	acl	basic	1-9	_	ak_857_7288
1-13	75-76	?	?	zs	punct	basic	1-3	_	ak_857_7288

#Text=Mācos LU Moderno valodu fakultātē, bet šajā pusgadā slimoju pati, slimoja bērns - nav spēka mācīties...
2-1	77-82	Mācos	mākties	vmyip_11san	root	basic	2-1	_	ak_857_7288
2-2	83-85	LU	LU	yp	nmod	basic	2-4	organization[1]	ak_857_7288
2-3	86-93	Moderno	moderns	affpgyp	amod	basic	2-4	organization[1]	ak_857_7288
2-4	94-100	valodu	valoda	ncfpg4	nmod	basic	2-5	organization[1]	ak_857_7288
2-5	101-110	fakultātē	fakultāte	ncfsl5	obl	basic	2-1	organization[1]	ak_857_7288
2-6	110-111	,	,	zc	punct	basic	2-10	_	ak_857_7288
2-7	112-115	bet	bet	cc	cc	basic	2-10	_	ak_857_7288
2-8	116-120	šajā	šis	pd3msln	det	basic	2-9	_	ak_857_7288
2-9	121-128	pusgadā	pusgads	ncmsl1	obl	basic	2-10	_	ak_857_7288
2-10	129-136	slimoju	slimot	vmnipi21san	conj	basic	2-1	_	ak_857_7288
2-11	137-141	pati	pati	pg0fsnn	acl	basic	2-10	_	ak_857_7288
2-12	141-142	,	,	zc	punct	basic	2-13	_	ak_857_7288
2-13	143-150	slimoja	slimot	vmnisi230an	conj	basic	2-1	_	ak_857_7288
2-14	151-156	bērns	bērns	ncmsn1	nsubj	basic	2-13	_	ak_857_7288
2-15	157-158	-	-	zd	punct	basic	2-16	_	ak_857_7288
2-16	159-162	nav	nebūt	vcnipii30ay	conj	basic	2-1	_	ak_857_7288
2-17	163-168	spēka	spēks	ncmsg1	nsubj	basic	2-16	_	ak_857_7288
2-18	169-177	mācīties	mācīties	vmyn0_3000n	acl	basic	2-17	_	ak_857_7288
2-19	177-180	...	...	zs	punct	basic	2-1	_	ak_857_7288

#Text=Programmas direktoram.
3-1	182-192	Programmas	programma	ncfsg4	nmod	basic	3-2	_	ak_857_7289
3-2	193-203	direktoram	direktors	ncmsd1	root	basic	3-2	_	ak_857_7289
3-3	203-204	.	.	zs	punct	basic	3-2	_	ak_857_7289

#Text=Vēl jautājums - vai akadēmisko atvaļinājumu var paņemt tagad (semestra vidū)?
4-1	206-209	Vēl	vēl	r0_	advmod	basic	4-7	_	ak_857_7290
4-2	210-219	jautājums	jautājums	ncmsn1	nsubj	basic	4-7	_	ak_857_7290
4-3	220-221	-	-	zd	punct	basic	4-7	_	ak_857_7290
4-4	222-225	vai	vai	cs	cc	basic	4-7	_	ak_857_7290
4-5	226-236	akadēmisko	akadēmisks	afmsayp	amod	basic	4-6	_	ak_857_7290
4-6	237-249	atvaļinājumu	atvaļinājums	ncmsa1	obj	basic	4-7	_	ak_857_7290
4-7	250-253	var	varēt	vonip_330an	root	basic	4-7	_	ak_857_7290
4-8	254-260	paņemt	paņemt	vmnn0t1000n	xcomp	basic	4-7	_	ak_857_7290
4-9	261-266	tagad	tagad	r0_	advmod	basic	4-8	_	ak_857_7290
4-10	267-268	(	(	zb	punct	basic	4-12	_	ak_857_7290
4-11	268-276	semestra	semestris	ncmsg2	nmod	basic	4-12	_	ak_857_7290
4-12	277-281	vidū	vidus	ncmsl3	obl	basic	4-8	_	ak_857_7290
4-13	281-282	)	)	zb	punct	basic	4-12	_	ak_857_7290
4-14	282-283	?	?	zs	punct	basic	4-7	_	ak_857_7290

#Text=Formāli - nē.
5-1	285-292	Formāli	formāli	r0_	root	basic	5-1	_	ak_857_7291
5-2	293-294	-	-	zd	punct	basic	5-3	_	ak_857_7291
5-3	295-297	nē	nē	q	discourse	basic	5-1	_	ak_857_7291
5-4	297-298	.	.	zs	punct	basic	5-1	_	ak_857_7291

#Text=Faktiski - ejiet runāt ar programmas direktoru.
6-1	299-307	Faktiski	faktiski	r0_	root	basic	6-1	_	ak_857_7291
6-2	308-309	-	-	zd	punct	basic	6-1	_	ak_857_7291
6-3	310-315	ejiet	iet	vmnm0i12pan	root	basic	6-3	_	ak_857_7291
6-4	316-321	runāt	runāt	vmnn0i2000n	ccomp	basic	6-3	_	ak_857_7291
6-5	322-324	ar	ar	spsa	case	basic	6-7	_	ak_857_7291
6-6	325-335	programmas	programma	ncfsg4	nmod	basic	6-7	_	ak_857_7291
6-7	336-345	direktoru	direktors	ncmsa1	iobj	basic	6-4	_	ak_857_7291
6-8	345-346	.	.	zs	punct	basic	6-3	_	ak_857_7291
