#FORMAT=WebAnno TSV 3.2
#T_SP=de.tudarmstadt.ukp.dkpro.core.api.segmentation.type.Lemma|value
#T_SP=de.tudarmstadt.ukp.dkpro.core.api.lexmorph.type.pos.POS|PosValue
#T_RL=de.tudarmstadt.ukp.dkpro.core.api.syntax.type.dependency.Dependency|DependencyType|flavor|BT_de.tudarmstadt.ukp.dkpro.core.api.lexmorph.type.pos.POS
#T_SP=de.tudarmstadt.ukp.dkpro.core.api.ner.type.NamedEntity|value
#T_SP=webanno.custom.ID|value


#Text=Sveiki!
1-1	0-6	Sveiki	sveiks	afmpnnp	root	basic	1-1	_	ak_865_7324
1-2	6-7	!	!	zs	punct	basic	1-1	_	ak_865_7324

#Text=Zinu, ka bakalaura programmā var ņemt akadēmisko, maģistra programmā arī?
2-1	8-12	Zinu	zināt	vmnipt31san	root	basic	2-1	_	ak_865_7324
2-2	12-13	,	,	zc	punct	basic	2-6	_	ak_865_7324
2-3	14-16	ka	ka	cs	mark	basic	2-6	_	ak_865_7324
2-4	17-26	bakalaura	bakalaurs	ncmsg1	nmod	basic	2-5	_	ak_865_7324
2-5	27-36	programmā	programma	ncfsl4	obl	basic	2-6	_	ak_865_7324
2-6	37-40	var	varēt	vonip_330an	ccomp	basic	2-1	_	ak_865_7324
2-7	41-45	ņemt	ņemt	vmnn0t1000n	xcomp	basic	2-6	_	ak_865_7324
2-8	46-56	akadēmisko	akadēmisks	afmsayp	amod	basic	2-11	_	ak_865_7324
2-9	56-57	,	,	zc	punct	basic	2-11	_	ak_865_7324
2-10	58-66	maģistra	maģistrs	ncmsg1	nmod	basic	2-11	_	ak_865_7324
2-11	67-76	programmā	programma	ncfsl4	obl	basic	2-7	_	ak_865_7324
2-12	77-80	arī	arī	q	discourse	basic	2-11	_	ak_865_7324
2-13	80-81	?	?	zs	punct	basic	2-1	_	ak_865_7324

#Text=Jā, var.
3-1	83-85	Jā	jā	q	discourse	basic	3-3	_	ak_865_7325
3-2	85-86	,	,	zc	punct	basic	3-1	_	ak_865_7325
3-3	87-90	var	varēt	vonip_330an	root	basic	3-3	_	ak_865_7325
3-4	90-91	.	.	zs	punct	basic	3-3	_	ak_865_7325

#Text=Sveiki!
4-1	93-99	Sveiki	sveiks	afmpnnp	root	basic	4-1	_	ak_865_7326
4-2	99-100	!	!	zs	punct	basic	4-1	_	ak_865_7326

#Text=man jautajums par akademisko gadu.
5-1	101-104	man	es	pp10sdn	iobj	basic	5-2	_	ak_865_7326
5-2	105-114	jautajums	jautajums	ncmsn1	root	basic	5-2	_	ak_865_7326
5-3	115-118	par	par	spsa	case	basic	5-5	_	ak_865_7326
5-4	119-129	akademisko	akademisks	afmpgy_	amod	basic	5-5	_	ak_865_7326
5-5	130-134	gadu	gads	ncmsa1	nmod	basic	5-2	_	ak_865_7326
5-6	134-135	.	.	zs	punct	basic	5-2	_	ak_865_7326

#Text=Es braucu nakošgad projām uz ārzemēm, bet vēl neesmu īsti par to pārliecināta.
6-1	136-138	Es	es	pp10snn	nsubj	basic	6-2	_	ak_865_7326
6-2	139-145	braucu	braukt	vmnisi11san	root	basic	6-2	_	ak_865_7326
6-3	146-154	nakošgad	nakošgad	r_t	advmod	basic	6-2	_	ak_865_7326
6-4	155-161	projām	projām	r0_	obl	basic	6-2	_	ak_865_7326
6-5	162-164	uz	uz	sppd	case	basic	6-6	_	ak_865_7326
6-6	165-172	ārzemēm	ārzemes	ncfdd5	obl	basic	6-4	_	ak_865_7326
6-7	172-173	,	,	zc	punct	basic	6-14	_	ak_865_7326
6-8	174-177	bet	bet	cc	cc	basic	6-14	_	ak_865_7326
6-9	178-181	vēl	vēl	r0_	advmod	basic	6-14	_	ak_865_7326
6-10	182-188	neesmu	nebūt	vcnip_i1say	aux	basic	6-14	_	ak_865_7326
6-11	189-193	īsti	īsti	r0_	advmod	basic	6-14	_	ak_865_7326
6-12	194-197	par	par	spsa	case	basic	6-13	_	ak_865_7326
6-13	198-200	to	tas	pd3msan	iobj	basic	6-14	_	ak_865_7326
6-14	201-213	pārliecināta	pārliecināt	vmnpdfsnpsnpn	conj	basic	6-2	_	ak_865_7326
6-15	213-214	.	.	zs	punct	basic	6-2	_	ak_865_7326

#Text=Vai augustā es varu pieteikties uz akadēmisko gadu?
7-1	215-218	Vai	vai	q	discourse	basic	7-4	_	ak_865_7326
7-2	219-226	augustā	augusts	ncmsl1	obl	basic	7-4	_	ak_865_7326
7-3	227-229	es	es	pp10snn	nsubj	basic	7-4	_	ak_865_7326
7-4	230-234	varu	varēt	vonip_31san	root	basic	7-4	_	ak_865_7326
7-5	235-246	pieteikties	pieteikties	vmyn0_1000n	xcomp	basic	7-4	_	ak_865_7326
7-6	247-249	uz	uz	spsa	case	basic	7-8	_	ak_865_7326
7-7	250-260	akadēmisko	akadēmisks	afmpgyp	amod	basic	7-8	_	ak_865_7326
7-8	261-265	gadu	gads	ncmsa1	obl	basic	7-5	_	ak_865_7326
7-9	265-266	?	?	zs	punct	basic	7-4	_	ak_865_7326

#Text=Un, ja man nav parādu, man tacu nav jaierodas skolā nakošajā macību gadā, vai ne?
8-1	267-269	Un	un	cc	cc	basic	8-10	_	ak_865_7326
8-2	269-270	,	,	zc	punct	basic	8-5	_	ak_865_7326
8-3	271-273	ja	ja	cs	mark	basic	8-5	_	ak_865_7326
8-4	274-277	man	es	pp10sdn	obl	basic	8-5	_	ak_865_7326
8-5	278-281	nav	nebūt	vmnipii30ay	advcl	basic	8-10	_	ak_865_7326
8-6	282-288	parādu	parāds	ncmsa1	nsubj	basic	8-5	_	ak_865_7326
8-7	288-289	,	,	zc	punct	basic	8-5	_	ak_865_7326
8-8	290-293	man	es	pp10sdn	obl	basic	8-10	_	ak_865_7326
8-9	294-298	tacu	tacs	ncmsa1	obj	basic	8-10	_	ak_865_7326
8-10	299-302	nav	nebūt	vcnipii30ay	root	basic	8-10	_	ak_865_7326
8-11	303-312	jaierodas	jaieroda	ncfsg4	nmod	basic	8-15	_	ak_865_7326
8-12	313-318	skolā	skola	ncfsl4	obl	basic	8-11	_	ak_865_7326
8-13	319-327	nakošajā	nakošs	afmsly_	amod	basic	8-14	_	ak_865_7326
8-14	328-334	macību	macība	ncfpg4	nmod	basic	8-15	_	ak_865_7326
8-15	335-339	gadā	gads	ncmsl1	obl	basic	8-10	_	ak_865_7326
8-16	339-340	,	,	zc	punct	basic	8-17	_	ak_865_7326
8-17	341-344	vai	vai	cs	discourse	basic	8-10	_	ak_865_7326
8-18	345-347	ne	ne	q	flat	basic	8-17	_	ak_865_7326
8-19	347-348	?	?	zs	punct	basic	8-10	_	ak_865_7326

#Text=Ja gribat pieteikties studiju pārtraukumam, tad tas Jums ir jādara reģistrācijas nedēļā (no 27. augusta).
9-1	350-352	Ja	ja	cs	mark	basic	9-2	_	ak_865_7328
9-2	353-359	gribat	gribēt	vonip_32pan	advcl	basic	9-11	_	ak_865_7328
9-3	360-371	pieteikties	pieteikties	vmyn0_1000n	xcomp	basic	9-2	_	ak_865_7328
9-4	372-379	studiju	studijas	ncfdg4	nmod	basic	9-5	_	ak_865_7328
9-5	380-392	pārtraukumam	pārtraukums	ncmsd1	iobj	basic	9-3	_	ak_865_7328
9-6	392-393	,	,	zc	punct	basic	9-2	_	ak_865_7328
9-7	394-397	tad	tad	r0_	advmod	basic	9-11	_	ak_865_7328
9-8	398-401	tas	tas	pd3msnn	nsubj	basic	9-11	_	ak_865_7328
9-9	402-406	Jums	jūs	pp20pdn	iobj	basic	9-11	_	ak_865_7328
9-10	407-409	ir	būt	vcnipii30an	aux	basic	9-11	_	ak_865_7328
9-11	410-416	jādara	darīt	vmnd0t300an	root	basic	9-11	_	ak_865_7328
9-12	417-430	reģistrācijas	reģistrācija	ncfsg4	nmod	basic	9-13	_	ak_865_7328
9-13	431-437	nedēļā	nedēļa	ncfsl4	obl	basic	9-11	_	ak_865_7328
9-14	438-439	(	(	zb	punct	basic	9-17	_	ak_865_7328
9-15	439-441	no	no	spsg	case	basic	9-17	time[1]	ak_865_7328
9-16	442-445	27.	27.	xo	amod	basic	9-17	time[1]	ak_865_7328
9-17	446-453	augusta	augusts	ncmsg1	discourse	basic	9-13	time[1]	ak_865_7328
9-18	453-454	)	)	zb	punct	basic	9-17	_	ak_865_7328
9-19	454-455	.	.	zs	punct	basic	9-11	_	ak_865_7328
