#FORMAT=WebAnno TSV 3.2
#T_SP=de.tudarmstadt.ukp.dkpro.core.api.segmentation.type.Lemma|value
#T_SP=de.tudarmstadt.ukp.dkpro.core.api.lexmorph.type.pos.POS|PosValue
#T_RL=de.tudarmstadt.ukp.dkpro.core.api.syntax.type.dependency.Dependency|DependencyType|flavor|BT_de.tudarmstadt.ukp.dkpro.core.api.lexmorph.type.pos.POS
#T_SP=de.tudarmstadt.ukp.dkpro.core.api.ner.type.NamedEntity|value
#T_SP=webanno.custom.ID|value


#Text=Sveiki!
1-1	0-6	Sveiki	sveiks	afmpnnp	root	basic	1-1	_	ak_895_7471
1-2	6-7	!	!	zs	punct	basic	1-1	_	ak_895_7471

#Text=Vai ir kādi ierobežojumi akadēmisko gadu ņemšanai?
2-1	8-11	Vai	vai	q	discourse	basic	2-2	_	ak_895_7471
2-2	12-14	ir	būt	vcnipii30an	root	basic	2-2	_	ak_895_7471
2-3	15-19	kādi	kāds	pi0mpnn	det	basic	2-4	_	ak_895_7471
2-4	20-32	ierobežojumi	ierobežojums	ncmpn1	nsubj	basic	2-2	_	ak_895_7471
2-5	33-43	akadēmisko	akadēmisks	afmpgyp	amod	basic	2-6	_	ak_895_7471
2-6	44-48	gadu	gads	ncmpg1	nmod	basic	2-7	_	ak_895_7471
2-7	49-57	ņemšanai	ņemšana	ncfsd4	nmod	basic	2-4	_	ak_895_7471
2-8	57-58	?	?	zs	punct	basic	2-2	_	ak_895_7471

#Text=Respektīvi, vai varu ņemt akadēmisko, ja iepriekšējā gadā to jau biju paņēmis?
3-1	59-69	Respektīvi	respektīvi	r0_	discourse	basic	3-4	_	ak_895_7471
3-2	69-70	,	,	zc	punct	basic	3-1	_	ak_895_7471
3-3	71-74	vai	vai	cs	mark	basic	3-4	_	ak_895_7471
3-4	75-79	varu	varēt	vonip_31san	root	basic	3-4	_	ak_895_7471
3-5	80-84	ņemt	ņemt	vmnn0t1000n	xcomp	basic	3-4	_	ak_895_7471
3-6	85-95	akadēmisko	akadēmisks	afmsayp	obj	basic	3-5	_	ak_895_7471
3-7	95-96	,	,	zc	punct	basic	3-14	_	ak_895_7471
3-8	97-99	ja	ja	cs	mark	basic	3-14	_	ak_895_7471
3-9	100-111	iepriekšējā	iepriekšējs	afmslnp	amod	basic	3-10	time[1]	ak_895_7471
3-10	112-116	gadā	gads	ncmsl1	obl	basic	3-14	time[1]	ak_895_7471
3-11	117-119	to	tas	pd3msan	obj	basic	3-14	_	ak_895_7471
3-12	120-123	jau	jau	q	discourse	basic	3-14	_	ak_895_7471
3-13	124-128	biju	būt	vcnis_i1san	aux	basic	3-14	_	ak_895_7471
3-14	129-136	paņēmis	paņemt	vmnpdmsnasnpn	advcl	basic	3-6	_	ak_895_7471
3-15	136-137	?	?	zs	punct	basic	3-4	_	ak_895_7471

#Text=Un kāda ir mācību maksa pēc atjaunošanās (tāda, kāda iestājoties vai tā gada, kad domāju atsākt?)
4-1	138-140	Un	un	cc	cc	basic	4-2	_	ak_895_7471
4-2	141-145	kāda	kāda	pi0fsnn	root	basic	4-2	_	ak_895_7471
4-3	146-148	ir	būt	vcnipii30an	cop	basic	4-2	_	ak_895_7471
4-4	149-155	mācību	mācība	ncfpg4	nmod	basic	4-5	_	ak_895_7471
4-5	156-161	maksa	maksa	ncfsn4	nsubj	basic	4-2	_	ak_895_7471
4-6	162-165	pēc	pēc	spsg	case	basic	4-7	_	ak_895_7471
4-7	166-178	atjaunošanās	atjaunošanās	ncfsgr	nmod	basic	4-5	_	ak_895_7471
4-8	179-180	(	(	zb	punct	basic	4-9	_	ak_895_7471
4-9	180-184	tāda	tāda	pd0fsnn	parataxis	basic	4-7	_	ak_895_7471
4-10	184-185	,	,	zc	punct	basic	4-11	_	ak_895_7471
4-11	186-190	kāda	kāda	pr0fsnn	nsubj:pass	basic	4-9	_	ak_895_7471
4-12	191-202	iestājoties	iestāties	vmypu0000000n	advcl	basic	4-9	_	ak_895_7471
4-13	203-206	vai	vai	cs	cc	basic	4-15	_	ak_895_7471
4-14	207-209	tā	tas	pd3msgn	det	basic	4-15	_	ak_895_7471
4-15	210-214	gada	gads	ncmsg1	conj	basic	4-12	_	ak_895_7471
4-16	214-215	,	,	zc	punct	basic	4-18	_	ak_895_7471
4-17	216-219	kad	kad	r0_	advmod	basic	4-18	_	ak_895_7471
4-18	220-226	domāju	domāt	vmnip_21san	advcl	basic	4-15	_	ak_895_7471
4-19	227-233	atsākt	atsākt	vpnn0t1000n	xcomp	basic	4-18	_	ak_895_7471
4-20	233-234	?	?	zs	punct	basic	4-18	_	ak_895_7471
4-21	234-235	)	)	zb	punct	basic	4-9	_	ak_895_7471

#Text=Paldies!
5-1	236-243	Paldies	paldies	is	root	basic	5-1	_	ak_895_7471
5-2	243-244	!	!	zs	punct	basic	5-1	_	ak_895_7471

#Text=Sveiki!!
6-1	246-252	Sveiki	sveiks	afmpnnp	root	basic	6-1	_	ak_895_7472
6-2	252-254	!!	!!	zs	punct	basic	6-1	_	ak_895_7472

#Text=Lūdzu - LU noteikumi http://www.lu.lv/par/dokumenti/noteikumiunkartibas/studiju-partrauksanas-kartiba-latvijas-universitate/\nAr cieņu,\nStudentu servisa konsultants
7-1	255-260	Lūdzu	lūdzu	is	discourse	basic	7-4	_	ak_895_7472
7-2	261-262	-	-	zd	punct	basic	7-4	_	ak_895_7472
7-3	263-265	LU	LU	yp	nmod	basic	7-4	organization[2]	ak_895_7472
7-4	266-275	noteikumi	noteikums	ncmpn1	root	basic	7-4	_	ak_895_7472
7-5	276-379	http://www.lu.lv/par/dokumenti/noteikumiunkartibas/studiju-partrauksanas-kartiba-latvijas-universitate/	http://www.lu.lv/par/dokumenti/noteikumiunkartibas/studiju-partrauksanas-kartiba-latvijas-universitate/	xf	acl	basic	7-4	_	ak_895_7472
7-6	380-382	Ar	ar	spsa	case	basic	7-7	_	ak_895_7472
7-7	383-388	cieņu	cieņa	ncfsa4	nmod	basic	7-5	_	ak_895_7472
7-8	388-389	,	,	zc	punct	basic	7-4	_	ak_895_7472
7-9	390-398	Studentu	students	ncmpg1	nmod	basic	7-10	_	ak_895_7472
7-10	399-406	servisa	serviss	ncmsg1	nmod	basic	7-11	_	ak_895_7472
7-11	407-418	konsultants	konsultants	ncmsn1	root	basic	7-11	_	ak_895_7472
