#FORMAT=WebAnno TSV 3.2
#T_SP=de.tudarmstadt.ukp.dkpro.core.api.segmentation.type.Lemma|value
#T_SP=de.tudarmstadt.ukp.dkpro.core.api.lexmorph.type.pos.POS|PosValue
#T_RL=de.tudarmstadt.ukp.dkpro.core.api.syntax.type.dependency.Dependency|DependencyType|flavor|BT_de.tudarmstadt.ukp.dkpro.core.api.lexmorph.type.pos.POS
#T_SP=de.tudarmstadt.ukp.dkpro.core.api.ner.type.NamedEntity|value
#T_SP=webanno.custom.ID|value


#Text=Studēju 3. kursā budžetā, vēlos ņemt akadēmisko atvaļinājumu ģimenes apstākļu dēļ.
1-1	0-7	Studēju	studēt	vmnip_21san	root	basic	1-1	_	ak_835_7209
1-2	8-10	3.	3.	xo	amod	basic	1-3	_	ak_835_7209
1-3	11-16	kursā	kurss	ncmsl1	obl	basic	1-1	_	ak_835_7209
1-4	17-24	budžetā	budžets	ncmsl1	obl	basic	1-1	_	ak_835_7209
1-5	24-25	,	,	zc	punct	basic	1-1	_	ak_835_7209
1-6	26-31	vēlos	vēlēties	voyipt31san	root	basic	1-6	_	ak_835_7209
1-7	32-36	ņemt	ņemt	vmnn0t1000n	xcomp	basic	1-6	_	ak_835_7209
1-8	37-47	akadēmisko	akadēmisks	afmpgyp	amod	basic	1-9	_	ak_835_7209
1-9	48-60	atvaļinājumu	atvaļinājums	ncmpg1	nmod	basic	1-10	_	ak_835_7209
1-10	61-68	ģimenes	ģimene	ncfsg5	nmod	basic	1-11	_	ak_835_7209
1-11	69-77	apstākļu	apstāklis	ncmpg2	obl	basic	1-7	_	ak_835_7209
1-12	78-81	dēļ	dēļ	sp__	case	basic	1-11	_	ak_835_7209
1-13	81-82	.	.	zs	punct	basic	1-6	_	ak_835_7209

#Text=Vai man saglabāsies budžeta vieta pēc akadēmiskā atvaļinājuma beigām un vai atvaļinājumu varu paņemt jau tagad vai jānokārto visas saistības par šo semestri?
2-1	83-86	Vai	vai	q	discourse	basic	2-3	_	ak_835_7209
2-2	87-90	man	es	pp10sdn	obl	basic	2-3	_	ak_835_7209
2-3	91-102	saglabāsies	saglabāties	vmyif_230an	root	basic	2-3	_	ak_835_7209
2-4	103-110	budžeta	budžets	ncmsg1	nmod	basic	2-5	_	ak_835_7209
2-5	111-116	vieta	vieta	ncfsn4	nsubj	basic	2-3	_	ak_835_7209
2-6	117-120	pēc	pēc	spsg	case	basic	2-9	_	ak_835_7209
2-7	121-131	akadēmiskā	akadēmisks	afmsgyp	amod	basic	2-8	_	ak_835_7209
2-8	132-144	atvaļinājuma	atvaļinājums	ncmsg1	nmod	basic	2-9	_	ak_835_7209
2-9	145-151	beigām	beigas	ncfdd4	nmod	basic	2-5	_	ak_835_7209
2-10	152-154	un	un	cc	cc	basic	2-13	_	ak_835_7209
2-11	155-158	vai	vai	cs	cc	basic	2-13	_	ak_835_7209
2-12	159-171	atvaļinājumu	atvaļinājums	ncmpg1	nmod	basic	2-13	_	ak_835_7209
2-13	172-176	varu	varēt	vonip_31san	conj	basic	2-9	_	ak_835_7209
2-14	177-183	paņemt	paņemt	vmnn0t1000n	xcomp	basic	2-13	_	ak_835_7209
2-15	184-187	jau	jau	r0_	advmod	basic	2-16	_	ak_835_7209
2-16	188-193	tagad	tagad	r0_	advmod	basic	2-14	_	ak_835_7209
2-17	194-197	vai	vai	cs	cc	basic	2-18	_	ak_835_7209
2-18	198-207	jānokārto	nokārtot	vmnd0t200an	conj	basic	2-14	_	ak_835_7209
2-19	208-213	visas	visa	pg0fpan	det	basic	2-20	_	ak_835_7209
2-20	214-223	saistības	saistība	ncfpa4	obj	basic	2-18	_	ak_835_7209
2-21	224-227	par	par	spsa	case	basic	2-23	_	ak_835_7209
2-22	228-230	šo	šis	pd3msan	det	basic	2-23	_	ak_835_7209
2-23	231-239	semestri	semestris	ncmsa2	iobj	basic	2-18	_	ak_835_7209
2-24	239-240	?	?	zs	punct	basic	2-3	_	ak_835_7209

#Text=Studiju pārtraukumu var pieprasīt un saņemt semestra reģistrācijas nedēļā, izņemot dažus īpašus gadījumus (saistīti ar nopietnu saslimšanu, grūtniecību utt.).
3-1	242-249	Studiju	studijas	ncfdg4	nmod	basic	3-2	_	ak_835_7210
3-2	250-261	pārtraukumu	pārtraukums	ncmsa1	obj	basic	3-3	_	ak_835_7210
3-3	262-265	var	varēt	vonip_330an	root	basic	3-3	_	ak_835_7210
3-4	266-275	pieprasīt	pieprasīt	vmnn0t3000n	xcomp	basic	3-3	_	ak_835_7210
3-5	276-278	un	un	cc	cc	basic	3-6	_	ak_835_7210
3-6	279-285	saņemt	saņemt	vmnn0t1000n	conj	basic	3-4	_	ak_835_7210
3-7	286-294	semestra	semestris	ncmsg2	nmod	basic	3-8	_	ak_835_7210
3-8	295-308	reģistrācijas	reģistrācija	ncfsg4	nmod	basic	3-9	_	ak_835_7210
3-9	309-315	nedēļā	nedēļa	ncfsl4	iobj	basic	3-6	_	ak_835_7210
3-10	315-316	,	,	zc	punct	basic	3-11	_	ak_835_7210
3-11	317-324	izņemot	izņemt	vmnpu0000000n	advcl	basic	3-3	_	ak_835_7210
3-12	325-330	dažus	dažs	pi0mpan	det	basic	3-14	_	ak_835_7210
3-13	331-337	īpašus	īpašs	afmpanp	amod	basic	3-14	_	ak_835_7210
3-14	338-347	gadījumus	gadījums	ncmpa1	obj	basic	3-11	_	ak_835_7210
3-15	348-349	(	(	zb	punct	basic	3-16	_	ak_835_7210
3-16	349-357	saistīti	saistīt	vmnpdmpnpsnpn	discourse	basic	3-11	_	ak_835_7210
3-17	358-360	ar	ar	spsa	case	basic	3-19	_	ak_835_7210
3-18	361-369	nopietnu	nopietns	affsanp	amod	basic	3-19	_	ak_835_7210
3-19	370-380	saslimšanu	saslimšana	ncfsa4	iobj	basic	3-16	_	ak_835_7210
3-20	380-381	,	,	zc	punct	basic	3-21	_	ak_835_7210
3-21	382-393	grūtniecību	grūtniecība	ncfsa4	conj	basic	3-16	_	ak_835_7210
3-22	394-398	utt.	utt.	y	acl	basic	3-21	_	ak_835_7210
3-23	398-399	)	)	zb	punct	basic	3-16	_	ak_835_7210
3-24	399-400	.	.	zs	punct	basic	3-3	_	ak_835_7210

#Text=Atgriežoties no studiju pārtraukuma, Jums saglabāsies tas pats finansējuma avots, kas bija pirms pārtraukuma.
4-1	401-413	Atgriežoties	atgriezties	vmypu0000000n	advcl	basic	4-7	_	ak_835_7210
4-2	414-416	no	no	spsg	case	basic	4-4	_	ak_835_7210
4-3	417-424	studiju	studijas	ncfdg4	nmod	basic	4-4	_	ak_835_7210
4-4	425-436	pārtraukuma	pārtraukums	ncmsg1	iobj	basic	4-1	_	ak_835_7210
4-5	436-437	,	,	zc	punct	basic	4-1	_	ak_835_7210
4-6	438-442	Jums	jūs	pp20pdn	obl	basic	4-7	_	ak_835_7210
4-7	443-454	saglabāsies	saglabāties	vmyif_230an	root	basic	4-7	_	ak_835_7210
4-8	455-458	tas	tas	pd3msnn	det	basic	4-11	_	ak_835_7210
4-9	459-463	pats	pats	pg0msnn	compound	basic	4-8	_	ak_835_7210
4-10	464-475	finansējuma	finansējums	ncmsg1	nmod	basic	4-11	_	ak_835_7210
4-11	476-481	avots	avots	ncmsn1	nsubj	basic	4-7	_	ak_835_7210
4-12	481-482	,	,	zc	punct	basic	4-14	_	ak_835_7210
4-13	483-486	kas	kas	pr000nn	nsubj	basic	4-14	_	ak_835_7210
4-14	487-491	bija	būt	vcnis_i30an	acl	basic	4-11	_	ak_835_7210
4-15	492-497	pirms	pirms	spsg	case	basic	4-16	_	ak_835_7210
4-16	498-509	pārtraukuma	pārtraukums	ncmsg1	obl	basic	4-14	_	ak_835_7210
4-17	509-510	.	.	zs	punct	basic	4-7	_	ak_835_7210

#Text=Tātad - Jūs joprojām būsiet budžeta students.
5-1	511-516	Tātad	tātad	r0_	discourse	basic	5-8	_	ak_835_7210
5-2	517-518	-	-	zd	punct	basic	5-1	_	ak_835_7210
5-3	519-522	Jūs	jūs	pp20pnn	nsubj	basic	5-8	_	ak_835_7210
5-4	523-531	joprojām	joprojām	r0_	advmod	basic	5-8	_	ak_835_7210
5-5	532-538	būsiet	būsiet	vm_n0__00__	ccomp	basic	5-4	_	ak_835_7210
5-6	539-546	budžeta	budžets	ncmsg1	nmod	basic	5-7	_	ak_835_7210
5-7	547-555	students	students	ncmsn1	iobj	basic	5-5	_	ak_835_7210
5-8	555-556	.	.	zs	punct	basic	5-8	_	ak_835_7210

#Text=Bet reāli tad man tagad ir iespēja saņemt atvaļinājumu?
6-1	558-561	Bet	bet	cc	cc	basic	6-6	_	ak_835_7211
6-2	562-567	reāli	reāli	r0_	advmod	basic	6-3	_	ak_835_7211
6-3	568-571	tad	tad	r0_	advmod	basic	6-6	_	ak_835_7211
6-4	572-575	man	es	pp10sdn	obl	basic	6-6	_	ak_835_7211
6-5	576-581	tagad	tagad	r0_	advmod	basic	6-6	_	ak_835_7211
6-6	582-584	ir	būt	vcnipii30an	root	basic	6-6	_	ak_835_7211
6-7	585-592	iespēja	iespēja	ncfsn4	nsubj	basic	6-6	_	ak_835_7211
6-8	593-599	saņemt	saņemt	vmnn0t1000n	acl	basic	6-7	_	ak_835_7211
6-9	600-612	atvaļinājumu	atvaļinājums	ncmsa1	obj	basic	6-8	_	ak_835_7211
6-10	612-613	?	?	zs	punct	basic	6-6	_	ak_835_7211

#Text=Palabo, ja nepareizi saprotu, bet atvaļinājumu var dabūt, tikai sanāks, ka man būs jāstudē šis semestris vēlreiz, ja?
7-1	614-620	Palabo	palabs	afmsayp	advcl	basic	7-13	person[1]	ak_835_7211
7-2	620-621	,	,	zc	punct	basic	7-5	_	ak_835_7211
7-3	622-624	ja	ja	cs	mark	basic	7-5	_	ak_835_7211
7-4	625-634	nepareizi	nepareizi	r0_	advmod	basic	7-5	_	ak_835_7211
7-5	635-642	saprotu	saprast	vmnipt11san	advcl	basic	7-9	_	ak_835_7211
7-6	642-643	,	,	zc	punct	basic	7-5	_	ak_835_7211
7-7	644-647	bet	bet	cc	cc	basic	7-9	_	ak_835_7211
7-8	648-660	atvaļinājumu	atvaļinājums	ncmsa1	obj	basic	7-9	_	ak_835_7211
7-9	661-664	var	varēt	vonip_330an	advcl	basic	7-13	_	ak_835_7211
7-10	665-670	dabūt	dabūt	vmnn0t2000n	xcomp	basic	7-9	_	ak_835_7211
7-11	670-671	,	,	zc	punct	basic	7-9	_	ak_835_7211
7-12	672-677	tikai	tikai	q	discourse	basic	7-13	_	ak_835_7211
7-13	678-684	sanāks	sanākt	vmnifi130an	root	basic	7-13	_	ak_835_7211
7-14	684-685	,	,	zc	punct	basic	7-18	_	ak_835_7211
7-15	686-688	ka	ka	cs	mark	basic	7-18	_	ak_835_7211
7-16	689-692	man	es	pp10sdn	nsubj	basic	7-18	_	ak_835_7211
7-17	693-696	būs	būt	vcnif_i30an	aux	basic	7-18	_	ak_835_7211
7-18	697-704	jāstudē	studēt	vmnd0_200an	ccomp	basic	7-13	_	ak_835_7211
7-19	705-708	šis	šis	pd3msnn	det	basic	7-20	_	ak_835_7211
7-20	709-718	semestris	semestris	ncmsn2	nsubj	basic	7-18	_	ak_835_7211
7-21	719-726	vēlreiz	vēlreiz	r0_	advmod	basic	7-18	_	ak_835_7211
7-22	726-727	,	,	zc	punct	basic	7-21	_	ak_835_7211
7-23	728-730	ja	ja	cs	mark	basic	7-22	_	ak_835_7211
7-24	730-731	?	?	zs	punct	basic	7-13	_	ak_835_7211

#Text=Šeit ir LU kārtība studiju pārtraukumiem:\nhttp://www.lu.lv/dokumenti/studiju_partrauksanas_kartiba.html\nTur rakstīts:\n1.4. Studiju pārtraukumu noformē semestra reģistrācijas nedēļas laikā.
8-1	733-737	Šeit	šeit	r0_	advmod	basic	8-2	_	ak_835_7213
8-2	738-740	ir	būt	vcnipii30an	root	basic	8-2	_	ak_835_7213
8-3	741-743	LU	LU	yp	nmod	basic	8-4	organization[2]	ak_835_7213
8-4	744-751	kārtība	kārtība	ncfsn4	nsubj	basic	8-2	_	ak_835_7213
8-5	752-759	studiju	studijas	ncfdg4	nmod	basic	8-6	_	ak_835_7213
8-6	760-773	pārtraukumiem	pārtraukums	ncmpd1	iobj	basic	8-2	_	ak_835_7213
8-7	773-774	:	:	zo	punct	basic	8-10	_	ak_835_7213
8-8	775-836	http://www.lu.lv/dokumenti/studiju\_partrauksanas\_kartiba.html	http://www.lu.lv/dokumenti/studiju\_partrauksanas\_kartiba.html	r_m	advmod	basic	8-9	_	ak_835_7213
8-9	837-840	Tur	tur	r0_	advmod	basic	8-10	_	ak_835_7213
8-10	841-849	rakstīts	rakstīt	vmnpdmsnpsnpn	acl	basic	8-6	_	ak_835_7213
8-11	849-850	:	:	zo	punct	basic	8-15	_	ak_835_7213
8-12	851-855	1.4.	1.4.	xx	amod	basic	8-14	_	ak_835_7213
8-13	856-863	Studiju	studijas	ncfdg4	nmod	basic	8-14	_	ak_835_7213
8-14	864-875	pārtraukumu	pārtraukums	ncmsa1	obj	basic	8-15	_	ak_835_7213
8-15	876-883	noformē	noformēt	vmnipt230an	conj	basic	8-2	_	ak_835_7213
8-16	884-892	semestra	semestris	ncmsg2	nmod	basic	8-17	_	ak_835_7213
8-17	893-906	reģistrācijas	reģistrācija	ncfsg4	nmod	basic	8-18	_	ak_835_7213
8-18	907-914	nedēļas	nedēļa	ncfsg4	nmod	basic	8-19	_	ak_835_7213
8-19	915-920	laikā	laiks	ncmsl1	obl	basic	8-15	_	ak_835_7213
8-20	920-921	.	.	zs	punct	basic	8-2	_	ak_835_7213

#Text=Izņēmums ir studiju pārtraukums grūtniecības un dzemdību, bērna kopšanas atvaļinājuma vai slimības dēļ, kuru, ja to apliecina atbilstoši dokumenti, piešķir, sākot ar darba nespējas vai bērna kopšanas atvaļinājuma pirmo dienu līdz nākošā akadēmiskā gada tā paša semestra reģistrācijas nedēļas pirmajai dienai.
9-1	922-930	Izņēmums	izņēmums	ncmsn1	nsubj	basic	9-4	_	ak_835_7213
9-2	931-933	ir	būt	vcnipii30an	cop	basic	9-4	_	ak_835_7213
9-3	934-941	studiju	studijas	ncfdg4	nmod	basic	9-4	_	ak_835_7213
9-4	942-953	pārtraukums	pārtraukums	ncmsn1	root	basic	9-4	_	ak_835_7213
9-5	954-966	grūtniecības	grūtniecība	ncfsg4	nmod	basic	9-4	_	ak_835_7213
9-6	967-969	un	un	cc	cc	basic	9-7	_	ak_835_7213
9-7	970-978	dzemdību	dzemdības	ncfdg4	conj	basic	9-5	_	ak_835_7213
9-8	978-979	,	,	zc	punct	basic	9-10	_	ak_835_7213
9-9	980-985	bērna	bērns	ncmsg1	nmod	basic	9-10	_	ak_835_7213
9-10	986-994	kopšanas	kopšana	ncfsg4	conj	basic	9-5	_	ak_835_7213
9-11	995-1007	atvaļinājuma	atvaļinājums	ncmsg1	acl	basic	9-10	_	ak_835_7213
9-12	1008-1011	vai	vai	cs	cc	basic	9-13	_	ak_835_7213
9-13	1012-1020	slimības	slimība	ncfsg4	conj	basic	9-11	_	ak_835_7213
9-14	1021-1024	dēļ	dēļ	sp__	case	basic	9-16	_	ak_835_7213
9-15	1024-1025	,	,	zc	punct	basic	9-16	_	ak_835_7213
9-16	1026-1030	kuru	kura	pr0fsan	obj	basic	9-5	_	ak_835_7213
9-17	1030-1031	,	,	zc	punct	basic	9-20	_	ak_835_7213
9-18	1032-1034	ja	ja	cs	mark	basic	9-20	_	ak_835_7213
9-19	1035-1037	to	tas	pd3msan	obj	basic	9-20	_	ak_835_7213
9-20	1038-1047	apliecina	apliecināt	vmnipt330an	punct	basic	9-21	_	ak_835_7213
9-21	1048-1058	atbilstoši	atbilst	vmnpdmpnapnpn	advcl	basic	9-24	_	ak_835_7213
9-22	1059-1068	dokumenti	dokuments	ncmpn1	nsubj	basic	9-21	_	ak_835_7213
9-23	1068-1069	,	,	zc	punct	basic	9-21	_	ak_835_7213
9-24	1070-1077	piešķir	piešķirt	vmnipt130an	conj	basic	9-4	_	ak_835_7213
9-25	1077-1078	,	,	zc	punct	basic	9-26	_	ak_835_7213
9-26	1079-1084	sākot	sākt	vpnpu0000000n	advcl	basic	9-24	_	ak_835_7213
9-27	1085-1087	ar	ar	spsa	case	basic	9-35	_	ak_835_7213
9-28	1088-1093	darba	darbs	ncmsg1	nmod	basic	9-29	_	ak_835_7213
9-29	1094-1102	nespējas	nespēja	ncfsg4	nmod	basic	9-35	_	ak_835_7213
9-30	1103-1106	vai	vai	cs	cc	basic	9-32	_	ak_835_7213
9-31	1107-1112	bērna	bērns	ncmsg1	nmod	basic	9-32	_	ak_835_7213
9-32	1113-1121	kopšanas	kopšana	ncfsg4	nmod	basic	9-33	_	ak_835_7213
9-33	1122-1134	atvaļinājuma	atvaļinājums	ncmsg1	nmod	basic	9-35	_	ak_835_7213
9-34	1135-1140	pirmo	pirmais	mosfsa	amod	basic	9-35	_	ak_835_7213
9-35	1141-1146	dienu	diena	ncfsa4	iobj	basic	9-26	_	ak_835_7213
9-36	1147-1151	līdz	līdz	spsd	case	basic	9-46	_	ak_835_7213
9-37	1152-1158	nākošā	nākošs	affsnyp	amod	basic	9-46	_	ak_835_7213
9-38	1159-1169	akadēmiskā	akadēmisks	afmsgyp	amod	basic	9-39	_	ak_835_7213
9-39	1170-1174	gada	gads	ncmsg1	nmod	basic	9-46	_	ak_835_7213
9-40	1175-1177	tā	tā	r0_	discourse	basic	9-46	_	ak_835_7213
9-41	1178-1182	paša	pats	pg0msgn	det	basic	9-42	_	ak_835_7213
9-42	1183-1191	semestra	semestris	ncmsg2	nmod	basic	9-44	_	ak_835_7213
9-43	1192-1205	reģistrācijas	reģistrācija	ncfsg4	nmod	basic	9-44	_	ak_835_7213
9-44	1206-1213	nedēļas	nedēļa	ncfsg4	nmod	basic	9-45	_	ak_835_7213
9-45	1214-1222	pirmajai	pirmais	mosfsd	amod	basic	9-46	_	ak_835_7213
9-46	1223-1229	dienai	diena	ncfsd4	nmod	basic	9-35	_	ak_835_7213
9-47	1229-1230	.	.	zs	punct	basic	9-4	_	ak_835_7213

#Text=Semestra reģistrācijas nedēļa bija augusta beigās un nākamā būs janvāra beigās.
10-1	1231-1239	Semestra	semestris	ncmsg2	nmod	basic	10-3	_	ak_835_7213
10-2	1240-1253	reģistrācijas	reģistrācija	ncfsg4	nmod	basic	10-3	_	ak_835_7213
10-3	1254-1260	nedēļa	nedēļa	ncfsn4	nsubj	basic	10-9	_	ak_835_7213
10-4	1261-1265	bija	būt	vcnis_i30an	cop	basic	10-9	_	ak_835_7213
10-5	1266-1273	augusta	augusts	ncmsg1	nmod	basic	10-6	time[3]	ak_835_7213
10-6	1274-1280	beigās	beigas	ncfdl4	obl	basic	10-9	time[3]	ak_835_7213
10-7	1281-1283	un	un	cc	cc	basic	10-9	time[3]	ak_835_7213
10-8	1284-1290	nākamā	nākt	vmnpdmsgppypn	obl	basic	10-9	time[3]	ak_835_7213
10-9	1291-1294	būs	būt	vmnif_i30an	root	basic	10-9	time[3]	ak_835_7213
10-10	1295-1302	janvāra	janvāris	ncmsg2	nmod	basic	10-11	time[3]	ak_835_7213
10-11	1303-1309	beigās	beigas	ncfdl4	obl	basic	10-9	time[3]	ak_835_7213
10-12	1309-1310	.	.	zs	punct	basic	10-9	_	ak_835_7213
