#FORMAT=WebAnno TSV 3.2
#T_SP=de.tudarmstadt.ukp.dkpro.core.api.segmentation.type.Lemma|value
#T_SP=de.tudarmstadt.ukp.dkpro.core.api.lexmorph.type.pos.POS|PosValue
#T_RL=de.tudarmstadt.ukp.dkpro.core.api.syntax.type.dependency.Dependency|DependencyType|flavor|BT_de.tudarmstadt.ukp.dkpro.core.api.lexmorph.type.pos.POS
#T_SP=de.tudarmstadt.ukp.dkpro.core.api.ner.type.NamedEntity|value
#T_SP=webanno.custom.ID|value


#Text=Labvakar!
1-1	0-8	Labvakar	labvakar	is	root	basic	1-1	_	ak_820_7153
1-2	8-9	!	!	zs	punct	basic	1-1	_	ak_820_7153

#Text=Sakiet, lūdzu, kas nepieciešams, ja gribu ņemt akadēmisko (esmu 2. kursā).
2-1	10-16	Sakiet	sacīt	vmnm0t32pan	root	basic	2-1	_	ak_820_7153
2-2	16-17	,	,	zc	punct	basic	2-6	_	ak_820_7153
2-3	18-23	lūdzu	lūdzu	is	discourse	basic	2-6	_	ak_820_7153
2-4	23-24	,	,	zc	punct	basic	2-3	_	ak_820_7153
2-5	25-28	kas	kas	pr000nn	nsubj	basic	2-6	_	ak_820_7153
2-6	29-41	nepieciešams	nepieciešams	afmsnnp	ccomp	basic	2-1	_	ak_820_7153
2-7	41-42	,	,	zc	punct	basic	2-9	_	ak_820_7153
2-8	43-45	ja	ja	cs	mark	basic	2-9	_	ak_820_7153
2-9	46-51	gribu	gribēt	vonip_31san	advcl	basic	2-6	_	ak_820_7153
2-10	52-56	ņemt	ņemt	vmnn0t1000n	xcomp	basic	2-9	_	ak_820_7153
2-11	57-67	akadēmisko	akadēmisks	afmsayp	obj	basic	2-10	_	ak_820_7153
2-12	68-69	(	(	zb	punct	basic	2-13	_	ak_820_7153
2-13	69-73	esmu	būt	vcnip_i1san	discourse	basic	2-10	_	ak_820_7153
2-14	74-76	2.	2.	xo	amod	basic	2-15	_	ak_820_7153
2-15	77-82	kursā	kurss	ncmsl1	obl	basic	2-13	_	ak_820_7153
2-16	82-83	)	)	zb	punct	basic	2-13	_	ak_820_7153
2-17	83-84	.	.	zs	punct	basic	2-1	_	ak_820_7153

#Text=Vai tiks man pagarināta skudenta apliecība, vai skaitīšos, ka esmu students?
3-1	85-88	Vai	vai	q	discourse	basic	3-4	_	ak_820_7153
3-2	89-93	tiks	tikt	vtnifi130an	aux:pass	basic	3-4	_	ak_820_7153
3-3	94-97	man	es	pp10sdn	iobj	basic	3-4	_	ak_820_7153
3-4	98-108	pagarināta	pagarināt	vmnpdfsnpsnpn	root	basic	3-4	_	ak_820_7153
3-5	109-117	skudenta	skudents	ncmsg1	nmod	basic	3-6	_	ak_820_7153
3-6	118-127	apliecība	apliecība	ncfsn4	nsubj	basic	3-4	_	ak_820_7153
3-7	127-128	,	,	zc	punct	basic	3-9	_	ak_820_7153
3-8	129-132	vai	vai	cs	mark	basic	3-9	_	ak_820_7153
3-9	133-142	skaitīšos	skaisties	vmyif_11san	conj	basic	3-4	_	ak_820_7153
3-10	142-143	,	,	zc	punct	basic	3-13	_	ak_820_7153
3-11	144-146	ka	ka	cs	mark	basic	3-13	_	ak_820_7153
3-12	147-151	esmu	būt	vcnip_i1san	amod	basic	3-13	_	ak_820_7153
3-13	152-160	students	students	ncmsn1	ccomp	basic	3-9	_	ak_820_7153
3-14	160-161	?	?	zs	punct	basic	3-4	_	ak_820_7153

#Text=Paldies
4-1	162-169	Paldies	paldies	is	root	basic	4-1	_	ak_820_7153

#Text=Jāuzraksta iesniegums un reģistrācijas nedēļā jānodod dekanātā.
5-1	171-181	Jāuzraksta	uzrakstīt	vmnd0t300an	root	basic	5-1	_	ak_820_7154
5-2	182-192	iesniegums	iesniegums	ncmsn1	obj	basic	5-1	_	ak_820_7154
5-3	193-195	un	un	cc	cc	basic	5-6	_	ak_820_7154
5-4	196-209	reģistrācijas	reģistrācija	ncfsg4	nmod	basic	5-5	_	ak_820_7154
5-5	210-216	nedēļā	nedēļa	ncfsl4	acl	basic	5-6	_	ak_820_7154
5-6	217-224	jānodod	nodot	vmnd0t100an	conj	basic	5-1	_	ak_820_7154
5-7	225-233	dekanātā	dekanāts	ncmsl1	obl	basic	5-6	_	ak_820_7154
5-8	233-234	.	.	zs	punct	basic	5-1	_	ak_820_7154

#Text=Tajā jānorāda, ka vēlaties ņemt akadēmisko, uz cik ilgu laiku un iemeslu akadēmiskajam.
6-1	235-239	Tajā	tā	pd3fsln	obl	basic	6-2	_	ak_820_7154
6-2	240-248	jānorāda	norādīt	vmnd0_300an	root	basic	6-2	_	ak_820_7154
6-3	248-249	,	,	zc	punct	basic	6-5	_	ak_820_7154
6-4	250-252	ka	ka	cs	mark	basic	6-5	_	ak_820_7154
6-5	253-261	vēlaties	vēlēties	vmyip_32pan	ccomp	basic	6-2	_	ak_820_7154
6-6	262-266	ņemt	ņemt	vmnn0t1000n	ccomp	basic	6-5	_	ak_820_7154
6-7	267-277	akadēmisko	akadēmisks	afmsayp	obj	basic	6-6	_	ak_820_7154
6-8	277-278	,	,	zc	punct	basic	6-12	_	ak_820_7154
6-9	279-281	uz	uz	sp__	case	basic	6-12	_	ak_820_7154
6-10	282-285	cik	cik	r0_	advmod	basic	6-11	_	ak_820_7154
6-11	286-290	ilgu	ilgs	afmsanp	amod	basic	6-12	_	ak_820_7154
6-12	291-296	laiku	laiks	ncmsa1	acl	basic	6-7	_	ak_820_7154
6-13	297-299	un	un	cc	cc	basic	6-14	_	ak_820_7154
6-14	300-307	iemeslu	iemesls	ncmsa1	conj	basic	6-12	_	ak_820_7154
6-15	308-321	akadēmiskajam	akadēmisks	afmsdyp	acl	basic	6-14	_	ak_820_7154
6-16	321-322	.	.	zs	punct	basic	6-2	_	ak_820_7154

#Text=Ja ir kāds dokuments, kas apstiprina Jūsu iemeslu - vēlams to pievienot iesniegumam.
7-1	323-325	Ja	ja	cs	mark	basic	7-2	_	ak_820_7154
7-2	326-328	ir	būt	vcnipii30an	advcl	basic	7-2	_	ak_820_7154
7-3	329-333	kāds	kāds	pi0msnn	det	basic	7-4	_	ak_820_7154
7-4	334-343	dokuments	dokuments	ncmsn1	nsubj	basic	7-2	_	ak_820_7154
7-5	343-344	,	,	zc	punct	basic	7-7	_	ak_820_7154
7-6	345-348	kas	kas	pr000nn	nsubj	basic	7-7	_	ak_820_7154
7-7	349-359	apstiprina	apstiprināt	vmnipt330an	acl	basic	7-2	_	ak_820_7154
7-8	360-364	Jūsu	jūs	pp20pgn	det	basic	7-9	_	ak_820_7154
7-9	365-372	iemeslu	iemesls	ncmsa1	obj	basic	7-7	_	ak_820_7154
7-10	373-374	-	-	zd	punct	basic	7-11	_	ak_820_7154
7-11	375-381	vēlams	vēlēt	vmnpdmsnppnpn	conj	basic	7-7	_	ak_820_7154
7-12	382-384	to	tas	pd3msan	obj	basic	7-13	_	ak_820_7154
7-13	385-394	pievienot	pievienot	vmnn0t2000n	xcomp	basic	7-11	_	ak_820_7154
7-14	395-406	iesniegumam	iesniegums	ncmsd1	iobj	basic	7-13	_	ak_820_7154
7-15	406-407	.	.	zs	punct	basic	7-2	_	ak_820_7154

#Text=Akadēmiskā atvaļinājuma laikā Jūs skaitīsieties students (ar visām no tā izrietošām privilēģijām un sekām).
8-1	408-418	Akadēmiskā	akadēmisks	afmsgyp	amod	basic	8-3	_	ak_820_7154
8-2	419-431	atvaļinājuma	atvaļinājums	ncmsg1	nmod	basic	8-3	_	ak_820_7154
8-3	432-437	laikā	laiks	ncmsl1	obl	basic	8-6	_	ak_820_7154
8-4	438-441	Jūs	jūs	pp20pan	obj	basic	8-6	_	ak_820_7154
8-5	442-455	skaitīsieties	skaitīsieties	ncfsg_	nmod	basic	8-6	_	ak_820_7154
8-6	456-464	students	students	ncmsn1	root	basic	8-6	_	ak_820_7154
8-7	465-466	(	(	zb	punct	basic	8-13	_	ak_820_7154
8-8	466-468	ar	ar	sppd	case	basic	8-13	_	ak_820_7154
8-9	469-474	visām	visa	pg0fpdn	cc	basic	8-13	_	ak_820_7154
8-10	475-477	no	no	spsg	case	basic	8-13	_	ak_820_7154
8-11	478-480	tā	tas	pd3msgn	obl	basic	8-12	_	ak_820_7154
8-12	481-491	izrietošām	izrietēt	vmnpdfpdapnpn	amod	basic	8-13	_	ak_820_7154
8-13	492-504	privilēģijām	privilēģija	ncfpd4	discourse	basic	8-6	_	ak_820_7154
8-14	505-507	un	un	cc	cc	basic	8-15	_	ak_820_7154
8-15	508-513	sekām	sekas	ncfdd4	conj	basic	8-13	_	ak_820_7154
8-16	513-514	)	)	zb	punct	basic	8-13	_	ak_820_7154
8-17	514-515	.	.	zs	punct	basic	8-6	_	ak_820_7154

#Text=Vai var ņemt akadēmisko atvaļinājumu pēc reģistrācijas nedēļas?
9-1	517-520	Vai	vai	q	discourse	basic	9-2	_	ak_820_7155
9-2	521-524	var	varēt	vonip_330an	root	basic	9-2	_	ak_820_7155
9-3	525-529	ņemt	ņemt	vmnn0t1000n	xcomp	basic	9-2	_	ak_820_7155
9-4	530-540	akadēmisko	akadēmisks	afmpgyp	amod	basic	9-5	_	ak_820_7155
9-5	541-553	atvaļinājumu	atvaļinājums	ncmsa1	obj	basic	9-3	_	ak_820_7155
9-6	554-557	pēc	pēc	spsg	case	basic	9-8	_	ak_820_7155
9-7	558-571	reģistrācijas	reģistrācija	ncfsg4	nmod	basic	9-8	_	ak_820_7155
9-8	572-579	nedēļas	nedēļa	ncfpa4	nmod	basic	9-5	_	ak_820_7155
9-9	579-580	?	?	zs	punct	basic	9-2	_	ak_820_7155

#Text=Paldies
10-1	581-588	Paldies	paldies	is	root	basic	10-1	_	ak_820_7155

#Text=Īpašos gadījumos tas ir iespējams.
11-1	590-596	Īpašos	īpašs	afmplnp	amod	basic	11-2	_	ak_820_7157
11-2	597-606	gadījumos	gadījums	ncmpl1	obl	basic	11-5	_	ak_820_7157
11-3	607-610	tas	tas	pd3msnn	nsubj	basic	11-5	_	ak_820_7157
11-4	611-613	ir	būt	vcnipii30an	cop	basic	11-5	_	ak_820_7157
11-5	614-623	iespējams	iespējams	afmsnnp	root	basic	11-5	_	ak_820_7157
11-6	623-624	.	.	zs	punct	basic	11-5	_	ak_820_7157
