#FORMAT=WebAnno TSV 3.2
#T_SP=de.tudarmstadt.ukp.dkpro.core.api.segmentation.type.Lemma|value
#T_SP=de.tudarmstadt.ukp.dkpro.core.api.lexmorph.type.pos.POS|PosValue
#T_RL=de.tudarmstadt.ukp.dkpro.core.api.syntax.type.dependency.Dependency|DependencyType|flavor|BT_de.tudarmstadt.ukp.dkpro.core.api.lexmorph.type.pos.POS
#T_SP=de.tudarmstadt.ukp.dkpro.core.api.ner.type.NamedEntity|value
#T_SP=webanno.custom.ID|value


#Text=Labdien.
1-1	0-7	Labdien	labdien	is	root	basic	1-1	_	ak_838_7218
1-2	7-8	.	.	zs	punct	basic	1-1	_	ak_838_7218

#Text=Man ir tāds jautājums.
2-1	9-12	Man	es	pp10sdn	obl	basic	2-2	_	ak_838_7218
2-2	13-15	ir	būt	vcnipii30an	root	basic	2-2	_	ak_838_7218
2-3	16-20	tāds	tāds	pd0msnn	det	basic	2-4	_	ak_838_7218
2-4	21-30	jautājums	jautājums	ncmsn1	nsubj	basic	2-2	_	ak_838_7218
2-5	30-31	.	.	zs	punct	basic	2-2	_	ak_838_7218

#Text=Vai ir iespēja paņemt atkārtotu akadēmisko atvaļinājumu sakarā ar bērna piedzimšanu un kopšanu?
3-1	32-35	Vai	vai	q	discourse	basic	3-2	_	ak_838_7218
3-2	36-38	ir	būt	vcnipii30an	root	basic	3-2	_	ak_838_7218
3-3	39-46	iespēja	iespēja	ncfsn4	nsubj	basic	3-2	_	ak_838_7218
3-4	47-53	paņemt	paņemt	vmnn0t1000n	acl	basic	3-3	_	ak_838_7218
3-5	54-63	atkārtotu	atkārtots	afmsanp	amod	basic	3-8	_	ak_838_7218
3-6	64-74	akadēmisko	akadēmisks	afmsayp	amod	basic	3-7	_	ak_838_7218
3-7	75-87	atvaļinājumu	atvaļinājums	ncmpg1	nmod	basic	3-8	_	ak_838_7218
3-8	88-94	sakarā	sakars	ncmsl1	obl	basic	3-4	_	ak_838_7218
3-9	95-97	ar	ar	spsa	case	basic	3-11	_	ak_838_7218
3-10	98-103	bērna	bērns	ncmsg1	nmod	basic	3-11	_	ak_838_7218
3-11	104-115	piedzimšanu	piedzimšana	ncfsa4	iobj	basic	3-8	_	ak_838_7218
3-12	116-118	un	un	cc	cc	basic	3-13	_	ak_838_7218
3-13	119-126	kopšanu	kopšana	ncfsa4	conj	basic	3-11	_	ak_838_7218
3-14	126-127	?	?	zs	punct	basic	3-2	_	ak_838_7218

#Text=Un kad to var izdarīt?
4-1	128-130	Un	un	cc	cc	basic	4-1	_	ak_838_7218
4-2	131-134	kad	kad	r0_	advmod	basic	4-4	_	ak_838_7218
4-3	135-137	to	tas	pd3msan	obj	basic	4-4	_	ak_838_7218
4-4	138-141	var	varēt	vonip_330an	root	basic	4-4	_	ak_838_7218
4-5	142-149	izdarīt	izdarīt	vmnn0t3000n	xcomp	basic	4-4	_	ak_838_7218
4-6	149-150	?	?	zs	punct	basic	4-4	_	ak_838_7218

#Text=To sauc par studiju pārtraukumu.
5-1	152-154	To	tas	pd3msan	obj	basic	5-2	_	ak_838_7219
5-2	155-159	sauc	saukt	vmnip_130an	root	basic	5-2	_	ak_838_7219
5-3	160-163	par	par	spsa	case	basic	5-5	_	ak_838_7219
5-4	164-171	studiju	studijas	ncfdg4	nmod	basic	5-5	_	ak_838_7219
5-5	172-183	pārtraukumu	pārtraukums	ncmsa1	iobj	basic	5-2	_	ak_838_7219
5-6	183-184	.	.	zs	punct	basic	5-2	_	ak_838_7219

#Text=Bērna piedzimšanas gadījumā studiju pārtraukumu varat prasīt kaut tagad.
6-1	185-190	Bērna	bērns	ncmsg1	nmod	basic	6-2	_	ak_838_7219
6-2	191-203	piedzimšanas	piedzimšana	ncfsg4	nmod	basic	6-3	_	ak_838_7219
6-3	204-212	gadījumā	gadījums	ncmsl1	obl	basic	6-6	_	ak_838_7219
6-4	213-220	studiju	studijas	ncfdg4	nmod	basic	6-5	_	ak_838_7219
6-5	221-232	pārtraukumu	pārtraukums	ncmsa1	obj	basic	6-6	_	ak_838_7219
6-6	233-238	varat	varēt	vonip_32pan	root	basic	6-6	_	ak_838_7219
6-7	239-245	prasīt	prasīt	vmnn0t3000n	xcomp	basic	6-6	_	ak_838_7219
6-8	246-250	kaut	kaut	q	discourse	basic	6-9	_	ak_838_7219
6-9	251-256	tagad	tagad	r0_	advmod	basic	6-7	_	ak_838_7219
6-10	256-257	.	.	zs	punct	basic	6-6	_	ak_838_7219

#Text=Jāiet ar iesniegumu pie dekānes.
7-1	258-263	Jāiet	iet	vmnd0i100an	root	basic	7-1	_	ak_838_7219
7-2	264-266	ar	ar	spsa	case	basic	7-3	_	ak_838_7219
7-3	267-277	iesniegumu	iesniegums	ncmsa1	iobj	basic	7-1	_	ak_838_7219
7-4	278-281	pie	pie	spsg	case	basic	7-5	_	ak_838_7219
7-5	282-289	dekānes	dekāne	ncfsg5	iobj	basic	7-1	_	ak_838_7219
7-6	289-290	.	.	zs	punct	basic	7-1	_	ak_838_7219
