#FORMAT=WebAnno TSV 3.2
#T_SP=de.tudarmstadt.ukp.dkpro.core.api.segmentation.type.Lemma|value
#T_SP=de.tudarmstadt.ukp.dkpro.core.api.lexmorph.type.pos.POS|PosValue
#T_RL=de.tudarmstadt.ukp.dkpro.core.api.syntax.type.dependency.Dependency|DependencyType|flavor|BT_de.tudarmstadt.ukp.dkpro.core.api.lexmorph.type.pos.POS
#T_SP=de.tudarmstadt.ukp.dkpro.core.api.ner.type.NamedEntity|value
#T_SP=webanno.custom.ID|value


#Text=Sveiki, jautājums tāds, cik akadēmiskos var ņemt pēc kārtas?
1-1	0-6	Sveiki	sveiks	afmpnnp	discourse	basic	1-1	_	ak_804_7067
1-2	6-7	,	,	zc	punct	basic	1-1	_	ak_804_7067
1-3	8-17	jautājums	jautājums	ncmsn1	root	basic	1-3	_	ak_804_7067
1-4	18-22	tāds	tāds	pd0msnn	acl	basic	1-3	_	ak_804_7067
1-5	22-23	,	,	zc	punct	basic	1-8	_	ak_804_7067
1-6	24-27	cik	cik	r0_	advmod	basic	1-7	_	ak_804_7067
1-7	28-39	akadēmiskos	akadēmisks	afmplnp	xcomp	basic	1-8	_	ak_804_7067
1-8	40-43	var	varēt	vonip_330an	ccomp	basic	1-4	_	ak_804_7067
1-9	44-48	ņemt	ņemt	vmnn0t1000n	xcomp	basic	1-8	_	ak_804_7067
1-10	49-52	pēc	pēc	spsg	case	basic	1-11	_	ak_804_7067
1-11	53-59	kārtas	kārta	ncfsg4	obl	basic	1-9	_	ak_804_7067
1-12	59-60	?	?	zs	punct	basic	1-3	_	ak_804_7067

#Text=Lieta tāda, ka esmu devusies studēt uz ārzemēm, bet man tur jāpaliek vēl viens gads, pašlaik skaitos, ka esmu akadēmiskajā, vai to var pagarināt uz nākamo gadu arī?
2-1	61-66	Lieta	lieta	ncfsn4	nsubj	basic	2-2	_	ak_804_7067
2-2	67-71	tāda	tāda	pd0fsnn	root	basic	2-2	_	ak_804_7067
2-3	71-72	,	,	zc	punct	basic	2-6	_	ak_804_7067
2-4	73-75	ka	ka	cs	mark	basic	2-6	_	ak_804_7067
2-5	76-80	esmu	būt	vcnip_i1san	aux	basic	2-6	_	ak_804_7067
2-6	81-89	devusies	doties	vmypdfsnasnpn	acl	basic	2-2	_	ak_804_7067
2-7	90-96	studēt	studēt	vmnn0_2000n	xcomp	basic	2-6	_	ak_804_7067
2-8	97-99	uz	uz	sppd	case	basic	2-9	_	ak_804_7067
2-9	100-107	ārzemēm	ārzemes	ncfdd5	obl	basic	2-7	_	ak_804_7067
2-10	107-108	,	,	zc	punct	basic	2-14	_	ak_804_7067
2-11	109-112	bet	bet	cc	cc	basic	2-14	_	ak_804_7067
2-12	113-116	man	es	pp10sdn	nsubj	basic	2-14	_	ak_804_7067
2-13	117-120	tur	tur	r0_	advmod	basic	2-14	_	ak_804_7067
2-14	121-129	jāpaliek	palikt	vtnd0i100an	conj	basic	2-2	_	ak_804_7067
2-15	130-133	vēl	vēl	r0_	advmod	basic	2-14	_	ak_804_7067
2-16	134-139	viens	viens	mcsmsn	nummod	basic	2-17	_	ak_804_7067
2-17	140-144	gads	gads	ncmsn1	nsubj	basic	2-14	_	ak_804_7067
2-18	144-145	,	,	zc	punct	basic	2-20	_	ak_804_7067
2-19	146-153	pašlaik	pašlaik	r0_	advmod	basic	2-20	_	ak_804_7067
2-20	154-161	skaitos	skaitīties	vmyip_31san	conj	basic	2-14	_	ak_804_7067
2-21	161-162	,	,	zc	punct	basic	2-23	_	ak_804_7067
2-22	163-165	ka	ka	cs	mark	basic	2-23	_	ak_804_7067
2-23	166-170	esmu	būt	vcnip_i1san	ccomp	basic	2-20	_	ak_804_7067
2-24	171-183	akadēmiskajā	akadēmisks	affslyp	ccomp	basic	2-23	_	ak_804_7067
2-25	183-184	,	,	zc	punct	basic	2-28	_	ak_804_7067
2-26	185-188	vai	vai	cs	mark	basic	2-28	_	ak_804_7067
2-27	189-191	to	tas	pd3msan	obj	basic	2-28	_	ak_804_7067
2-28	192-195	var	varēt	vonip_330an	csubj	basic	2-24	_	ak_804_7067
2-29	196-205	pagarināt	pagarināt	vmnn0t3000n	xcomp	basic	2-28	_	ak_804_7067
2-30	206-208	uz	uz	spsa	case	basic	2-32	_	ak_804_7067
2-31	209-215	nākamo	nākt	vmnpdmsappypn	amod	basic	2-32	_	ak_804_7067
2-32	216-220	gadu	gads	ncmsa1	obl	basic	2-29	_	ak_804_7067
2-33	221-224	arī	arī	q	discourse	basic	2-32	_	ak_804_7067
2-34	224-225	?	?	zs	punct	basic	2-2	_	ak_804_7067

#Text=Ja var, kur griezties EVF?
3-1	226-228	Ja	ja	cs	mark	basic	3-2	_	ak_804_7067
3-2	229-232	var	varēt	vonip_330an	root	basic	3-2	_	ak_804_7067
3-3	232-233	,	,	zc	punct	basic	3-5	_	ak_804_7067
3-4	234-237	kur	kur	r0_	advmod	basic	3-5	_	ak_804_7067
3-5	238-247	griezties	griezties	vmyn0_1000n	ccomp	basic	3-2	_	ak_804_7067
3-6	248-251	EVF	EVF	y	nsubj	basic	3-5	organization[1]	ak_804_7067
3-7	251-252	?	?	zs	punct	basic	3-2	_	ak_804_7067

#Text=Var ņemt ne vairāk kā četrus semestrus bakalaura programmā un ne vairāk kā divus semestrus maģistra programmā.
4-1	254-257	Var	varēt	vonip_330an	root	basic	4-1	_	ak_804_7068
4-2	258-262	ņemt	ņemt	vmnn0t1000n	xcomp	basic	4-1	_	ak_804_7068
4-3	263-265	ne	ne	q	discourse	basic	4-4	_	ak_804_7068
4-4	266-272	vairāk	vairāk	r0_	advmod	basic	4-6	_	ak_804_7068
4-5	273-275	kā	kā	cs	fixed	basic	4-4	_	ak_804_7068
4-6	276-282	četrus	četri	mcsmpa	nummod	basic	4-7	_	ak_804_7068
4-7	283-292	semestrus	semestris	ncmpa2	obj	basic	4-2	_	ak_804_7068
4-8	293-302	bakalaura	bakalaurs	ncmsg1	nmod	basic	4-9	_	ak_804_7068
4-9	303-312	programmā	programma	ncfsl4	obl	basic	4-1	_	ak_804_7068
4-10	313-315	un	un	cc	cc	basic	4-15	_	ak_804_7068
4-11	316-318	ne	ne	q	discourse	basic	4-12	_	ak_804_7068
4-12	319-325	vairāk	vairāk	r0_	advmod	basic	4-14	_	ak_804_7068
4-13	326-328	kā	kā	cs	fixed	basic	4-12	_	ak_804_7068
4-14	329-334	divus	divi	mcsmpa	nummod	basic	4-15	_	ak_804_7068
4-15	335-344	semestrus	semestris	ncmpa2	conj	basic	4-9	_	ak_804_7068
4-16	345-353	maģistra	maģistrs	ncmsg1	nmod	basic	4-17	_	ak_804_7068
4-17	354-363	programmā	programma	ncfsl4	acl	basic	4-15	_	ak_804_7068
4-18	363-364	.	.	zs	punct	basic	4-1	_	ak_804_7068

#Text=Dodieties pie savas studiju programmas lietvedes.
5-1	365-374	Dodieties	doties	vmym0_12pan	root	basic	5-1	_	ak_804_7068
5-2	375-378	pie	pie	spsg	case	basic	5-6	_	ak_804_7068
5-3	379-384	savas	sava	ps0fsgn	det	basic	5-5	_	ak_804_7068
5-4	385-392	studiju	studijas	ncfdg4	nmod	basic	5-5	_	ak_804_7068
5-5	393-403	programmas	programma	ncfsg4	nmod	basic	5-6	_	ak_804_7068
5-6	404-413	lietvedes	lietvede	ncfpa5	iobj	basic	5-1	_	ak_804_7068
5-7	413-414	.	.	zs	punct	basic	5-1	_	ak_804_7068

#Text=Paldies!
6-1	416-423	Paldies	paldies	is	root	basic	6-1	_	ak_804_7069
6-2	423-424	!	!	zs	punct	basic	6-1	_	ak_804_7069
