#FORMAT=WebAnno TSV 3.2
#T_SP=de.tudarmstadt.ukp.dkpro.core.api.segmentation.type.Lemma|value
#T_SP=de.tudarmstadt.ukp.dkpro.core.api.lexmorph.type.pos.POS|PosValue
#T_RL=de.tudarmstadt.ukp.dkpro.core.api.syntax.type.dependency.Dependency|DependencyType|flavor|BT_de.tudarmstadt.ukp.dkpro.core.api.lexmorph.type.pos.POS
#T_SP=de.tudarmstadt.ukp.dkpro.core.api.ner.type.NamedEntity|value
#T_SP=webanno.custom.ID|value


#Text=Labdien, sakiet, kāda ir procedūra, lai ņemtu akadēmisko atvaļinājumu?
1-1	0-7	Labdien	labdien	is	acl	basic	1-3	_	ak_825_7174
1-2	7-8	,	,	zc	punct	basic	1-1	_	ak_825_7174
1-3	9-15	sakiet	sacīt	vmnm0t32pan	root	basic	1-3	_	ak_825_7174
1-4	15-16	,	,	zc	punct	basic	1-5	_	ak_825_7174
1-5	17-21	kāda	kāda	pr0fsnn	ccomp	basic	1-3	_	ak_825_7174
1-6	22-24	ir	būt	vcnipii30an	cop	basic	1-5	_	ak_825_7174
1-7	25-34	procedūra	procedūra	ncfsn4	nsubj	basic	1-5	_	ak_825_7174
1-8	34-35	,	,	zc	punct	basic	1-10	_	ak_825_7174
1-9	36-39	lai	lai	cs	mark	basic	1-10	_	ak_825_7174
1-10	40-45	ņemtu	ņemt	vmnc0t100an	advcl	basic	1-5	_	ak_825_7174
1-11	46-56	akadēmisko	akadēmisks	afmpgyp	amod	basic	1-12	_	ak_825_7174
1-12	57-69	atvaļinājumu	atvaļinājums	ncmsa1	obj	basic	1-10	_	ak_825_7174
1-13	69-70	?	?	zs	punct	basic	1-3	_	ak_825_7174

#Text=(Studēju doktorantūrā, ja tas ko maina.)
2-1	71-72	(	(	zb	punct	basic	2-2	_	ak_825_7174
2-2	72-79	Studēju	studēt	vmnip_21san	root	basic	2-2	_	ak_825_7174
2-3	80-92	doktorantūrā	doktorantūra	ncfsl4	obl	basic	2-2	_	ak_825_7174
2-4	92-93	,	,	zc	punct	basic	2-8	_	ak_825_7174
2-5	94-96	ja	ja	cs	mark	basic	2-8	_	ak_825_7174
2-6	97-100	tas	tas	pd3msnn	nsubj	basic	2-8	_	ak_825_7174
2-7	101-103	ko	kas	pi000an	obj	basic	2-8	_	ak_825_7174
2-8	104-109	maina	maina	vm_ip__30__	advcl	basic	2-2	_	ak_825_7174
2-9	109-110	.	.	zs	punct	basic	2-2	_	ak_825_7174
2-10	110-111	)	)	zb	punct	basic	2-2	_	ak_825_7174

#Text=Labdien!
3-1	113-120	Labdien	labdien	is	root	basic	3-1	_	ak_825_7175
3-2	120-121	!	!	zs	punct	basic	3-1	_	ak_825_7175

#Text=Pievienoju saiti uz informāciju - http://www.lu.lv/par/dokumenti/noteikumiunkartibas/studiju-partrauksanas-kartiba-latvijas-universitate/\nPar doktorantūras studijām Jums jāsazinās ar doktorantūras nodaļu - 67034311,067034310\nAr cieņu,\nStudentu servisa konsultants
4-1	122-132	Pievienoju	pievienot	vmnipt21san	root	basic	4-1	_	ak_825_7175
4-2	133-138	saiti	saite	ncfsa5	obj	basic	4-1	_	ak_825_7175
4-3	139-141	uz	uz	spsa	case	basic	4-4	_	ak_825_7175
4-4	142-153	informāciju	informācija	ncfsa4	nmod	basic	4-2	_	ak_825_7175
4-5	154-155	-	-	zd	punct	basic	4-11	_	ak_825_7175
4-6	156-259	http://www.lu.lv/par/dokumenti/noteikumiunkartibas/studiju-partrauksanas-kartiba-latvijas-universitate/	http://www.lu.lv/par/dokumenti/noteikumiunkartibas/studiju-partrauksanas-kartiba-latvijas-universitate/	q	discourse	basic	4-11	_	ak_825_7175
4-7	260-263	Par	par	spsa	case	basic	4-9	_	ak_825_7175
4-8	264-277	doktorantūras	doktorantūra	ncfsg4	nmod	basic	4-9	_	ak_825_7175
4-9	278-286	studijām	studijas	ncfdd4	iobj	basic	4-6	_	ak_825_7175
4-10	287-291	Jums	jūs	pp20pdn	nsubj	basic	4-11	_	ak_825_7175
4-11	292-301	jāsazinās	sazināties	vmyd0_300an	root	basic	4-11	_	ak_825_7175
4-12	302-304	ar	ar	spsa	case	basic	4-14	_	ak_825_7175
4-13	305-318	doktorantūras	doktorantūra	ncfsg4	nmod	basic	4-14	_	ak_825_7175
4-14	319-325	nodaļu	nodaļa	ncfsa4	iobj	basic	4-11	_	ak_825_7175
4-15	326-327	-	-	zd	punct	basic	4-16	_	ak_825_7175
4-16	328-346	67034311,067034310	67034311,067034310	xn	acl	basic	4-14	_	ak_825_7175
4-17	347-349	Ar	ar	spsa	case	basic	4-18	_	ak_825_7175
4-18	350-355	cieņu	cieņa	ncfsa4	iobj	basic	4-16	_	ak_825_7175
4-19	355-356	,	,	zc	punct	basic	4-22	_	ak_825_7175
4-20	357-365	Studentu	students	ncmpg1	nmod	basic	4-21	_	ak_825_7175
4-21	366-373	servisa	serviss	ncmsg1	nmod	basic	4-22	_	ak_825_7175
4-22	374-385	konsultants	konsultants	ncmsn1	conj	basic	4-11	_	ak_825_7175
