#FORMAT=WebAnno TSV 3.2
#T_SP=de.tudarmstadt.ukp.dkpro.core.api.segmentation.type.Lemma|value
#T_SP=de.tudarmstadt.ukp.dkpro.core.api.lexmorph.type.pos.POS|PosValue
#T_RL=de.tudarmstadt.ukp.dkpro.core.api.syntax.type.dependency.Dependency|DependencyType|flavor|BT_de.tudarmstadt.ukp.dkpro.core.api.lexmorph.type.pos.POS
#T_SP=de.tudarmstadt.ukp.dkpro.core.api.ner.type.NamedEntity|value
#T_SP=webanno.custom.ID|value


#Text=Sakiet, lūdzu, pie kā un kad ir jāvēršas, lai varētu noformēt akadēmisko atvaļinājumu?
1-1	0-6	Sakiet	sacīt	vmnm0t32pan	root	basic	1-1	_	ak_876_7380
1-2	6-7	,	,	zc	punct	basic	1-1	_	ak_876_7380
1-3	8-13	lūdzu	lūdzu	is	dep	basic	1-2	_	ak_876_7380
1-4	13-14	,	,	zc	punct	basic	1-3	_	ak_876_7380
1-5	15-18	pie	pie	spsg	case	basic	1-6	_	ak_876_7380
1-6	19-21	kā	kā	cs	obl	basic	1-3	_	ak_876_7380
1-7	22-24	un	un	cc	cc	basic	1-10	_	ak_876_7380
1-8	25-28	kad	kad	r0_	advmod	basic	1-10	_	ak_876_7380
1-9	29-31	ir	būt	vcnipii30an	aux	basic	1-10	_	ak_876_7380
1-10	32-40	jāvēršas	vērsties	vmyd0_100an	conj	basic	1-6	_	ak_876_7380
1-11	40-41	,	,	zc	punct	basic	1-13	_	ak_876_7380
1-12	42-45	lai	lai	cs	mark	basic	1-13	_	ak_876_7380
1-13	46-52	varētu	varēt	vonc0_300an	advcl	basic	1-10	_	ak_876_7380
1-14	53-61	noformēt	noformēt	vmnn0t2000n	xcomp	basic	1-13	_	ak_876_7380
1-15	62-72	akadēmisko	akadēmisks	afmpgyp	amod	basic	1-16	_	ak_876_7380
1-16	73-85	atvaļinājumu	atvaļinājums	ncmsa1	obj	basic	1-14	_	ak_876_7380
1-17	85-86	?	?	zs	punct	basic	1-1	_	ak_876_7380

#Text=Studiju pārtraukumu noformē programmas lietvede.
2-1	88-95	Studiju	studijas	ncfdg4	nmod	basic	2-2	_	ak_876_7381
2-2	96-107	pārtraukumu	pārtraukums	ncmsa1	obj	basic	2-3	_	ak_876_7381
2-3	108-115	noformē	noformēt	vmnipt230an	root	basic	2-3	_	ak_876_7381
2-4	116-126	programmas	programma	ncfsg4	nmod	basic	2-5	_	ak_876_7381
2-5	127-135	lietvede	lietvede	ncfsn5	nsubj	basic	2-3	_	ak_876_7381
2-6	135-136	.	.	zs	punct	basic	2-3	_	ak_876_7381

#Text=Iesniegums ir jāsniedz semestra reģistrācijas nedēļā.
3-1	137-147	Iesniegums	iesniegums	ncmsn1	obj	basic	3-3	_	ak_876_7381
3-2	148-150	ir	būt	vcnipii30an	aux	basic	3-3	_	ak_876_7381
3-3	151-159	jāsniedz	sniegt	vmnd0_100an	root	basic	3-3	_	ak_876_7381
3-4	160-168	semestra	semestris	ncmsg2	nmod	basic	3-6	_	ak_876_7381
3-5	169-182	reģistrācijas	reģistrācija	ncfsg4	nmod	basic	3-6	_	ak_876_7381
3-6	183-189	nedēļā	nedēļa	ncfsl4	obl	basic	3-3	_	ak_876_7381
3-7	189-190	.	.	zs	punct	basic	3-3	_	ak_876_7381
