#FORMAT=WebAnno TSV 3.2
#T_SP=de.tudarmstadt.ukp.dkpro.core.api.segmentation.type.Lemma|value
#T_SP=de.tudarmstadt.ukp.dkpro.core.api.lexmorph.type.pos.POS|PosValue
#T_RL=de.tudarmstadt.ukp.dkpro.core.api.syntax.type.dependency.Dependency|DependencyType|flavor|BT_de.tudarmstadt.ukp.dkpro.core.api.lexmorph.type.pos.POS
#T_SP=de.tudarmstadt.ukp.dkpro.core.api.ner.type.NamedEntity|value
#T_SP=webanno.custom.ID|value


#Text=Sveiki.
1-1	0-6	Sveiki	sveiks	afmpnnp	root	basic	1-1	_	ak_848_7254
1-2	6-7	.	.	zs	punct	basic	1-1	_	ak_848_7254

#Text=Vēlējos pajautāt vai ir iespējams ņemt akadēmisko atvaļinājumu tagad pēc 2. kursa pabeigšanas un vai nebūs problēmu tad atsākt studijas pēc gada.
2-1	8-15	Vēlējos	vēlēties	voyist31san	root	basic	2-1	_	ak_848_7254
2-2	16-24	pajautāt	pajautāt	vmnn0t2000n	ccomp	basic	2-1	_	ak_848_7254
2-3	25-28	vai	vai	cs	cc	basic	2-5	_	ak_848_7254
2-4	29-31	ir	būt	vcnipii30an	cop	basic	2-5	_	ak_848_7254
2-5	32-41	iespējams	iespējams	afmsnnp	conj	basic	2-2	_	ak_848_7254
2-6	42-46	ņemt	ņemt	vmnn0t1000n	ccomp	basic	2-5	_	ak_848_7254
2-7	47-57	akadēmisko	akadēmisks	afmpgyp	amod	basic	2-8	_	ak_848_7254
2-8	58-70	atvaļinājumu	atvaļinājums	ncmsa1	obj	basic	2-6	_	ak_848_7254
2-9	71-76	tagad	tagad	r0_	advmod	basic	2-6	_	ak_848_7254
2-10	77-80	pēc	pēc	spsg	case	basic	2-13	_	ak_848_7254
2-11	81-83	2.	2.	xo	amod	basic	2-12	_	ak_848_7254
2-12	84-89	kursa	kurss	ncmsg1	nmod	basic	2-13	_	ak_848_7254
2-13	90-101	pabeigšanas	pabeigšana	ncfsg4	obl	basic	2-6	_	ak_848_7254
2-14	102-104	un	un	cc	cc	basic	2-16	_	ak_848_7254
2-15	105-108	vai	vai	cs	mark	basic	2-16	_	ak_848_7254
2-16	109-114	nebūs	nebūt	vmnifii30an	conj	basic	2-5	_	ak_848_7254
2-17	115-123	problēmu	problēma	ncfsa4	obj	basic	2-16	_	ak_848_7254
2-18	124-127	tad	tad	r0_	advmod	basic	2-19	_	ak_848_7254
2-19	128-134	atsākt	atsākt	vpnn0t1000n	ccomp	basic	2-16	_	ak_848_7254
2-20	135-143	studijas	studijas	ncfda4	obj	basic	2-19	_	ak_848_7254
2-21	144-147	pēc	pēc	spsg	case	basic	2-22	time[1]	ak_848_7254
2-22	148-152	gada	gads	ncmsg1	obl	basic	2-19	time[1]	ak_848_7254
2-23	152-153	.	.	zs	punct	basic	2-1	_	ak_848_7254

#Text=Cik zinu, tad pēc 1. kursa ar to bija problēmas, jo mainījās studiju programma.
3-1	154-157	Cik	cik	r0_	advmod	basic	3-2	_	ak_848_7254
3-2	158-162	zinu	zināt	vmnipt31san	discourse	basic	3-10	_	ak_848_7254
3-3	162-163	,	,	zc	punct	basic	3-2	_	ak_848_7254
3-4	164-167	tad	tad	r0_	advmod	basic	3-10	_	ak_848_7254
3-5	168-171	pēc	pēc	spsg	case	basic	3-7	_	ak_848_7254
3-6	172-174	1.	1.	xo	amod	basic	3-7	_	ak_848_7254
3-7	175-180	kursa	kurss	ncmsg1	obl	basic	3-10	_	ak_848_7254
3-8	181-183	ar	ar	spsa	case	basic	3-9	_	ak_848_7254
3-9	184-186	to	tas	pd3msan	iobj	basic	3-10	_	ak_848_7254
3-10	187-191	bija	būt	vcnis_i30an	root	basic	3-10	_	ak_848_7254
3-11	192-201	problēmas	problēma	ncfpn4	nsubj	basic	3-10	_	ak_848_7254
3-12	201-202	,	,	zc	punct	basic	3-14	_	ak_848_7254
3-13	203-205	jo	jo	cs	mark	basic	3-14	_	ak_848_7254
3-14	206-214	mainījās	mainīties	vmyis_330an	advcl	basic	3-10	_	ak_848_7254
3-15	215-222	studiju	studijas	ncfdg4	nmod	basic	3-16	_	ak_848_7254
3-16	223-232	programma	programma	ncfsn4	nsubj	basic	3-14	_	ak_848_7254
3-17	232-233	.	.	zs	punct	basic	3-10	_	ak_848_7254

#Text=Paldies!
4-1	234-241	Paldies	paldies	is	root	basic	4-1	_	ak_848_7254
4-2	241-242	!	!	zs	punct	basic	4-1	_	ak_848_7254

#Text=Ir iespējams, jākārto reģistrācijas nedēļā (ja nav ārkārtas apstākļu).
5-1	244-246	Ir	būt	vcnipii30an	cop	basic	5-2	_	ak_848_7255
5-2	247-256	iespējams	iespējams	afmsnnp	root	basic	5-2	_	ak_848_7255
5-3	256-257	,	,	zc	punct	basic	5-4	_	ak_848_7255
5-4	258-265	jākārto	kārtot	vmnd0t200an	conj	basic	5-2	_	ak_848_7255
5-5	266-279	reģistrācijas	reģistrācija	ncfsg4	nmod	basic	5-6	_	ak_848_7255
5-6	280-286	nedēļā	nedēļa	ncfsl4	acl	basic	5-4	_	ak_848_7255
5-7	287-288	(	(	zb	punct	basic	5-9	_	ak_848_7255
5-8	288-290	ja	ja	cs	mark	basic	5-9	_	ak_848_7255
5-9	291-294	nav	nebūt	vmnipii30ay	parataxis	basic	5-4	_	ak_848_7255
5-10	295-303	ārkārtas	ārkārtas	ncf__g	nsubj	basic	5-9	_	ak_848_7255
5-11	304-312	apstākļu	apstāklis	ncmpg2	nsubj	basic	5-10	_	ak_848_7255
5-12	312-313	)	)	zb	punct	basic	5-9	_	ak_848_7255
5-13	313-314	.	.	zs	punct	basic	5-2	_	ak_848_7255

#Text=Problēmu neesamību nākotnē neviens nevar garantēt, jo programmas saturu var grozīt katru semestri.
6-1	315-323	Problēmu	problēma	ncfpg4	nmod	basic	6-2	_	ak_848_7255
6-2	324-333	neesamību	neesamība	ncfsa4	obj	basic	6-5	_	ak_848_7255
6-3	334-341	nākotnē	nākotne	ncfsl5	acl	basic	6-2	_	ak_848_7255
6-4	342-349	neviens	neviens	pi0msny	nsubj	basic	6-5	_	ak_848_7255
6-5	350-355	nevar	nevarēt	vonip_330an	root	basic	6-5	_	ak_848_7255
6-6	356-364	garantēt	garantēt	vmnn0t2000n	xcomp	basic	6-5	_	ak_848_7255
6-7	364-365	,	,	zc	punct	basic	6-11	_	ak_848_7255
6-8	366-368	jo	jo	cs	mark	basic	6-11	_	ak_848_7255
6-9	369-379	programmas	programma	ncfsg4	nmod	basic	6-10	_	ak_848_7255
6-10	380-386	saturu	saturs	ncmsa1	obj	basic	6-11	_	ak_848_7255
6-11	387-390	var	varēt	vonip_330an	advcl	basic	6-5	_	ak_848_7255
6-12	391-397	grozīt	grozīt	vmnn0t3000n	xcomp	basic	6-11	_	ak_848_7255
6-13	398-403	katru	katra	pg0msan	det	basic	6-14	_	ak_848_7255
6-14	404-412	semestri	semestris	ncmsa2	obj	basic	6-12	_	ak_848_7255
6-15	412-413	.	.	zs	punct	basic	6-5	_	ak_848_7255

#Text=Prof. Juris Borzovs\nDatorikas fakultātes dekāns
7-1	414-419	Prof.	prof.	y	nmod	basic	7-2	person[2]	ak_848_7255
7-2	420-425	Juris	Juris	npmsn2	root	basic	7-2	person[2]	ak_848_7255
7-3	426-433	Borzovs	Borzovs	ncmsn1	flat:name	basic	7-2	person[2]	ak_848_7255
7-4	434-443	Datorikas	Datorika	ncfsg4	nmod	basic	7-5	organization[3]	ak_848_7255
7-5	444-454	fakultātes	fakultāte	ncfsg5	nmod	basic	7-6	organization[3]	ak_848_7255
7-6	455-461	dekāns	dekāns	ncmsn1	flat:name	basic	7-2	_	ak_848_7255
