#FORMAT=WebAnno TSV 3.2
#T_SP=de.tudarmstadt.ukp.dkpro.core.api.segmentation.type.Lemma|value
#T_SP=de.tudarmstadt.ukp.dkpro.core.api.lexmorph.type.pos.POS|PosValue
#T_RL=de.tudarmstadt.ukp.dkpro.core.api.syntax.type.dependency.Dependency|DependencyType|flavor|BT_de.tudarmstadt.ukp.dkpro.core.api.lexmorph.type.pos.POS
#T_SP=de.tudarmstadt.ukp.dkpro.core.api.ner.type.NamedEntity|value
#T_SP=webanno.custom.ID|value


#Text=Vai pēc pirmā semestra var paņemt akadēmisko pārtraukumu?
1-1	0-3	Vai	vai	q	discourse	basic	1-5	_	ak_905_7513
1-2	4-7	pēc	pēc	spsg	case	basic	1-4	_	ak_905_7513
1-3	8-13	pirmā	pirmais	mosmsg	amod	basic	1-4	_	ak_905_7513
1-4	14-22	semestra	semestris	ncmsg2	obl	basic	1-5	_	ak_905_7513
1-5	23-26	var	varēt	vonip_330an	root	basic	1-5	_	ak_905_7513
1-6	27-33	paņemt	paņemt	vmnn0t1000n	xcomp	basic	1-5	_	ak_905_7513
1-7	34-44	akadēmisko	akadēmisks	afmpgyp	amod	basic	1-8	_	ak_905_7513
1-8	45-56	pārtraukumu	pārtraukums	ncmsa1	obj	basic	1-6	_	ak_905_7513
1-9	56-57	?	?	zs	punct	basic	1-5	_	ak_905_7513

#Text=Vai tikai pēc otrā semestra?
2-1	58-61	Vai	vai	q	discourse	basic	2-5	_	ak_905_7513
2-2	62-67	tikai	tikai	q	discourse	basic	2-5	_	ak_905_7513
2-3	68-71	pēc	pēc	spsg	case	basic	2-5	_	ak_905_7513
2-4	72-76	otrā	otrais	mosmsg	amod	basic	2-5	_	ak_905_7513
2-5	77-85	semestra	semestris	ncmsg2	root	basic	2-5	_	ak_905_7513
2-6	85-86	?	?	zs	punct	basic	2-5	_	ak_905_7513

#Text=Kādi ir nosacījumi, lai varētu saglabāt budžeta vietu un vai tas ir iespējams maģistros?
3-1	87-91	Kādi	kāds	pq0mpnn	root	basic	3-1	_	ak_905_7513
3-2	92-94	ir	būt	vcnipii30an	cop	basic	3-1	_	ak_905_7513
3-3	95-105	nosacījumi	nosacījums	ncmpn1	nsubj	basic	3-1	_	ak_905_7513
3-4	105-106	,	,	zc	punct	basic	3-6	_	ak_905_7513
3-5	107-110	lai	lai	cs	mark	basic	3-6	_	ak_905_7513
3-6	111-117	varētu	varēt	vonc0_300an	acl	basic	3-1	_	ak_905_7513
3-7	118-126	saglabāt	saglabāt	vmnn0t2000n	xcomp	basic	3-6	_	ak_905_7513
3-8	127-134	budžeta	budžets	ncmsg1	nmod	basic	3-9	_	ak_905_7513
3-9	135-140	vietu	vieta	ncfsa4	obj	basic	3-7	_	ak_905_7513
3-10	141-143	un	un	cc	cc	basic	3-16	_	ak_905_7513
3-11	144-147	vai	vai	cs	cc	basic	3-14	_	ak_905_7513
3-12	148-151	tas	tas	pd3msnn	nsubj	basic	3-14	_	ak_905_7513
3-13	152-154	ir	būt	vcnipii30an	cop	basic	3-14	_	ak_905_7513
3-14	155-164	iespējams	iespējams	afmsnnp	conj	basic	3-10	_	ak_905_7513
3-15	165-174	maģistros	maģistrs	ncmpl1	obl	basic	3-14	_	ak_905_7513
3-16	174-175	?	?	zs	punct	basic	3-6	_	ak_905_7513

#Text=Maģistra studijās ir iespējams ņemt studiju pārtraukumu arī pēc semestra.
4-1	177-185	Maģistra	maģistrs	ncmsg1	nmod	basic	4-2	_	ak_905_7514
4-2	186-194	studijās	studijas	ncfdl4	obl	basic	4-4	_	ak_905_7514
4-3	195-197	ir	būt	vcnipii30an	cop	basic	4-4	_	ak_905_7514
4-4	198-207	iespējams	iespējams	afmsnnp	root	basic	4-4	_	ak_905_7514
4-5	208-212	ņemt	ņemt	vmnn0t1000n	ccomp	basic	4-4	_	ak_905_7514
4-6	213-220	studiju	studijas	ncfdg4	nmod	basic	4-7	_	ak_905_7514
4-7	221-232	pārtraukumu	pārtraukums	ncmsa1	obj	basic	4-5	_	ak_905_7514
4-8	233-236	arī	arī	q	discourse	basic	4-10	_	ak_905_7514
4-9	237-240	pēc	pēc	spsg	case	basic	4-10	_	ak_905_7514
4-10	241-249	semestra	semestris	ncmsg2	obl	basic	4-5	_	ak_905_7514
4-11	249-250	.	.	zs	punct	basic	4-4	_	ak_905_7514

#Text=Budžeta vieta, protams, saglabājas.
5-1	251-258	Budžeta	budžets	ncmsg1	nmod	basic	5-2	_	ak_905_7514
5-2	259-264	vieta	vieta	ncfsn4	nsubj	basic	5-6	_	ak_905_7514
5-3	264-265	,	,	zc	punct	basic	5-4	_	ak_905_7514
5-4	266-273	protams	protams	q	discourse	basic	5-6	_	ak_905_7514
5-5	273-274	,	,	zc	punct	basic	5-4	_	ak_905_7514
5-6	275-285	saglabājas	saglabāties	vmyip_230an	root	basic	5-6	_	ak_905_7514
5-7	285-286	.	.	zs	punct	basic	5-6	_	ak_905_7514

#Text=Tas ir patīkami!
6-1	288-291	Tas	tas	pd3msnn	nsubj	basic	6-3	_	ak_905_7515
6-2	292-294	ir	būt	vcnipii30an	cop	basic	6-3	_	ak_905_7515
6-3	295-303	patīkami	patīkami	rp_	root	basic	6-3	_	ak_905_7515
6-4	303-304	!	!	zs	punct	basic	6-3	_	ak_905_7515

#Text=Protams, jābūt nokārtotiem visiem priekšmetiem, ja?
7-1	305-312	Protams	protams	q	discourse	basic	7-4	_	ak_905_7515
7-2	312-313	,	,	zc	punct	basic	7-1	_	ak_905_7515
7-3	314-319	jābūt	būt	vmnd0_i00an	cop	basic	7-4	_	ak_905_7515
7-4	320-331	nokārtotiem	nokārtot	vmnpdmpdpsnpn	root	basic	7-4	_	ak_905_7515
7-5	332-338	visiem	viss	pg0mpdn	det	basic	7-6	_	ak_905_7515
7-6	339-351	priekšmetiem	priekšmets	ncmpd1	obl	basic	7-4	_	ak_905_7515
7-7	351-352	,	,	zc	punct	basic	7-9	_	ak_905_7515
7-8	353-355	ja	ja	cs	mark	basic	7-9	_	ak_905_7515
7-9	355-356	?	?	zs	punct	basic	7-4	_	ak_905_7515

#Text=Nē, tas nav obligāti, taču ja nav nokārtoti visi studiju kursi, tad, protams, nesaglabājas budžeta vieta.
8-1	358-360	Nē	nē	q	discourse	basic	8-5	_	ak_905_7516
8-2	360-361	,	,	zc	punct	basic	8-1	_	ak_905_7516
8-3	362-365	tas	tas	pd3msnn	nsubj	basic	8-5	_	ak_905_7516
8-4	366-369	nav	nebūt	vcnipii30ay	cop	basic	8-5	_	ak_905_7516
8-5	370-378	obligāti	obligāti	r0_	root	basic	8-5	_	ak_905_7516
8-6	378-379	,	,	zc	punct	basic	8-10	_	ak_905_7516
8-7	380-384	taču	taču	cc	mark	basic	8-10	_	ak_905_7516
8-8	385-387	ja	ja	cs	mark	basic	8-10	_	ak_905_7516
8-9	388-391	nav	nebūt	vcnipii30ay	aux	basic	8-10	_	ak_905_7516
8-10	392-401	nokārtoti	nokārtot	vmnpdmpnpsnpn	advcl	basic	8-19	_	ak_905_7516
8-11	402-406	visi	viss	pg0mpnn	det	basic	8-13	_	ak_905_7516
8-12	407-414	studiju	studijas	ncfdg4	nmod	basic	8-13	_	ak_905_7516
8-13	415-420	kursi	kursis	ncmsa2	obj	basic	8-10	_	ak_905_7516
8-14	420-421	,	,	zc	punct	basic	8-10	_	ak_905_7516
8-15	422-425	tad	tad	r0_	advmod	basic	8-19	_	ak_905_7516
8-16	425-426	,	,	zc	punct	basic	8-17	_	ak_905_7516
8-17	427-434	protams	protams	q	discourse	basic	8-19	_	ak_905_7516
8-18	434-435	,	,	zc	punct	basic	8-17	_	ak_905_7516
8-19	436-448	nesaglabājas	nesaglabāties	vmyip_230ay	conj	basic	8-5	_	ak_905_7516
8-20	449-456	budžeta	budžets	ncmsg1	nmod	basic	8-21	_	ak_905_7516
8-21	457-462	vieta	vieta	ncfsn4	nsubj	basic	8-19	_	ak_905_7516
8-22	462-463	.	.	zs	punct	basic	8-5	_	ak_905_7516
