#FORMAT=WebAnno TSV 3.2
#T_SP=de.tudarmstadt.ukp.dkpro.core.api.segmentation.type.Lemma|value
#T_SP=de.tudarmstadt.ukp.dkpro.core.api.lexmorph.type.pos.POS|PosValue
#T_RL=de.tudarmstadt.ukp.dkpro.core.api.syntax.type.dependency.Dependency|DependencyType|flavor|BT_de.tudarmstadt.ukp.dkpro.core.api.lexmorph.type.pos.POS
#T_SP=de.tudarmstadt.ukp.dkpro.core.api.ner.type.NamedEntity|value
#T_SP=webanno.custom.ID|value


#Text=Sveiki!
1-1	0-6	Sveiki	sveiks	afmpnnp	root	basic	1-1	_	ak_943_7991
1-2	6-7	!	!	zs	punct	basic	1-1	_	ak_943_7991

#Text=Studēju EVF maģistra programmā pirmajā kursā.
2-1	8-15	Studēju	studēt	vmnip_21san	root	basic	2-1	_	ak_943_7991
2-2	16-19	EVF	EVF	y	nmod	basic	2-4	organization[1]	ak_943_7991
2-3	20-28	maģistra	maģistrs	ncmsg1	nmod	basic	2-4	_	ak_943_7991
2-4	29-38	programmā	programma	ncfsl4	obl	basic	2-1	_	ak_943_7991
2-5	39-46	pirmajā	pirmais	mosmsl	amod	basic	2-6	_	ak_943_7991
2-6	47-52	kursā	kurss	ncmsl1	obl	basic	2-1	_	ak_943_7991
2-7	52-53	.	.	zs	punct	basic	2-1	_	ak_943_7991

#Text=Vēlos precizēt dažus jautājumus.
3-1	54-59	Vēlos	vēlēties	voyipt31san	root	basic	3-1	_	ak_943_7991
3-2	60-68	precizēt	precizēt	vmnn0t2000n	xcomp	basic	3-1	_	ak_943_7991
3-3	69-74	dažus	dažs	pi0mpan	det	basic	3-4	_	ak_943_7991
3-4	75-85	jautājumus	jautājums	ncmpa1	obj	basic	3-2	_	ak_943_7991
3-5	85-86	.	.	zs	punct	basic	3-1	_	ak_943_7991

#Text=Reģistrācijas nedēļā vēlos ņemt akadēmisko pārtraukumu.
4-1	87-100	Reģistrācijas	reģistrācija	ncfsg4	nmod	basic	4-2	_	ak_943_7991
4-2	101-107	nedēļā	nedēļa	ncfsl4	obl	basic	4-3	_	ak_943_7991
4-3	108-113	vēlos	vēlēties	voyipt31san	root	basic	4-3	_	ak_943_7991
4-4	114-118	ņemt	ņemt	vmnn0t1000n	xcomp	basic	4-3	_	ak_943_7991
4-5	119-129	akadēmisko	akadēmisks	afmpgyp	amod	basic	4-6	_	ak_943_7991
4-6	130-141	pārtraukumu	pārtraukums	ncmsa1	obj	basic	4-4	_	ak_943_7991
4-7	141-142	.	.	zs	punct	basic	4-3	_	ak_943_7991

#Text=Cik saprotu, es nākamnedēļ dodos pie lietvedes, izklāstu situāciju un uzrakstu atbilstošu iesniegumu, ja?
5-1	143-146	Cik	cik	r0_	advmod	basic	5-2	_	ak_943_7991
5-2	147-154	saprotu	saprast	vmnipt11san	root	basic	5-2	_	ak_943_7991
5-3	154-155	,	,	zc	punct	basic	5-2	_	ak_943_7991
5-4	156-158	es	es	pp10snn	nsubj	basic	5-6	_	ak_943_7991
5-5	159-169	nākamnedēļ	nākamnedēļ	r0_	advmod	basic	5-6	_	ak_943_7991
5-6	170-175	dodos	doties	vmyip_11san	ccomp	basic	5-2	_	ak_943_7991
5-7	176-179	pie	pie	spsg	case	basic	5-8	_	ak_943_7991
5-8	180-189	lietvedes	lietvede	ncfsg5	obl	basic	5-6	_	ak_943_7991
5-9	189-190	,	,	zc	punct	basic	5-11	_	ak_943_7991
5-10	191-199	izklāstu	izklāsts	ncmpg1	nmod	basic	5-11	_	ak_943_7991
5-11	200-209	situāciju	situācija	ncfsa4	conj	basic	5-8	_	ak_943_7991
5-12	210-212	un	un	cc	cc	basic	5-13	_	ak_943_7991
5-13	213-221	uzrakstu	uzraksts	ncmsa1	conj	basic	5-11	_	ak_943_7991
5-14	222-232	atbilstošu	atbilst	vmnpdmsaapnpn	amod	basic	5-15	_	ak_943_7991
5-15	233-243	iesniegumu	iesniegums	ncmsa1	acl	basic	5-11	_	ak_943_7991
5-16	243-244	,	,	zc	punct	basic	5-18	_	ak_943_7991
5-17	245-247	ja	ja	cs	mark	basic	5-18	_	ak_943_7991
5-18	247-248	?	?	zs	punct	basic	5-6	_	ak_943_7991

#Text=Un, ja es vēlos turpināt dzīvot dienesta viesnīcā līdz vasarai, man ir arī jāraksta kāds iesniegums, pareizi?
6-1	249-251	Un	un	cc	cc	basic	6-16	_	ak_943_7991
6-2	251-252	,	,	zc	punct	basic	6-5	_	ak_943_7991
6-3	253-255	ja	ja	cs	mark	basic	6-5	_	ak_943_7991
6-4	256-258	es	es	pp10snn	nsubj	basic	6-5	_	ak_943_7991
6-5	259-264	vēlos	vēlēties	voyipt31san	advcl	basic	6-16	_	ak_943_7991
6-6	265-273	turpināt	turpināt	vpnn0_3000n	xcomp	basic	6-5	_	ak_943_7991
6-7	274-280	dzīvot	dzīvot	vmnn0i2000n	xcomp	basic	6-6	_	ak_943_7991
6-8	281-289	dienesta	dienests	ncmsg1	nmod	basic	6-9	_	ak_943_7991
6-9	290-298	viesnīcā	viesnīca	ncfsl4	obl	basic	6-7	_	ak_943_7991
6-10	299-303	līdz	līdz	spsd	case	basic	6-11	_	ak_943_7991
6-11	304-311	vasarai	vasara	ncfsd4	obl	basic	6-7	_	ak_943_7991
6-12	311-312	,	,	zc	punct	basic	6-5	_	ak_943_7991
6-13	313-316	man	es	pp10sdn	nsubj	basic	6-16	_	ak_943_7991
6-14	317-319	ir	būt	vcnipii30an	aux	basic	6-16	_	ak_943_7991
6-15	320-323	arī	arī	q	discourse	basic	6-16	_	ak_943_7991
6-16	324-332	jāraksta	rakstīt	vmnd0t300an	root	basic	6-16	_	ak_943_7991
6-17	333-337	kāds	kāds	pi0msnn	det	basic	6-18	_	ak_943_7991
6-18	338-348	iesniegums	iesniegums	ncmsn1	obj	basic	6-16	_	ak_943_7991
6-19	348-349	,	,	zc	punct	basic	6-20	_	ak_943_7991
6-20	350-357	pareizi	pareizi	r0_	conj	basic	6-16	_	ak_943_7991
6-21	357-358	?	?	zs	punct	basic	6-16	_	ak_943_7991

#Text=Kā ir ar studiju parādiem (šobrīd man tādi ir 2)?
7-1	359-361	Kā	kā	r0_	advmod	basic	7-2	_	ak_943_7991
7-2	362-364	ir	būt	vcnipii30an	root	basic	7-2	_	ak_943_7991
7-3	365-367	ar	ar	spsa	case	basic	7-5	_	ak_943_7991
7-4	368-375	studiju	studijas	ncfdg4	nmod	basic	7-5	_	ak_943_7991
7-5	376-384	parādiem	parāds	ncmpd1	iobj	basic	7-2	_	ak_943_7991
7-6	385-386	(	(	zb	punct	basic	7-11	_	ak_943_7991
7-7	386-392	šobrīd	šobrīd	r0_	advmod	basic	7-11	_	ak_943_7991
7-8	393-396	man	es	pp10sdn	obl	basic	7-11	_	ak_943_7991
7-9	397-401	tādi	tāds	pd0mpnn	nsubj	basic	7-11	_	ak_943_7991
7-10	402-404	ir	būt	vcnipii30an	cop	basic	7-11	_	ak_943_7991
7-11	405-406	2	2	xn	parataxis	basic	7-5	_	ak_943_7991
7-12	406-407	)	)	zb	punct	basic	7-11	_	ak_943_7991
7-13	407-408	?	?	zs	punct	basic	7-2	_	ak_943_7991

#Text=Paldies jau iepriekš!
8-1	409-416	Paldies	paldies	is	root	basic	8-1	_	ak_943_7991
8-2	417-420	jau	jau	q	discourse	basic	8-3	_	ak_943_7991
8-3	421-429	iepriekš	iepriekš	r0_	advmod	basic	8-1	_	ak_943_7991
8-4	429-430	!	!	zs	punct	basic	8-1	_	ak_943_7991

#Text=Studiju pārtraukumu Jūs tiešām varat lūgt piešķirt ar iesniegumu, kuru iesniedzat lietvedei.
9-1	432-439	Studiju	studijas	ncfdg4	nmod	basic	9-2	_	ak_943_7992
9-2	440-451	pārtraukumu	pārtraukums	ncmsa1	obj	basic	9-5	_	ak_943_7992
9-3	452-455	Jūs	jūs	pp20pan	obj	basic	9-5	_	ak_943_7992
9-4	456-462	tiešām	tiešām	q	discourse	basic	9-5	_	ak_943_7992
9-5	463-468	varat	varēt	vonip_32pan	root	basic	9-5	_	ak_943_7992
9-6	469-473	lūgt	lūgt	vmnn0t1000n	xcomp	basic	9-5	_	ak_943_7992
9-7	474-482	piešķirt	piešķirt	vmnn0t1000n	xcomp	basic	9-6	_	ak_943_7992
9-8	483-485	ar	ar	spsa	case	basic	9-9	_	ak_943_7992
9-9	486-496	iesniegumu	iesniegums	ncmsa1	iobj	basic	9-7	_	ak_943_7992
9-10	496-497	,	,	zc	punct	basic	9-12	_	ak_943_7992
9-11	498-502	kuru	kurš	pr0msan	obj	basic	9-12	_	ak_943_7992
9-12	503-513	iesniedzat	iesniegt	vmnipt12pan	acl	basic	9-9	_	ak_943_7992
9-13	514-523	lietvedei	lietvede	ncfsd5	iobj	basic	9-12	_	ak_943_7992
9-14	523-524	.	.	zs	punct	basic	9-5	_	ak_943_7992

#Text=Iesniegums jāadresē dekānam.
10-1	525-535	Iesniegums	iesniegums	ncmsn1	nsubj	basic	10-2	_	ak_943_7992
10-2	536-544	jāadresē	adresēt	vmnd0t200an	root	basic	10-2	_	ak_943_7992
10-3	545-552	dekānam	dekāns	ncmsd1	iobj	basic	10-2	_	ak_943_7992
10-4	552-553	.	.	zs	punct	basic	10-2	_	ak_943_7992

#Text=Studiju pārtraukuma laikā varat turpināt dzīvot dienesta viesnīcā, tikai Jums būs jāmaksā īres maksa, kas noteikta personām, kas nav LU studenti.
11-1	554-561	Studiju	studijas	ncfdg4	nmod	basic	11-2	_	ak_943_7992
11-2	562-573	pārtraukuma	pārtraukums	ncmsg1	nmod	basic	11-3	_	ak_943_7992
11-3	574-579	laikā	laiks	ncmsl1	obl	basic	11-4	_	ak_943_7992
11-4	580-585	varat	varēt	vonip_32pan	root	basic	11-4	_	ak_943_7992
11-5	586-594	turpināt	turpināt	vpnn0_3000n	xcomp	basic	11-4	_	ak_943_7992
11-6	595-601	dzīvot	dzīvot	vmnn0i2000n	xcomp	basic	11-5	_	ak_943_7992
11-7	602-610	dienesta	dienests	ncmsg1	nmod	basic	11-8	_	ak_943_7992
11-8	611-619	viesnīcā	viesnīca	ncfsl4	obl	basic	11-6	_	ak_943_7992
11-9	619-620	,	,	zc	punct	basic	11-13	_	ak_943_7992
11-10	621-626	tikai	tikai	q	discourse	basic	11-13	_	ak_943_7992
11-11	627-631	Jums	jūs	pp20pdn	nsubj	basic	11-13	_	ak_943_7992
11-12	632-635	būs	būt	vcnif_i30an	aux	basic	11-13	_	ak_943_7992
11-13	636-643	jāmaksā	maksāt	vmnd0i200an	conj	basic	11-4	_	ak_943_7992
11-14	644-648	īres	īre	ncfsg5	nmod	basic	11-15	_	ak_943_7992
11-15	649-654	maksa	maksa	ncfsn4	obj	basic	11-13	_	ak_943_7992
11-16	654-655	,	,	zc	punct	basic	11-18	_	ak_943_7992
11-17	656-659	kas	kas	pr000nn	nsubj:pass	basic	11-18	_	ak_943_7992
11-18	660-668	noteikta	noteikt	vmnpdfsnpsnpn	acl	basic	11-15	_	ak_943_7992
11-19	669-677	personām	persona	ncfpd4	iobj	basic	11-18	_	ak_943_7992
11-20	677-678	,	,	zc	punct	basic	11-21	_	ak_943_7992
11-21	679-682	kas	kas	pr000nn	nsubj:pass	basic	11-19	_	ak_943_7992
11-22	683-686	nav	nebūt	vcnipii30ay	cop	basic	11-21	_	ak_943_7992
11-23	687-689	LU	LU	yp	nmod	basic	11-24	organization[2]	ak_943_7992
11-24	690-698	studenti	students	ncmpn1	nsubj	basic	11-21	_	ak_943_7992
11-25	698-699	.	.	zs	punct	basic	11-4	_	ak_943_7992

#Text=Parādus Jūs varat kārtot pārtraukuma laikā.
12-1	700-707	Parādus	parāds	ncmpa1	obj	basic	12-3	_	ak_943_7992
12-2	708-711	Jūs	jūs	pp20pnn	nsubj	basic	12-3	_	ak_943_7992
12-3	712-717	varat	varēt	vonip_32pan	root	basic	12-3	_	ak_943_7992
12-4	718-724	kārtot	kārtot	vmnn0t2000n	ccomp	basic	12-3	_	ak_943_7992
12-5	725-736	pārtraukuma	pārtraukums	ncmsg1	nmod	basic	12-6	_	ak_943_7992
12-6	737-742	laikā	laiks	ncmsl1	obl	basic	12-4	_	ak_943_7992
12-7	742-743	.	.	zs	punct	basic	12-3	_	ak_943_7992
