#FORMAT=WebAnno TSV 3.2
#T_SP=de.tudarmstadt.ukp.dkpro.core.api.segmentation.type.Lemma|value
#T_SP=de.tudarmstadt.ukp.dkpro.core.api.lexmorph.type.pos.POS|PosValue
#T_RL=de.tudarmstadt.ukp.dkpro.core.api.syntax.type.dependency.Dependency|DependencyType|flavor|BT_de.tudarmstadt.ukp.dkpro.core.api.lexmorph.type.pos.POS
#T_SP=de.tudarmstadt.ukp.dkpro.core.api.ner.type.NamedEntity|value
#T_SP=webanno.custom.ID|value


#Text=Sveiki!
1-1	0-6	Sveiki	sveiks	afmpnnp	root	basic	1-1	_	ak_924_7883
1-2	6-7	!	!	zs	punct	basic	1-1	_	ak_924_7883

#Text=Ļoti vēlētos uzzināt visu par akadēmisko mācību gadu!
2-1	8-12	Ļoti	ļoti	r0_	advmod	basic	2-2	_	ak_924_7883
2-2	13-20	vēlētos	vēlēties	voyc0t300an	root	basic	2-2	_	ak_924_7883
2-3	21-28	uzzināt	uzzināt	vmnn0t3000n	xcomp	basic	2-2	_	ak_924_7883
2-4	29-33	visu	viss	pg0msan	obj	basic	2-3	_	ak_924_7883
2-5	34-37	par	par	spsa	case	basic	2-8	_	ak_924_7883
2-6	38-48	akadēmisko	akadēmisks	affsayp	amod	basic	2-8	_	ak_924_7883
2-7	49-55	mācību	mācība	ncfpg4	nmod	basic	2-8	_	ak_924_7883
2-8	56-60	gadu	gads	ncmsa1	obl	basic	2-3	_	ak_924_7883
2-9	60-61	!	!	zs	punct	basic	2-2	_	ak_924_7883

#Text=Vai kāds varētu pateikt, kur ir šāda info!
3-1	62-65	Vai	vai	q	discourse	basic	3-3	_	ak_924_7883
3-2	66-70	kāds	kāds	pi0msnn	nsubj	basic	3-3	_	ak_924_7883
3-3	71-77	varētu	varēt	vonc0_300an	root	basic	3-3	_	ak_924_7883
3-4	78-85	pateikt	pateikt	vmnn0t1000n	xcomp	basic	3-3	_	ak_924_7883
3-5	85-86	,	,	zc	punct	basic	3-7	_	ak_924_7883
3-6	87-90	kur	kur	r0_	advmod	basic	3-7	_	ak_924_7883
3-7	91-93	ir	būt	vcnipii30an	ccomp	basic	3-4	_	ak_924_7883
3-8	94-98	šāda	šāda	pd0fsnn	det	basic	3-9	_	ak_924_7883
3-9	99-103	info	info	nc___0	nsubj	basic	3-7	_	ak_924_7883
3-10	103-104	!	!	zs	punct	basic	3-3	_	ak_924_7883

#Text=Tieši interesē viss kas jādara, lai to nokārtotu un kā būs pēc tam ar atgriešanos!
4-1	105-110	Tieši	tieši	q	discourse	basic	4-2	_	ak_924_7883
4-2	111-119	interesē	interesēt	vmnipt230an	root	basic	4-2	_	ak_924_7883
4-3	120-124	viss	viss	pg0msnn	det	basic	4-4	_	ak_924_7883
4-4	125-128	kas	kas	pr000nn	nsubj	basic	4-5	_	ak_924_7883
4-5	129-135	jādara	darīt	vmnd0t300an	obj	basic	4-2	_	ak_924_7883
4-6	135-136	,	,	zc	punct	basic	4-9	_	ak_924_7883
4-7	137-140	lai	lai	cs	mark	basic	4-9	_	ak_924_7883
4-8	141-143	to	tas	pd3msan	obj	basic	4-9	_	ak_924_7883
4-9	144-153	nokārtotu	nokārtot	vmnc0t200an	advcl	basic	4-2	_	ak_924_7883
4-10	154-156	un	un	cc	cc	basic	4-12	_	ak_924_7883
4-11	157-159	kā	kā	r0_	advmod	basic	4-12	_	ak_924_7883
4-12	160-163	būs	būt	vcnif_i30an	conj	basic	4-9	_	ak_924_7883
4-13	164-167	pēc	pēc	sp__	case	basic	4-14	_	ak_924_7883
4-14	168-171	tam	tas	pd3msdn	obl	basic	4-12	_	ak_924_7883
4-15	172-174	ar	ar	spsa	case	basic	4-16	_	ak_924_7883
4-16	175-186	atgriešanos	atgriešanās	ncfsar	iobj	basic	4-12	_	ak_924_7883
4-17	186-187	!	!	zs	punct	basic	4-2	_	ak_924_7883

#Text=Paldies jau iepriekš!
5-1	188-195	Paldies	paldies	is	root	basic	5-1	_	ak_924_7883
5-2	196-199	jau	jau	q	discourse	basic	5-3	_	ak_924_7883
5-3	200-208	iepriekš	iepriekš	r0_	advmod	basic	5-1	_	ak_924_7883
5-4	208-209	!	!	zs	punct	basic	5-1	_	ak_924_7883

#Text=Studiju pārtraukšanas kārtība:\nhttp://www.lu.lv/dokumenti/studiju_partrauksanas_kartiba.html
6-1	211-218	Studiju	studijas	ncfdg4	nmod	basic	6-2	_	ak_924_7884
6-2	219-232	pārtraukšanas	pārtraukšana	ncfsg4	nmod	basic	6-3	_	ak_924_7884
6-3	233-240	kārtība	kārtība	ncfsn4	root	basic	6-3	_	ak_924_7884
6-4	240-241	:	:	zo	punct	basic	6-5	_	ak_924_7884
6-5	242-303	http://www.lu.lv/dokumenti/studiju\_partrauksanas\_kartiba.html	http://www.lu.lv/dokumenti/studiju\_partrauksanas\_kartiba.html	xf	parataxis	basic	6-3	_	ak_924_7884

#Text=Bet tas nozīmē, ja man tagad ir radušas problēmas, man vairs nav iespēja nokārtot akadēmisko gadu!
7-1	305-308	Bet	bet	cc	cc	basic	7-3	_	ak_924_7885
7-2	309-312	tas	tas	pd3msnn	nsubj	basic	7-3	_	ak_924_7885
7-3	313-319	nozīmē	nozīmēt	vmnipt230an	root	basic	7-3	_	ak_924_7885
7-4	319-320	,	,	zc	punct	basic	7-8	_	ak_924_7885
7-5	321-323	ja	ja	cs	mark	basic	7-8	_	ak_924_7885
7-6	324-327	man	es	pp10sdn	obl	basic	7-8	_	ak_924_7885
7-7	328-333	tagad	tagad	r0_	advmod	basic	7-8	_	ak_924_7885
7-8	334-336	ir	būt	vcnipii30an	advcl	basic	7-14	_	ak_924_7885
7-9	337-344	radušas	rast	vmnpdfpnasnpn	amod	basic	7-10	_	ak_924_7885
7-10	345-354	problēmas	problēma	ncfpn4	nsubj	basic	7-8	_	ak_924_7885
7-11	354-355	,	,	zc	punct	basic	7-8	_	ak_924_7885
7-12	356-359	man	es	pp10sdn	obl	basic	7-14	_	ak_924_7885
7-13	360-365	vairs	vairs	r0_	advmod	basic	7-14	_	ak_924_7885
7-14	366-369	nav	nebūt	vcnipii30ay	conj	basic	7-3	_	ak_924_7885
7-15	370-377	iespēja	iespēja	ncfsn4	nsubj	basic	7-14	_	ak_924_7885
7-16	378-386	nokārtot	nokārtot	vmnn0t2000n	acl	basic	7-15	_	ak_924_7885
7-17	387-397	akadēmisko	akadēmisks	afmpgyp	amod	basic	7-18	_	ak_924_7885
7-18	398-402	gadu	gads	ncmsa1	obl	basic	7-16	_	ak_924_7885
7-19	402-403	!	!	zs	punct	basic	7-3	_	ak_924_7885

#Text=Tikai tad, ja esat grūtniece, Jums ir uznākusi kāda smaga slimība vai tml.
8-1	405-410	Tikai	tikai	q	discourse	basic	8-2	_	ak_924_7886
8-2	411-414	tad	tad	r0_	advmod	basic	8-10	_	ak_924_7886
8-3	414-415	,	,	zc	punct	basic	8-5	_	ak_924_7886
8-4	416-418	ja	ja	cs	mark	basic	8-5	_	ak_924_7886
8-5	419-423	esat	būt	vcnip_i2pan	advcl	basic	8-10	_	ak_924_7886
8-6	424-433	grūtniece	grūtniece	ncfsn5	nsubj	basic	8-5	_	ak_924_7886
8-7	433-434	,	,	zc	punct	basic	8-5	_	ak_924_7886
8-8	435-439	Jums	jūs	pp20pdn	obl	basic	8-10	_	ak_924_7886
8-9	440-442	ir	būt	vcnipii30an	aux	basic	8-10	_	ak_924_7886
8-10	443-451	uznākusi	uznākt	vmnpdfsnasnpn	root	basic	8-10	_	ak_924_7886
8-11	452-456	kāda	kāda	pi0fsnn	det	basic	8-13	_	ak_924_7886
8-12	457-462	smaga	smags	affsnnp	amod	basic	8-13	_	ak_924_7886
8-13	463-470	slimība	slimība	ncfsn4	nsubj	basic	8-10	_	ak_924_7886
8-14	471-474	vai	vai	cs	cc	basic	8-15	_	ak_924_7886
8-15	475-478	tml	tml	i	conj	basic	8-13	_	ak_924_7886
8-16	478-479	.	.	zs	punct	basic	8-10	_	ak_924_7886
