#FORMAT=WebAnno TSV 3.2
#T_SP=de.tudarmstadt.ukp.dkpro.core.api.segmentation.type.Lemma|value
#T_SP=de.tudarmstadt.ukp.dkpro.core.api.lexmorph.type.pos.POS|PosValue
#T_RL=de.tudarmstadt.ukp.dkpro.core.api.syntax.type.dependency.Dependency|DependencyType|flavor|BT_de.tudarmstadt.ukp.dkpro.core.api.lexmorph.type.pos.POS
#T_SP=de.tudarmstadt.ukp.dkpro.core.api.ner.type.NamedEntity|value
#T_SP=webanno.custom.ID|value


#Text=Labdien!
1-1	0-7	Labdien	labdien	is	root	basic	1-1	_	ak_960_8064
1-2	7-8	!	!	zs	punct	basic	1-1	_	ak_960_8064

#Text=Gribēju uzzināt, vai ir iespējams paņemt akadēmisko, mācoties pirmajā kursā (pedagoģijas fakultātē)?
2-1	9-16	Gribēju	gribēt	vonis_31san	root	basic	2-1	_	ak_960_8064
2-2	17-24	uzzināt	uzzināt	vmnn0t3000n	xcomp	basic	2-1	_	ak_960_8064
2-3	24-25	,	,	zc	punct	basic	2-6	_	ak_960_8064
2-4	26-29	vai	vai	cs	mark	basic	2-6	_	ak_960_8064
2-5	30-32	ir	būt	vcnipii30an	cop	basic	2-6	_	ak_960_8064
2-6	33-42	iespējams	iespējams	afmsnnp	ccomp	basic	2-1	_	ak_960_8064
2-7	43-49	paņemt	paņemt	vmnn0t1000n	ccomp	basic	2-6	_	ak_960_8064
2-8	50-60	akadēmisko	akadēmisks	afmsayp	obj	basic	2-7	_	ak_960_8064
2-9	60-61	,	,	zc	punct	basic	2-10	_	ak_960_8064
2-10	62-70	mācoties	mācīties	vmypu0000000n	advcl	basic	2-7	_	ak_960_8064
2-11	71-78	pirmajā	pirmais	mosmsl	amod	basic	2-12	_	ak_960_8064
2-12	79-84	kursā	kurss	ncmsl1	obl	basic	2-10	_	ak_960_8064
2-13	85-86	(	(	zb	punct	basic	2-15	_	ak_960_8064
2-14	86-97	pedagoģijas	pedagoģija	ncfsg4	nmod	basic	2-15	_	ak_960_8064
2-15	98-107	fakultātē	fakultāte	ncfsl5	obl	basic	2-10	_	ak_960_8064
2-16	107-108	)	)	zb	punct	basic	2-15	_	ak_960_8064
2-17	108-109	?	?	zs	punct	basic	2-1	_	ak_960_8064

#Text=Un kāds tam var būt iemsls?
3-1	110-112	Un	un	cc	cc	basic	3-4	_	ak_960_8064
3-2	113-117	kāds	kāds	pi0msnn	nsubj	basic	3-4	_	ak_960_8064
3-3	118-121	tam	tas	pd3msdn	obl	basic	3-4	_	ak_960_8064
3-4	122-125	var	varēt	vonip_330an	root	basic	3-4	_	ak_960_8064
3-5	126-129	būt	būt	vcnn0_i000n	xcomp	basic	3-4	_	ak_960_8064
3-6	130-136	iemsls	iemsls	ncmsn_	nsubj	basic	3-4	_	ak_960_8064
3-7	136-137	?	?	zs	punct	basic	3-4	_	ak_960_8064

#Text=Es to noformēju 1. kursā 2009. g. novembrī ar ārsta zīmi.
4-1	139-141	Es	es	pp10snn	nsubj	basic	4-3	_	ak_960_8065
4-2	142-144	to	tas	pd3msan	obj	basic	4-3	_	ak_960_8065
4-3	145-154	noformēju	noformēt	vmnipt21san	root	basic	4-3	_	ak_960_8065
4-4	155-157	1.	1.	xo	amod	basic	4-5	_	ak_960_8065
4-5	158-163	kursā	kurss	ncmsl1	obl	basic	4-3	_	ak_960_8065
4-6	164-169	2009.	2009.	xo	amod	basic	4-7	time[1]	ak_960_8065
4-7	170-172	g.	g.	y	obl	basic	4-3	time[1]	ak_960_8065
4-8	173-181	novembrī	novembris	ncmsl2	obl	basic	4-7	time[1]	ak_960_8065
4-9	182-184	ar	ar	spsa	case	basic	4-11	_	ak_960_8065
4-10	185-190	ārsta	ārsts	ncmsg1	nmod	basic	4-11	_	ak_960_8065
4-11	191-195	zīmi	zīme	ncfsa5	iobj	basic	4-8	_	ak_960_8065
4-12	195-196	.	.	zs	punct	basic	4-3	_	ak_960_8065

#Text=Šogad atkal mācos.
5-1	197-202	Šogad	šogad	r0_	advmod	basic	5-3	time[2]	ak_960_8065
5-2	203-208	atkal	atkal	r0_	advmod	basic	5-3	_	ak_960_8065
5-3	209-214	mācos	mākties	vmyip_11san	root	basic	5-3	_	ak_960_8065
5-4	214-215	.	.	zs	punct	basic	5-3	_	ak_960_8065

#Text=Labdien!!
6-1	217-224	Labdien	labdien	is	root	basic	6-1	_	ak_960_8066
6-2	224-226	!!	!!	zs	punct	basic	6-1	_	ak_960_8066

#Text=http://www.lu.lv/par/dokumenti/noteikumiunkartibas/studiju-partrauksanas-kartiba-latvijas-universitate/\nAr cieņu,\nStudentu servisa kosultants
7-1	227-330	http://www.lu.lv/par/dokumenti/noteikumiunkartibas/studiju-partrauksanas-kartiba-latvijas-universitate/	http://www.lu.lv/par/dokumenti/noteikumiunkartibas/studiju-partrauksanas-kartiba-latvijas-universitate/	i	root	basic	7-1	_	ak_960_8066
7-2	331-333	Ar	ar	spsa	case	basic	7-3	_	ak_960_8066
7-3	334-339	cieņu	cieņa	ncfsa4	acl	basic	7-1	_	ak_960_8066
7-4	339-340	,	,	zc	punct	basic	7-3	_	ak_960_8066
7-5	341-349	Studentu	students	ncmpg1	nmod	basic	7-6	_	ak_960_8066
7-6	350-357	servisa	serviss	ncmsg1	nmod	basic	7-7	_	ak_960_8066
7-7	358-368	kosultants	kosultants	ncmsn1	root	basic	7-7	_	ak_960_8066
