#FORMAT=WebAnno TSV 3.2
#T_SP=de.tudarmstadt.ukp.dkpro.core.api.segmentation.type.Lemma|value
#T_SP=de.tudarmstadt.ukp.dkpro.core.api.lexmorph.type.pos.POS|PosValue
#T_RL=de.tudarmstadt.ukp.dkpro.core.api.syntax.type.dependency.Dependency|DependencyType|flavor|BT_de.tudarmstadt.ukp.dkpro.core.api.lexmorph.type.pos.POS
#T_SP=de.tudarmstadt.ukp.dkpro.core.api.ner.type.NamedEntity|value
#T_SP=webanno.custom.ID|value


#Text=No cikiem līdz cikiem reģistrācijas nedēļā strādās sporta centrs?
1-1	0-2	No	no	sppd	case	basic	1-2	time[1]	darbalaiks_4367_34484
1-2	3-9	cikiem	ciks	ncmpd1	obl	basic	1-7	time[1]	darbalaiks_4367_34484
1-3	10-14	līdz	līdz	sppd	case	basic	1-4	time[1]	darbalaiks_4367_34484
1-4	15-21	cikiem	ciks	ncmpd1	obl	basic	1-7	time[1]	darbalaiks_4367_34484
1-5	22-35	reģistrācijas	reģistrācija	ncfsg4	nmod	basic	1-6	_	darbalaiks_4367_34484
1-6	36-42	nedēļā	nedēļa	ncfsl4	acl	basic	1-4	_	darbalaiks_4367_34484
1-7	43-50	strādās	strādāt	vmnif_230an	root	basic	1-7	_	darbalaiks_4367_34484
1-8	51-57	sporta	sports	ncmsg1	nmod	basic	1-9	_	darbalaiks_4367_34484
1-9	58-64	centrs	centrs	ncmsn1	nsubj	basic	1-7	_	darbalaiks_4367_34484
1-10	64-65	?	?	zs	punct	basic	1-7	_	darbalaiks_4367_34484

#Text=Droši vien, ka no 9:00 līdz 17:00.
2-1	67-72	Droši	droši	q	root	basic	2-1	_	darbalaiks_4367_34485
2-2	73-77	vien	vien	q	flat	basic	2-1	_	darbalaiks_4367_34485
2-3	77-78	,	,	zc	punct	basic	2-1	_	darbalaiks_4367_34485
2-4	79-81	ka	ka	cs	root	basic	2-4	_	darbalaiks_4367_34485
2-5	82-84	no	no	sppd	case	basic	2-6	time[2]	darbalaiks_4367_34485
2-6	85-86	9	9	xn	nummod	basic	2-4	time[2]	darbalaiks_4367_34485
2-7	86-87	:	:	zo	punct	basic	2-8	time[2]	darbalaiks_4367_34485
2-8	87-89	00	00	xn	conj	basic	2-6	time[2]	darbalaiks_4367_34485
2-9	90-94	līdz	līdz	spsd	case	basic	2-10	time[2]	darbalaiks_4367_34485
2-10	95-100	17:00	17:00	xx	conj	basic	2-6	time[2]	darbalaiks_4367_34485
2-11	100-101	.	.	zs	punct	basic	2-4	_	darbalaiks_4367_34485

#Text=Bet nu - labāk reģistrācijas nedēļas sākumā uzzvaniet un noskaidrojiet precīzi.
3-1	102-105	Bet	bet	cc	cc	basic	3-8	_	darbalaiks_4367_34485
3-2	106-108	nu	nu	q	discourse	basic	3-1	_	darbalaiks_4367_34485
3-3	109-110	-	-	zd	punct	basic	3-1	_	darbalaiks_4367_34485
3-4	111-116	labāk	labi	rc_	advmod	basic	3-8	_	darbalaiks_4367_34485
3-5	117-130	reģistrācijas	reģistrācija	ncfsg4	nmod	basic	3-6	_	darbalaiks_4367_34485
3-6	131-138	nedēļas	nedēļa	ncfsg4	nmod	basic	3-7	_	darbalaiks_4367_34485
3-7	139-145	sākumā	sākums	ncmsl1	obl	basic	3-8	_	darbalaiks_4367_34485
3-8	146-155	uzzvaniet	uzzvanīt	vmnm0_32pan	root	basic	3-8	_	darbalaiks_4367_34485
3-9	156-158	un	un	cc	cc	basic	3-10	_	darbalaiks_4367_34485
3-10	159-172	noskaidrojiet	noskaidrot	vmnm0t22p_n	conj	basic	3-8	_	darbalaiks_4367_34485
3-11	173-180	precīzi	precīzi	r0_	advmod	basic	3-10	_	darbalaiks_4367_34485
3-12	180-181	.	.	zs	punct	basic	3-8	_	darbalaiks_4367_34485

#Text=Cikos lietvieži beidz savu darbu?
4-1	183-188	Cikos	Ciks	ncmpl1	obl	basic	4-3	_	darbalaiks_4367_34486
4-2	189-198	lietvieži	lietviežs	ncmpn1	nsubj	basic	4-3	_	darbalaiks_4367_34486
4-3	199-204	beidz	beigt	vpnipt130an	root	basic	4-3	_	darbalaiks_4367_34486
4-4	205-209	savu	savs	ps0msan	det	basic	4-5	_	darbalaiks_4367_34486
4-5	210-215	darbu	darbs	ncmsa1	obj	basic	4-3	_	darbalaiks_4367_34486
4-6	215-216	?	?	zs	punct	basic	4-3	_	darbalaiks_4367_34486

#Text=Līdz cikiem es varu paņemt savu apliecību pirmdien?
5-1	217-221	Līdz	līdz	sppd	case	basic	5-2	_	darbalaiks_4367_34486
5-2	222-228	cikiem	ciks	ncmpd1	obl	basic	5-4	_	darbalaiks_4367_34486
5-3	229-231	es	es	pp10snn	nsubj	basic	5-4	_	darbalaiks_4367_34486
5-4	232-236	varu	varēt	vonip_31san	root	basic	5-4	_	darbalaiks_4367_34486
5-5	237-243	paņemt	paņemt	vmnn0t1000n	xcomp	basic	5-4	_	darbalaiks_4367_34486
5-6	244-248	savu	sava	ps0fsan	det	basic	5-7	_	darbalaiks_4367_34486
5-7	249-258	apliecību	apliecība	ncfsa4	obj	basic	5-5	_	darbalaiks_4367_34486
5-8	259-267	pirmdien	pirmdien	r0_	advmod	basic	5-5	_	darbalaiks_4367_34486
5-9	267-268	?	?	zs	punct	basic	5-4	_	darbalaiks_4367_34486

#Text=Normālais darba laiks LU ir līdz 17:00, ja vien nav norādīts īpašs pieņemšanas laiks pēc šī laika.
6-1	270-279	Normālais	normāls	afmsnyp	amod	basic	6-3	_	darbalaiks_4367_34487
6-2	280-285	darba	darbs	ncmsg1	nmod	basic	6-3	_	darbalaiks_4367_34487
6-3	286-291	laiks	laiks	ncmsn1	nsubj	basic	6-7	_	darbalaiks_4367_34487
6-4	292-294	LU	LU	yp	flat:name	basic	6-3	organization[3]	darbalaiks_4367_34487
6-5	295-297	ir	būt	vcnipii30an	cop	basic	6-7	_	darbalaiks_4367_34487
6-6	298-302	līdz	līdz	spsd	case	basic	6-7	time[4]	darbalaiks_4367_34487
6-7	303-308	17:00	17:00	xx	root	basic	6-7	time[4]	darbalaiks_4367_34487
6-8	308-309	,	,	zc	punct	basic	6-12	_	darbalaiks_4367_34487
6-9	310-312	ja	ja	cs	mark	basic	6-12	_	darbalaiks_4367_34487
6-10	313-317	vien	vien	q	discourse	basic	6-12	_	darbalaiks_4367_34487
6-11	318-321	nav	nebūt	vcnipii30ay	aux	basic	6-12	_	darbalaiks_4367_34487
6-12	322-330	norādīts	norādīt	vmnpdmsnpsnpn	advcl	basic	6-7	_	darbalaiks_4367_34487
6-13	331-336	īpašs	īpašs	afmsnnp	amod	basic	6-15	_	darbalaiks_4367_34487
6-14	337-348	pieņemšanas	pieņemšana	ncfsg4	nmod	basic	6-15	_	darbalaiks_4367_34487
6-15	349-354	laiks	laiks	ncmsn1	nsubj:pass	basic	6-12	_	darbalaiks_4367_34487
6-16	355-358	pēc	pēc	spsg	case	basic	6-18	time[5]	darbalaiks_4367_34487
6-17	359-361	šī	šis	pd3msgn	det	basic	6-18	time[5]	darbalaiks_4367_34487
6-18	362-367	laika	laiks	ncmsg1	nmod	basic	6-15	time[5]	darbalaiks_4367_34487
6-19	367-368	.	.	zs	punct	basic	6-7	_	darbalaiks_4367_34487
