#FORMAT=WebAnno TSV 3.2
#T_SP=de.tudarmstadt.ukp.dkpro.core.api.segmentation.type.Lemma|value
#T_SP=de.tudarmstadt.ukp.dkpro.core.api.lexmorph.type.pos.POS|PosValue
#T_RL=de.tudarmstadt.ukp.dkpro.core.api.syntax.type.dependency.Dependency|DependencyType|flavor|BT_de.tudarmstadt.ukp.dkpro.core.api.lexmorph.type.pos.POS
#T_SP=de.tudarmstadt.ukp.dkpro.core.api.ner.type.NamedEntity|value
#T_SP=webanno.custom.ID|value


#Text=Vai kāds zina, kādi īsti ir dekanāta un tirgvedības un kvalitātes institūta lietvedes darba laiki?
1-1	0-3	Vai	vai	q	discourse	basic	1-3	_	darbalaiks_15114_114265
1-2	4-8	kāds	kāds	pi0msnn	nsubj	basic	1-3	_	darbalaiks_15114_114265
1-3	9-13	zina	zināt	vmnipt330an	root	basic	1-3	_	darbalaiks_15114_114265
1-4	13-14	,	,	zc	punct	basic	1-7	_	darbalaiks_15114_114265
1-5	15-19	kādi	kāds	pr0mpnn	nsubj	basic	1-7	_	darbalaiks_15114_114265
1-6	20-24	īsti	īsti	r0_	advmod	basic	1-7	_	darbalaiks_15114_114265
1-7	25-27	ir	būt	vcnipii30an	ccomp	basic	1-3	_	darbalaiks_15114_114265
1-8	28-36	dekanāta	dekanāts	ncmsg1	nmod	basic	1-14	_	darbalaiks_15114_114265
1-9	37-39	un	un	cc	cc	basic	1-10	_	darbalaiks_15114_114265
1-10	40-51	tirgvedības	tirgvedība	ncfsg4	conj	basic	1-8	_	darbalaiks_15114_114265
1-11	52-54	un	un	cc	cc	basic	1-13	_	darbalaiks_15114_114265
1-12	55-65	kvalitātes	kvalitāte	ncfsg5	conj	basic	1-13	_	darbalaiks_15114_114265
1-13	66-75	institūta	institūts	ncmsg1	conj	basic	1-8	_	darbalaiks_15114_114265
1-14	76-85	lietvedes	lietvede	ncfsg5	nmod	basic	1-16	_	darbalaiks_15114_114265
1-15	86-91	darba	darbs	ncmsg1	nmod	basic	1-16	_	darbalaiks_15114_114265
1-16	92-97	laiki	laiks	ncmpn1	nsubj	basic	1-7	_	darbalaiks_15114_114265
1-17	97-98	?	?	zs	punct	basic	1-3	_	darbalaiks_15114_114265

#Text=Būšu ļoti pateicīga par drīzu atbildi.
2-1	99-103	Būšu	būt	vmnif_i1san	cop	basic	2-3	_	darbalaiks_15114_114265
2-2	104-108	ļoti	ļoti	r0_	advmod	basic	2-3	_	darbalaiks_15114_114265
2-3	109-118	pateicīga	pateicīgs	affsnnp	root	basic	2-3	_	darbalaiks_15114_114265
2-4	119-122	par	par	spsa	case	basic	2-6	_	darbalaiks_15114_114265
2-5	123-128	drīzu	drīzs	affsanp	amod	basic	2-6	_	darbalaiks_15114_114265
2-6	129-136	atbildi	atbilde	ncfsa5	iobj	basic	2-3	_	darbalaiks_15114_114265
2-7	136-137	.	.	zs	punct	basic	2-3	_	darbalaiks_15114_114265

#Text=Domāju, ka tēma dažādu infrastruktūru darba laiku tēma šobrīd daudziem aktuāla.
3-1	138-144	Domāju	domāt	vmnip_21san	root	basic	3-1	_	darbalaiks_15114_114265
3-2	144-145	,	,	zc	punct	basic	3-9	_	darbalaiks_15114_114265
3-3	146-148	ka	ka	cs	mark	basic	3-9	_	darbalaiks_15114_114265
3-4	149-153	tēma	tēma	ncfsn4	nmod	basic	3-9	_	darbalaiks_15114_114265
3-5	154-160	dažādu	dažāds	affpgnp	amod	basic	3-6	_	darbalaiks_15114_114265
3-6	161-175	infrastruktūru	infrastruktūra	ncfpg4	nmod	basic	3-8	_	darbalaiks_15114_114265
3-7	176-181	darba	darbs	ncmsg1	nmod	basic	3-8	_	darbalaiks_15114_114265
3-8	182-187	laiku	laiks	ncmsa1	nmod	basic	3-4	_	darbalaiks_15114_114265
3-9	188-192	tēma	tēma	ncfsn4	ccomp	basic	3-1	_	darbalaiks_15114_114265
3-10	193-199	šobrīd	šobrīd	r0_	advmod	basic	3-12	_	darbalaiks_15114_114265
3-11	200-208	daudziem	daudzi	pi0mpd_	det	basic	3-12	_	darbalaiks_15114_114265
3-12	209-216	aktuāla	aktuāls	affsnnp	dep	basic	3-9	_	darbalaiks_15114_114265
3-13	216-217	.	.	zs	punct	basic	3-1	_	darbalaiks_15114_114265

#Text=Piezvaniet uz attiecīgo lietvežu tālruņiem un Jums pateiks!
4-1	219-229	Piezvaniet	piezvanīt	vmnm0_32pan	root	basic	4-1	_	darbalaiks_15114_114266
4-2	230-232	uz	uz	spsa	case	basic	4-5	_	darbalaiks_15114_114266
4-3	233-242	attiecīgo	attiecīgs	afmpgyp	amod	basic	4-4	_	darbalaiks_15114_114266
4-4	243-251	lietvežu	lietvedis	ncmpg2	nmod	basic	4-5	_	darbalaiks_15114_114266
4-5	252-261	tālruņiem	tālrunis	ncmpd2	obl	basic	4-1	_	darbalaiks_15114_114266
4-6	262-264	un	un	cc	cc	basic	4-8	_	darbalaiks_15114_114266
4-7	265-269	Jums	jūs	pp20pdn	obl	basic	4-8	_	darbalaiks_15114_114266
4-8	270-277	pateiks	pateikt	vmnift130an	conj	basic	4-1	_	darbalaiks_15114_114266
4-9	277-278	!	!	zs	punct	basic	4-1	_	darbalaiks_15114_114266
