#FORMAT=WebAnno TSV 3.2
#T_SP=de.tudarmstadt.ukp.dkpro.core.api.segmentation.type.Lemma|value
#T_SP=de.tudarmstadt.ukp.dkpro.core.api.lexmorph.type.pos.POS|PosValue
#T_RL=de.tudarmstadt.ukp.dkpro.core.api.syntax.type.dependency.Dependency|DependencyType|flavor|BT_de.tudarmstadt.ukp.dkpro.core.api.lexmorph.type.pos.POS
#T_SP=de.tudarmstadt.ukp.dkpro.core.api.ner.type.NamedEntity|value
#T_SP=webanno.custom.ID|value


#Text=vai kāds zina arī darba laikus studentu servisam???
1-1	0-3	vai	vai	q	discourse	basic	1-3	_	darbalaiks_5992_46524
1-2	4-8	kāds	kāds	pi0msnn	nsubj	basic	1-3	_	darbalaiks_5992_46524
1-3	9-13	zina	zināt	vmnipt330an	root	basic	1-3	_	darbalaiks_5992_46524
1-4	14-17	arī	arī	q	discourse	basic	1-6	_	darbalaiks_5992_46524
1-5	18-23	darba	darbs	ncmsg1	nmod	basic	1-6	_	darbalaiks_5992_46524
1-6	24-30	laikus	laiks	ncmpa1	obj	basic	1-3	_	darbalaiks_5992_46524
1-7	31-39	studentu	students	ncmpg1	nmod	basic	1-8	_	darbalaiks_5992_46524
1-8	40-48	servisam	serviss	ncmsd1	iobj	basic	1-3	_	darbalaiks_5992_46524
1-9	48-51	???	???	zs	punct	basic	1-3	_	darbalaiks_5992_46524

#Text=Pieņemšanas laiki:\nPirmdiena: 8.30 - 12.30 un 13.00 - 17.00\nOtrdiena: 8.30 - 12.30 un 13.00 - 17.00\nTrešdiena: 8.30 - 12.30 un 13.00 - 17.00\nCeturtdiena: 10.30 – 13.30 un 14.00 - 19.00\nPiektdiena: 8.30 - 12.30 un 13.00 - 17.00\nSestdiena, svētdiena - brīvdiena.
2-1	53-64	Pieņemšanas	pieņemšana	ncfsg4	nmod	basic	2-2	_	darbalaiks_5992_46525
2-2	65-70	laiki	laiks	ncmpn1	root	basic	2-2	_	darbalaiks_5992_46525
2-3	70-71	:	:	zo	punct	basic	2-2	_	darbalaiks_5992_46525
2-4	72-81	Pirmdiena	pirmdiena	ncfsn4	nsubj	basic	2-3	person[1]	darbalaiks_5992_46525
2-5	81-82	:	:	zo	punct	basic	2-7	_	darbalaiks_5992_46525
2-6	83-87	8.30	8.30	xn	csubj	basic	2-7	time[2]	darbalaiks_5992_46525
2-7	88-89	-	-	zd	punct	basic	2-25	time[2]	darbalaiks_5992_46525
2-8	90-95	12.30	12.30	xn	dep	basic	2-7	time[2]	darbalaiks_5992_46525
2-9	96-98	un	un	cc	cc	basic	2-11	time[2]	darbalaiks_5992_46525
2-10	99-104	13.00	13.00	xn	nummod	basic	2-9	time[2]	darbalaiks_5992_46525
2-11	105-106	-	-	zd	conj	basic	2-7	time[2]	darbalaiks_5992_46525
2-12	107-112	17.00	17.00	xn	nummod	basic	2-13	time[2]	darbalaiks_5992_46525
2-13	113-121	Otrdiena	otrdiena	ncfsn4	nsubj	basic	2-7	time[2]	darbalaiks_5992_46525
2-14	121-122	:	:	zo	punct	basic	2-16	time[2]	darbalaiks_5992_46525
2-15	123-127	8.30	8.30	xn	csubj	basic	2-16	time[2]	darbalaiks_5992_46525
2-16	128-129	-	-	zd	amod	basic	2-13	time[2]	darbalaiks_5992_46525
2-17	130-135	12.30	12.30	xn	nummod	basic	2-16	time[2]	darbalaiks_5992_46525
2-18	136-138	un	un	cc	cc	basic	2-20	time[2]	darbalaiks_5992_46525
2-19	139-144	13.00	13.00	xn	nummod	basic	2-20	time[2]	darbalaiks_5992_46525
2-20	145-146	-	-	zd	conj	basic	2-7	time[2]	darbalaiks_5992_46525
2-21	147-152	17.00	17.00	xn	nummod	basic	2-22	time[2]	darbalaiks_5992_46525
2-22	153-162	Trešdiena	trešdiena	ncfsn4	nsubj	basic	2-25	time[2]	darbalaiks_5992_46525
2-23	162-163	:	:	zo	punct	basic	2-25	time[2]	darbalaiks_5992_46525
2-24	164-168	8.30	8.30	xn	csubj	basic	2-25	time[2]	darbalaiks_5992_46525
2-25	169-170	-	-	zd	dep	basic	2-4	time[2]	darbalaiks_5992_46525
2-26	171-176	12.30	12.30	xn	dep	basic	2-25	time[2]	darbalaiks_5992_46525
2-27	177-179	un	un	cc	cc	basic	2-29	time[2]	darbalaiks_5992_46525
2-28	180-185	13.00	13.00	xn	nummod	basic	2-29	time[2]	darbalaiks_5992_46525
2-29	186-187	-	-	zd	conj	basic	2-25	time[2]	darbalaiks_5992_46525
2-30	188-193	17.00	17.00	xn	nummod	basic	2-31	time[2]	darbalaiks_5992_46525
2-31	194-205	Ceturtdiena	ceturtdiena	ncfsn4	nsubj	basic	2-34	time[2]	darbalaiks_5992_46525
2-32	205-206	:	:	zo	punct	basic	2-34	time[2]	darbalaiks_5992_46525
2-33	207-212	10.30	10.30	xn	nsubj	basic	2-34	time[2]	darbalaiks_5992_46525
2-34	213-214	–	–	zd	nummod	basic	2-25	time[2]	darbalaiks_5992_46525
2-35	215-220	13.30	13.30	xn	nummod	basic	2-34	time[2]	darbalaiks_5992_46525
2-36	221-223	un	un	cc	cc	basic	2-38	time[2]	darbalaiks_5992_46525
2-37	224-229	14.00	14.00	xn	nsubj	basic	2-38	time[2]	darbalaiks_5992_46525
2-38	230-231	-	-	zd	conj	basic	2-25	time[2]	darbalaiks_5992_46525
2-39	232-237	19.00	19.00	xn	nummod	basic	2-40	time[2]	darbalaiks_5992_46525
2-40	238-248	Piektdiena	piektdiena	ncfsn4	nsubj	basic	2-41	time[2]	darbalaiks_5992_46525
2-41	248-249	:	:	zo	punct	basic	2-43	time[2]	darbalaiks_5992_46525
2-42	250-254	8.30	8.30	xn	nsubj	basic	2-43	time[2]	darbalaiks_5992_46525
2-43	255-256	-	-	zd	nummod	basic	2-25	time[2]	darbalaiks_5992_46525
2-44	257-262	12.30	12.30	xn	dep	basic	2-43	time[2]	darbalaiks_5992_46525
2-45	263-265	un	un	cc	cc	basic	2-47	time[2]	darbalaiks_5992_46525
2-46	266-271	13.00	13.00	xn	nsubj	basic	2-47	time[2]	darbalaiks_5992_46525
2-47	272-273	-	-	zd	conj	basic	2-25	time[2]	darbalaiks_5992_46525
2-48	274-279	17.00	17.00	xn	nummod	basic	2-49	time[2]	darbalaiks_5992_46525
2-49	280-289	Sestdiena	sestdiena	ncfsn4	nsubj	basic	2-25	time[2]	darbalaiks_5992_46525
2-50	289-290	,	,	zc	punct	basic	2-53	_	darbalaiks_5992_46525
2-51	291-300	svētdiena	svētdiena	ncfsn4	nsubj	basic	2-53	_	darbalaiks_5992_46525
2-52	301-302	-	-	zd	cop	basic	2-53	_	darbalaiks_5992_46525
2-53	303-312	brīvdiena	brīvdiena	ncfsn4	conj	basic	2-49	_	darbalaiks_5992_46525
2-54	312-313	.	.	zs	punct	basic	2-3	_	darbalaiks_5992_46525

#Text=Nākamreiz neslinkojiet uz pameklējiet!
3-1	314-323	Nākamreiz	nākamreiz	r0_	advmod	basic	3-2	_	darbalaiks_5992_46525
3-2	324-336	neslinkojiet	neslinkot	vmnm0i22p_y	root	basic	3-2	_	darbalaiks_5992_46525
3-3	337-339	uz	uz	sp__	case	basic	3-4	_	darbalaiks_5992_46525
3-4	340-351	pameklējiet	pameklēt	vmnm0t22p_n	obl	basic	3-2	_	darbalaiks_5992_46525
3-5	351-352	!	!	zs	punct	basic	3-2	_	darbalaiks_5992_46525
