#FORMAT=WebAnno TSV 3.2
#T_SP=de.tudarmstadt.ukp.dkpro.core.api.segmentation.type.Lemma|value
#T_SP=de.tudarmstadt.ukp.dkpro.core.api.lexmorph.type.pos.POS|PosValue
#T_RL=de.tudarmstadt.ukp.dkpro.core.api.syntax.type.dependency.Dependency|DependencyType|flavor|BT_de.tudarmstadt.ukp.dkpro.core.api.lexmorph.type.pos.POS
#T_SP=de.tudarmstadt.ukp.dkpro.core.api.ner.type.NamedEntity|value
#T_SP=webanno.custom.ID|value


#Text=Varētu, lūdzu, pateikt bibliotēkzinātnes un informācijas bakalaura programmas lietvedes koordinātes, t.i. kurā kabinetā viņu var satikt, kads e-pasts, tel.
1-1	0-6	Varētu	varēt	vonc0_300an	root	basic	1-1	_	darbalaiks_2800_24156
1-2	6-7	,	,	zc	punct	basic	1-5	_	darbalaiks_2800_24156
1-3	8-13	lūdzu	lūdzu	is	discourse	basic	1-5	_	darbalaiks_2800_24156
1-4	13-14	,	,	zc	punct	basic	1-3	_	darbalaiks_2800_24156
1-5	15-22	pateikt	pateikt	vmnn0t1000n	csubj	basic	1-1	_	darbalaiks_2800_24156
1-6	23-40	bibliotēkzinātnes	bibliotēkzinātne	ncfsg5	nmod	basic	1-10	_	darbalaiks_2800_24156
1-7	41-43	un	un	cc	cc	basic	1-9	_	darbalaiks_2800_24156
1-8	44-56	informācijas	informācija	ncfsg4	nmod	basic	1-9	_	darbalaiks_2800_24156
1-9	57-66	bakalaura	bakalaurs	ncmsg1	conj	basic	1-6	_	darbalaiks_2800_24156
1-10	67-77	programmas	programma	ncfsg4	nmod	basic	1-12	_	darbalaiks_2800_24156
1-11	78-87	lietvedes	lietvede	ncfsg5	nmod	basic	1-12	_	darbalaiks_2800_24156
1-12	88-99	koordinātes	koordināte	ncfsg5	iobj	basic	1-5	_	darbalaiks_2800_24156
1-13	99-100	,	,	zc	punct	basic	1-18	_	darbalaiks_2800_24156
1-14	101-105	t.i.	t.i.	y	discourse	basic	1-18	_	darbalaiks_2800_24156
1-15	106-110	kurā	kurš	pr0msln	obl	basic	1-18	_	darbalaiks_2800_24156
1-16	111-119	kabinetā	kabinets	ncmsl1	obl	basic	1-18	_	darbalaiks_2800_24156
1-17	120-124	viņu	viņš	pp3msan	obj	basic	1-18	_	darbalaiks_2800_24156
1-18	125-128	var	varēt	vonip_330an	acl	basic	1-5	_	darbalaiks_2800_24156
1-19	129-135	satikt	satikt	vmnn0_1000n	xcomp	basic	1-18	_	darbalaiks_2800_24156
1-20	135-136	,	,	zc	punct	basic	1-21	_	darbalaiks_2800_24156
1-21	137-141	kads	kads	ncmsn1	conj	basic	1-18	_	darbalaiks_2800_24156
1-22	142-149	e-pasts	e-pasts	ncmsn1	flat:name	basic	1-21	_	darbalaiks_2800_24156
1-23	149-150	,	,	zc	punct	basic	1-24	_	darbalaiks_2800_24156
1-24	151-154	tel	tel	i	acl	basic	1-21	_	darbalaiks_2800_24156
1-25	154-155	.	.	zs	punct	basic	1-1	_	darbalaiks_2800_24156

#Text=nr.?
2-1	156-159	nr.	nr.	y	root	basic	2-1	_	darbalaiks_2800_24156
2-2	159-160	?	?	zs	punct	basic	2-1	_	darbalaiks_2800_24156

#Text=Un darba laiks?
3-1	161-163	Un	un	cc	cc	basic	3-3	_	darbalaiks_2800_24156
3-2	164-169	darba	darbs	ncmsg1	nmod	basic	3-3	_	darbalaiks_2800_24156
3-3	170-175	laiks	laiks	ncmsn1	root	basic	3-3	_	darbalaiks_2800_24156
3-4	175-176	?	?	zs	punct	basic	3-3	_	darbalaiks_2800_24156

#Text=Vai sestdienās viņa tur ir?
4-1	177-180	Vai	vai	cs	cc	basic	4-5	_	darbalaiks_2800_24156
4-2	181-191	sestdienās	sestdiena	ncfpl4	obl	basic	4-5	_	darbalaiks_2800_24156
4-3	192-196	viņa	viņa	pp3fsnn	nsubj	basic	4-5	_	darbalaiks_2800_24156
4-4	197-200	tur	tur	r0_	advmod	basic	4-5	_	darbalaiks_2800_24156
4-5	201-203	ir	būt	vcnipii30an	root	basic	4-5	_	darbalaiks_2800_24156
4-6	203-204	?	?	zs	punct	basic	4-5	_	darbalaiks_2800_24156

#Text=Liels paldies!
5-1	205-210	Liels	liels	afmsnnp	amod	basic	5-2	_	darbalaiks_2800_24156
5-2	211-218	paldies	paldies	is	root	basic	5-2	_	darbalaiks_2800_24156
5-3	218-219	!	!	zs	punct	basic	5-2	_	darbalaiks_2800_24156

#Text=http://szf.lu.lv/fakultate/par-mums/kontakti/
6-1	221-266	http://szf.lu.lv/fakultate/par-mums/kontakti/	http://szf.lu.lv/fakultate/par-mums/kontakti/	i	root	basic	6-1	_	darbalaiks_2800_24157
