#FORMAT=WebAnno TSV 3.2
#T_SP=de.tudarmstadt.ukp.dkpro.core.api.segmentation.type.Lemma|value
#T_SP=de.tudarmstadt.ukp.dkpro.core.api.lexmorph.type.pos.POS|PosValue
#T_RL=de.tudarmstadt.ukp.dkpro.core.api.syntax.type.dependency.Dependency|DependencyType|flavor|BT_de.tudarmstadt.ukp.dkpro.core.api.lexmorph.type.pos.POS
#T_SP=de.tudarmstadt.ukp.dkpro.core.api.ner.type.NamedEntity|value
#T_SP=webanno.custom.ID|value


#Text=Pie kā man tur būtu jāiet, pie grāmatvedes kādas vai kā?
1-1	0-3	Pie	pie	spsg	case	basic	1-2	_	darbalaiks_20790_155690
1-2	4-6	kā	kas	pi000gn	nsubj	basic	1-6	_	darbalaiks_20790_155690
1-3	7-10	man	es	pp10sdn	nsubj	basic	1-6	_	darbalaiks_20790_155690
1-4	11-14	tur	tur	r0_	advmod	basic	1-6	_	darbalaiks_20790_155690
1-5	15-19	būtu	būt	vcnc0_i00an	aux	basic	1-6	_	darbalaiks_20790_155690
1-6	20-25	jāiet	iet	vmnd0i100an	root	basic	1-6	_	darbalaiks_20790_155690
1-7	25-26	,	,	zc	punct	basic	1-10	_	darbalaiks_20790_155690
1-8	27-30	pie	pie	spsg	case	basic	1-9	_	darbalaiks_20790_155690
1-9	31-42	grāmatvedes	grāmatvede	ncfsg5	obl	basic	1-10	_	darbalaiks_20790_155690
1-10	43-48	kādas	kāda	pi0fsgn	iobj	basic	1-6	_	darbalaiks_20790_155690
1-11	49-52	vai	vai	q	discourse	basic	1-12	_	darbalaiks_20790_155690
1-12	53-55	kā	kā	r0_	conj	basic	1-10	_	darbalaiks_20790_155690
1-13	55-56	?	?	zs	punct	basic	1-6	_	darbalaiks_20790_155690

#Text=LU Grāmatvedībā, 2. stāvā, 13. kabinetā.
2-1	58-60	LU	LU	yp	nmod	basic	2-2	organization[1]	darbalaiks_20790_155692
2-2	61-73	Grāmatvedībā	grāmatvedība	ncfsl4	root	basic	2-2	organization[1]	darbalaiks_20790_155692
2-3	73-74	,	,	zc	punct	basic	2-5	_	darbalaiks_20790_155692
2-4	75-77	2.	2.	xo	amod	basic	2-5	_	darbalaiks_20790_155692
2-5	78-83	stāvā	stāvs	ncmsl1	conj	basic	2-2	_	darbalaiks_20790_155692
2-6	83-84	,	,	zc	punct	basic	2-8	_	darbalaiks_20790_155692
2-7	85-88	13.	13.	xo	amod	basic	2-8	organization[2]	darbalaiks_20790_155692
2-8	89-97	kabinetā	kabinets	ncmsl1	parataxis	basic	2-2	organization[2]	darbalaiks_20790_155692
2-9	97-98	.	.	zs	punct	basic	2-2	_	darbalaiks_20790_155692

#Text=Un kāds tur darba laiks varētu būt?
3-1	100-102	Un	un	cc	cc	basic	3-6	_	darbalaiks_20790_155693
3-2	103-107	kāds	kāds	pi0msnn	nsubj	basic	3-6	_	darbalaiks_20790_155693
3-3	108-111	tur	tur	r0_	advmod	basic	3-6	_	darbalaiks_20790_155693
3-4	112-117	darba	darbs	ncmsg1	nmod	basic	3-5	_	darbalaiks_20790_155693
3-5	118-123	laiks	laiks	ncmsn1	nsubj	basic	3-6	_	darbalaiks_20790_155693
3-6	124-130	varētu	varēt	vonc0_300an	root	basic	3-6	_	darbalaiks_20790_155693
3-7	131-134	būt	būt	vmnn0_i000n	xcomp	basic	3-6	_	darbalaiks_20790_155693
3-8	134-135	?	?	zs	punct	basic	3-6	_	darbalaiks_20790_155693

#Text=No 9:00 līdz 16:30, ar pusdienas pārtraukumu no 13:00 līdz 13:30.
4-1	137-139	No	no	sppd	case	basic	4-2	_	darbalaiks_20790_155694
4-2	140-141	9	9	xn	root	basic	4-2	time[3]	darbalaiks_20790_155694
4-3	141-142	:	:	zo	punct	basic	4-4	time[3]	darbalaiks_20790_155694
4-4	142-144	00	00	xn	conj	basic	4-2	time[3]	darbalaiks_20790_155694
4-5	145-149	līdz	līdz	spsd	case	basic	4-6	time[3]	darbalaiks_20790_155694
4-6	150-155	16:30	16:30	xx	compound	basic	4-4	time[3]	darbalaiks_20790_155694
4-7	155-156	,	,	zc	punct	basic	4-10	_	darbalaiks_20790_155694
4-8	157-159	ar	ar	spsa	case	basic	4-10	_	darbalaiks_20790_155694
4-9	160-169	pusdienas	pusdiena	ncfsg4	nmod	basic	4-10	_	darbalaiks_20790_155694
4-10	170-181	pārtraukumu	pārtraukums	ncmsa1	conj	basic	4-6	_	darbalaiks_20790_155694
4-11	182-184	no	no	spsg	case	basic	4-12	time[4]	darbalaiks_20790_155694
4-12	185-190	13:00	13:00	xx	nmod	basic	4-10	time[4]	darbalaiks_20790_155694
4-13	191-195	līdz	līdz	sppd	case	basic	4-14	time[4]	darbalaiks_20790_155694
4-14	196-201	13:30	13:30	xx	nmod	basic	4-10	time[4]	darbalaiks_20790_155694
4-15	201-202	.	.	zs	punct	basic	4-2	_	darbalaiks_20790_155694
