#FORMAT=WebAnno TSV 3.2
#T_SP=de.tudarmstadt.ukp.dkpro.core.api.segmentation.type.Lemma|value
#T_SP=de.tudarmstadt.ukp.dkpro.core.api.lexmorph.type.pos.POS|PosValue
#T_RL=de.tudarmstadt.ukp.dkpro.core.api.syntax.type.dependency.Dependency|DependencyType|flavor|BT_de.tudarmstadt.ukp.dkpro.core.api.lexmorph.type.pos.POS
#T_SP=de.tudarmstadt.ukp.dkpro.core.api.ner.type.NamedEntity|value
#T_SP=webanno.custom.ID|value


#Text=Pie kā man jāiet, lai izņemtu dokumentus no LU EVF?
1-1	0-3	Pie	pie	spsg	case	basic	1-2	_	darbalaiks_14975_113301
1-2	4-6	kā	kas	pi000gn	obl	basic	1-4	_	darbalaiks_14975_113301
1-3	7-10	man	es	pp10sdn	nsubj	basic	1-4	_	darbalaiks_14975_113301
1-4	11-16	jāiet	iet	vmnd0i100an	root	basic	1-4	_	darbalaiks_14975_113301
1-5	16-17	,	,	zc	punct	basic	1-7	_	darbalaiks_14975_113301
1-6	18-21	lai	lai	cs	mark	basic	1-7	_	darbalaiks_14975_113301
1-7	22-29	izņemtu	izņemt	vmnc0t100an	ccomp	basic	1-4	_	darbalaiks_14975_113301
1-8	30-40	dokumentus	dokuments	ncmpa1	obj	basic	1-7	_	darbalaiks_14975_113301
1-9	41-43	no	no	spsg	case	basic	1-11	_	darbalaiks_14975_113301
1-10	44-46	LU	LU	yp	nmod	basic	1-11	organization[1]	darbalaiks_14975_113301
1-11	47-50	EVF	EVF	y	nmod	basic	1-8	organization[1]	darbalaiks_14975_113301
1-12	50-51	?	?	zs	punct	basic	1-4	_	darbalaiks_14975_113301

#Text=Pie dekāna vai lietvedes?
2-1	52-55	Pie	pie	spsg	case	basic	2-2	_	darbalaiks_14975_113301
2-2	56-62	dekāna	dekāns	ncmsg1	root	basic	2-2	_	darbalaiks_14975_113301
2-3	63-66	vai	vai	cs	cc	basic	2-4	_	darbalaiks_14975_113301
2-4	67-76	lietvedes	lietvede	ncfsg5	conj	basic	2-2	_	darbalaiks_14975_113301
2-5	76-77	?	?	zs	punct	basic	2-2	_	darbalaiks_14975_113301

#Text=Un kādi ir darba laiki, jo aiziet pa dienas vidu nav iespējams - jāstrādā.
3-1	78-80	Un	un	cc	cc	basic	3-3	_	darbalaiks_14975_113301
3-2	81-85	kādi	kāds	pi0mpnn	nsubj	basic	3-3	_	darbalaiks_14975_113301
3-3	86-88	ir	būt	vcnipii30an	root	basic	3-3	_	darbalaiks_14975_113301
3-4	89-94	darba	darbs	ncmsg1	nmod	basic	3-5	_	darbalaiks_14975_113301
3-5	95-100	laiki	laiks	ncmpn1	nsubj	basic	3-3	_	darbalaiks_14975_113301
3-6	100-101	,	,	zc	punct	basic	3-8	_	darbalaiks_14975_113301
3-7	102-104	jo	jo	cs	mark	basic	3-8	_	darbalaiks_14975_113301
3-8	105-111	aiziet	aiziet	vmnn0i1000n	advcl	basic	3-3	_	darbalaiks_14975_113301
3-9	112-114	pa	pa	spsa	case	basic	3-11	_	darbalaiks_14975_113301
3-10	115-121	dienas	diena	ncfsg4	nmod	basic	3-11	_	darbalaiks_14975_113301
3-11	122-126	vidu	vidus	ncmsa3	obl	basic	3-8	_	darbalaiks_14975_113301
3-12	127-130	nav	nebūt	vcnipii30ay	cop	basic	3-13	_	darbalaiks_14975_113301
3-13	131-140	iespējams	iespējams	afmsnnp	parataxis	basic	3-8	_	darbalaiks_14975_113301
3-14	141-142	-	-	zd	obj	basic	3-15	_	darbalaiks_14975_113301
3-15	143-151	jāstrādā	strādāt	vmnd0_200an	ccomp	basic	3-13	_	darbalaiks_14975_113301
3-16	151-152	.	.	zs	punct	basic	3-13	_	darbalaiks_14975_113301

#Text=Jāiet ir pie programmas lietvedes.
4-1	154-159	Jāiet	iet	vmnd0i100an	root	basic	4-1	_	darbalaiks_14975_113302
4-2	160-162	ir	būt	vcnipii30an	aux:pass	basic	4-1	_	darbalaiks_14975_113302
4-3	163-166	pie	pie	spsg	case	basic	4-5	_	darbalaiks_14975_113302
4-4	167-177	programmas	programma	ncfsg4	nmod	basic	4-5	_	darbalaiks_14975_113302
4-5	178-187	lietvedes	lietvede	ncfpa5	obl	basic	4-1	_	darbalaiks_14975_113302
4-6	187-188	.	.	zs	punct	basic	4-1	_	darbalaiks_14975_113302

#Text=Iepriekš piezvaniet un noskaidrosiet.
5-1	189-197	Iepriekš	iepriekš	r0_	advmod	basic	5-2	_	darbalaiks_14975_113302
5-2	198-208	piezvaniet	piezvanīt	vmnm0_32pan	root	basic	5-2	_	darbalaiks_14975_113302
5-3	209-211	un	un	cc	cc	basic	5-4	_	darbalaiks_14975_113302
5-4	212-225	noskaidrosiet	noskaidrot	vmnift22pan	conj	basic	5-2	_	darbalaiks_14975_113302
5-5	225-226	.	.	zs	punct	basic	5-2	_	darbalaiks_14975_113302
