#FORMAT=WebAnno TSV 3.2
#T_SP=de.tudarmstadt.ukp.dkpro.core.api.segmentation.type.Lemma|value
#T_SP=de.tudarmstadt.ukp.dkpro.core.api.lexmorph.type.pos.POS|PosValue
#T_RL=de.tudarmstadt.ukp.dkpro.core.api.syntax.type.dependency.Dependency|DependencyType|flavor|BT_de.tudarmstadt.ukp.dkpro.core.api.lexmorph.type.pos.POS
#T_SP=de.tudarmstadt.ukp.dkpro.core.api.ner.type.NamedEntity|value
#T_SP=webanno.custom.ID|value


#Text=Man viens lūgums:\n1) varbūt varētu informēt arī citus studentus par savām aktivitātēm,\n2) kad ir Jūsu darba laiks tam kab. 4. stāvā,\n3) es tā arī nesagaidīju paziņojumu jūlijā, par domes sēdi...
1-1	0-3	Man	es	pp10sdn	iobj	basic	1-2	_	darbalaiks_2227_19034
1-2	4-9	viens	viens	mcsmsn	nummod	basic	1-3	_	darbalaiks_2227_19034
1-3	10-16	lūgums	lūgums	ncmsn1	nsubj	basic	1-8	_	darbalaiks_2227_19034
1-4	16-17	:	:	zo	punct	basic	1-8	_	darbalaiks_2227_19034
1-5	18-19	1	1	xn	discourse	basic	1-8	_	darbalaiks_2227_19034
1-6	19-20	)	)	zb	punct	basic	1-5	_	darbalaiks_2227_19034
1-7	21-27	varbūt	varbūt	q	discourse	basic	1-8	_	darbalaiks_2227_19034
1-8	28-34	varētu	varēt	vonc0_300an	root	basic	1-8	_	darbalaiks_2227_19034
1-9	35-43	informēt	informēt	vmnn0t2000n	xcomp	basic	1-8	_	darbalaiks_2227_19034
1-10	44-47	arī	arī	q	discourse	basic	1-11	_	darbalaiks_2227_19034
1-11	48-53	citus	cits	pi0mpan	det	basic	1-12	_	darbalaiks_2227_19034
1-12	54-63	studentus	students	ncmpa1	obj	basic	1-9	_	darbalaiks_2227_19034
1-13	64-67	par	par	sppd	case	basic	1-15	_	darbalaiks_2227_19034
1-14	68-73	savām	sava	ps0fpdn	det	basic	1-15	_	darbalaiks_2227_19034
1-15	74-85	aktivitātēm	aktivitāte	ncfpd5	nmod	basic	1-12	_	darbalaiks_2227_19034
1-16	85-86	,	,	zc	punct	basic	1-17	_	darbalaiks_2227_19034
1-17	87-88	2	2	xn	discourse	basic	1-20	_	darbalaiks_2227_19034
1-18	88-89	)	)	zb	punct	basic	1-17	_	darbalaiks_2227_19034
1-19	90-93	kad	kad	r0_	advmod	basic	1-20	_	darbalaiks_2227_19034
1-20	94-96	ir	būt	vcnipii30an	conj	basic	1-12	_	darbalaiks_2227_19034
1-21	97-101	Jūsu	jūs	pp20pgn	det	basic	1-22	_	darbalaiks_2227_19034
1-22	102-107	darba	darbs	ncmsg1	nmod	basic	1-23	_	darbalaiks_2227_19034
1-23	108-113	laiks	laiks	ncmsn1	nsubj	basic	1-20	_	darbalaiks_2227_19034
1-24	114-117	tam	tas	pd3msdn	iobj	basic	1-25	_	darbalaiks_2227_19034
1-25	118-122	kab.	kab.	y	nmod	basic	1-27	_	darbalaiks_2227_19034
1-26	123-125	4.	4.	xo	amod	basic	1-27	_	darbalaiks_2227_19034
1-27	126-131	stāvā	stāvs	ncmsl1	obl	basic	1-20	_	darbalaiks_2227_19034
1-28	131-132	,	,	zc	punct	basic	1-34	_	darbalaiks_2227_19034
1-29	133-134	3	3	xn	discourse	basic	1-34	_	darbalaiks_2227_19034
1-30	134-135	)	)	zb	punct	basic	1-29	_	darbalaiks_2227_19034
1-31	136-138	es	es	pp10snn	nsubj	basic	1-34	_	darbalaiks_2227_19034
1-32	139-141	tā	tā	r0_	advmod	basic	1-34	_	darbalaiks_2227_19034
1-33	142-145	arī	arī	q	discourse	basic	1-34	_	darbalaiks_2227_19034
1-34	146-157	nesagaidīju	nesagaidīt	vmnist31say	conj	basic	1-8	_	darbalaiks_2227_19034
1-35	158-168	paziņojumu	paziņojums	ncmsa1	obj	basic	1-34	_	darbalaiks_2227_19034
1-36	169-175	jūlijā	Jūlija	npfsl4	acl	basic	1-35	time[1]	darbalaiks_2227_19034
1-37	175-176	,	,	zc	punct	basic	1-40	_	darbalaiks_2227_19034
1-38	177-180	par	par	spsa	case	basic	1-40	_	darbalaiks_2227_19034
1-39	181-186	domes	dome	ncfsg5	nmod	basic	1-40	_	darbalaiks_2227_19034
1-40	187-191	sēdi	sēde	ncfsa5	acl	basic	1-35	_	darbalaiks_2227_19034
1-41	191-194	...	...	zs	punct	basic	1-8	_	darbalaiks_2227_19034

#Text=Mums nav noteikta darba laika.
2-1	196-200	Mums	mēs	pp10pdn	obl	basic	2-2	_	darbalaiks_2227_19035
2-2	201-204	nav	nebūt	vcnipii30ay	root	basic	2-2	_	darbalaiks_2227_19035
2-3	205-213	noteikta	noteikts	afmsgnp	amod	basic	2-4	_	darbalaiks_2227_19035
2-4	214-219	darba	darbs	ncmsg1	nmod	basic	2-5	_	darbalaiks_2227_19035
2-5	220-225	laika	laiks	ncmsg1	nsubj	basic	2-2	_	darbalaiks_2227_19035
2-6	225-226	.	.	zs	punct	basic	2-2	_	darbalaiks_2227_19035

#Text=Bet mūs tur var itin bieži sastapt.
3-1	227-230	Bet	bet	cc	cc	basic	3-4	_	darbalaiks_2227_19035
3-2	231-234	mūs	mēs	pp10pan	obj	basic	3-4	_	darbalaiks_2227_19035
3-3	235-238	tur	tur	r0_	advmod	basic	3-4	_	darbalaiks_2227_19035
3-4	239-242	var	varēt	vonip_330an	root	basic	3-4	_	darbalaiks_2227_19035
3-5	243-247	itin	itin	q	discourse	basic	3-6	_	darbalaiks_2227_19035
3-6	248-253	bieži	bieži	r0_	advmod	basic	3-7	_	darbalaiks_2227_19035
3-7	254-261	sastapt	sastapt	vmnn0t1000n	xcomp	basic	3-4	_	darbalaiks_2227_19035
3-8	261-262	.	.	zs	punct	basic	3-4	_	darbalaiks_2227_19035

#Text=Ja kaut ko svarīgu nepieciešams nokārtot - vffsp@lu.lv !
4-1	263-265	Ja	ja	cs	mark	basic	4-5	_	darbalaiks_2227_19035
4-2	266-270	kaut	kaut	q	discourse	basic	4-3	_	darbalaiks_2227_19035
4-3	271-273	ko	kas	pi000an	obj	basic	4-5	_	darbalaiks_2227_19035
4-4	274-281	svarīgu	svarīgs	afmsanp	amod	basic	4-5	_	darbalaiks_2227_19035
4-5	282-294	nepieciešams	nepieciešams	afmsnnp	root	basic	4-5	_	darbalaiks_2227_19035
4-6	295-303	nokārtot	nokārtot	vmnn0t2000n	ccomp	basic	4-5	_	darbalaiks_2227_19035
4-7	304-305	-	-	zd	punct	basic	4-8	_	darbalaiks_2227_19035
4-8	306-317	vffsp@lu.lv	vffsp@lu.lv	i	vocative	basic	4-6	_	darbalaiks_2227_19035
4-9	318-319	!	!	zs	punct	basic	4-8	_	darbalaiks_2227_19035

#Text=droši!
5-1	320-325	droši	droši	q	root	basic	5-1	_	darbalaiks_2227_19035
5-2	325-326	!	!	zs	punct	basic	5-1	_	darbalaiks_2227_19035
