#FORMAT=WebAnno TSV 3.2
#T_SP=de.tudarmstadt.ukp.dkpro.core.api.segmentation.type.Lemma|value
#T_SP=de.tudarmstadt.ukp.dkpro.core.api.lexmorph.type.pos.POS|PosValue
#T_RL=de.tudarmstadt.ukp.dkpro.core.api.syntax.type.dependency.Dependency|DependencyType|flavor|BT_de.tudarmstadt.ukp.dkpro.core.api.lexmorph.type.pos.POS
#T_SP=de.tudarmstadt.ukp.dkpro.core.api.ner.type.NamedEntity|value
#T_SP=webanno.custom.ID|value


#Text=Kāds ir darba laiks Baldones teleskopa apskatei Riekstukalnā?
1-1	0-4	Kāds	kāds	pq0msnn	root	basic	1-1	_	darbalaiks_14799_112287
1-2	5-7	ir	būt	vcnipii30an	cop	basic	1-1	_	darbalaiks_14799_112287
1-3	8-13	darba	darbs	ncmsg1	nmod	basic	1-4	_	darbalaiks_14799_112287
1-4	14-19	laiks	laiks	ncmsn1	nsubj	basic	1-1	_	darbalaiks_14799_112287
1-5	20-28	Baldones	Baldone	npfsg5	nmod	basic	1-6	GPE[1]	darbalaiks_14799_112287
1-6	29-38	teleskopa	teleskops	ncmsg1	nmod	basic	1-7	_	darbalaiks_14799_112287
1-7	39-47	apskatei	apskate	ncfsd5	nmod	basic	1-8	_	darbalaiks_14799_112287
1-8	48-60	Riekstukalnā	Riekstukalna	ncfsl4	acl	basic	1-4	GPE[2]	darbalaiks_14799_112287
1-9	60-61	?	?	zs	punct	basic	1-1	_	darbalaiks_14799_112287

#Text=Cik LU studentiem maksā apskate?
2-1	62-65	Cik	cik	r0_	advmod	basic	2-3	_	darbalaiks_14799_112287
2-2	66-68	LU	LU	yp	nmod	basic	2-3	organization[3]	darbalaiks_14799_112287
2-3	69-79	studentiem	students	ncmpd1	obl	basic	2-4	_	darbalaiks_14799_112287
2-4	80-85	maksā	maksāt	vmnipi230an	root	basic	2-4	_	darbalaiks_14799_112287
2-5	86-93	apskate	apskate	ncfsn5	nsubj	basic	2-4	_	darbalaiks_14799_112287
2-6	93-94	?	?	zs	punct	basic	2-4	_	darbalaiks_14799_112287

#Text=Var sazināties ar Ilgmāru Eglīti Šmita teleskopa apskatei (tel.
3-1	96-99	Var	varēt	vonip_330an	root	basic	3-1	_	darbalaiks_14799_112290
3-2	100-110	sazināties	sazināties	vmyn0_3000n	xcomp	basic	3-1	_	darbalaiks_14799_112290
3-3	111-113	ar	ar	spsa	case	basic	3-4	_	darbalaiks_14799_112290
3-4	114-121	Ilgmāru	Ilgmārs	ncmsa1	nmod	basic	3-8	person[4]	darbalaiks_14799_112290
3-5	122-128	Eglīti	Eglītis	npmsa2	flat:name	basic	3-4	person[4]	darbalaiks_14799_112290
3-6	129-134	Šmita	Šmits	ncmsg1	flat:name	basic	3-5	person[4]	darbalaiks_14799_112290
3-7	135-144	teleskopa	teleskops	ncmsg1	nmod	basic	3-8	_	darbalaiks_14799_112290
3-8	145-153	apskatei	apskate	ncfsd5	iobj	basic	3-2	_	darbalaiks_14799_112290
3-9	154-155	(	(	zb	punct	basic	3-10	_	darbalaiks_14799_112290
3-10	155-158	tel	tel	xx	discourse	basic	3-8	_	darbalaiks_14799_112290
3-11	158-159	.	.	zs	punct	basic	3-1	_	darbalaiks_14799_112290

#Text=nr. 28763738).
4-1	159-162	nr.	nr.	y	nmod	basic	4-2	_	darbalaiks_14799_112290
4-2	163-171	28763738	28763738	xn	root	basic	4-2	_	darbalaiks_14799_112290
4-3	171-172	)	)	zb	punct	basic	4-2	_	darbalaiks_14799_112290
4-4	172-173	.	.	zs	punct	basic	4-2	_	darbalaiks_14799_112290

#Text=Publiskie debess demonstrejumi dubultteleskopa paviljona notiek katru skaidru 5-dienas vakaru no plkst. 22:00.
5-1	174-183	Publiskie	publisks	afmpnyp	amod	basic	5-5	_	darbalaiks_14799_112290
5-2	184-190	debess	debess	ncfsg6	nmod	basic	5-5	_	darbalaiks_14799_112290
5-3	191-204	demonstrejumi	demonstrejumi	nc___0	amod	basic	5-5	_	darbalaiks_14799_112290
5-4	205-220	dubultteleskopa	dubultteleskopa	nc00g_	nmod	basic	5-5	_	darbalaiks_14799_112290
5-5	221-230	paviljona	paviljons	ncmsg1	nsubj	basic	5-6	_	darbalaiks_14799_112290
5-6	231-237	notiek	notikt	vmnipi130an	root	basic	5-6	_	darbalaiks_14799_112290
5-7	238-243	katru	katra	pg0msan	det	basic	5-12	_	darbalaiks_14799_112290
5-8	244-251	skaidru	skaidrs	afmsanp	fixed	basic	5-7	_	darbalaiks_14799_112290
5-9	252-253	5	5	xn	nummod	basic	5-7	_	darbalaiks_14799_112290
5-10	253-254	-	-	zd	punct	basic	5-12	_	darbalaiks_14799_112290
5-11	254-260	dienas	diena	ncfsg4	nmod	basic	5-12	_	darbalaiks_14799_112290
5-12	261-267	vakaru	vakars	ncmsa1	obj	basic	5-6	_	darbalaiks_14799_112290
5-13	268-270	no	no	spsg	case	basic	5-14	time[5]	darbalaiks_14799_112290
5-14	271-277	plkst.	plkst.	y	obl	basic	5-15	time[5]	darbalaiks_14799_112290
5-15	278-283	22:00	22:00	xx	nmod	basic	5-12	time[5]	darbalaiks_14799_112290
5-16	283-284	.	.	zs	punct	basic	5-6	_	darbalaiks_14799_112290

#Text=Info par publiskajiem demonstrejumiem pie manis (tel.
6-1	285-289	Info	Info	nc___0	root	basic	6-1	_	darbalaiks_14799_112290
6-2	290-293	par	par	sppd	case	basic	6-4	_	darbalaiks_14799_112290
6-3	294-306	publiskajiem	publisks	afmpdyp	amod	basic	6-4	_	darbalaiks_14799_112290
6-4	307-322	demonstrejumiem	demonstrejums	ncmpd1	nmod	basic	6-1	_	darbalaiks_14799_112290
6-5	323-326	pie	pie	spsg	case	basic	6-6	_	darbalaiks_14799_112290
6-6	327-332	manis	es	pp10sgn	nmod	basic	6-4	_	darbalaiks_14799_112290
6-7	333-334	(	(	zb	punct	basic	6-8	_	darbalaiks_14799_112290
6-8	334-337	tel	tel	xx	parataxis	basic	6-4	_	darbalaiks_14799_112290
6-9	337-338	.	.	zs	punct	basic	6-8	_	darbalaiks_14799_112290

#Text=nr. 29877275 vai variskaritans@gmail.com) (Var arī runāt ar Ilgmāru Eglīti).
7-1	338-341	nr.	nr.	y	nmod	basic	7-2	_	darbalaiks_14799_112290
7-2	342-350	29877275	29877275	xn	discourse	basic	7-7	_	darbalaiks_14799_112290
7-3	351-354	vai	vai	cs	cc	basic	7-4	_	darbalaiks_14799_112290
7-4	355-378	variskaritans@gmail.com	variskaritans@gmail.com	yn	conj	basic	7-2	_	darbalaiks_14799_112290
7-5	378-379	)	)	zb	punct	basic	7-2	_	darbalaiks_14799_112290
7-6	380-381	(	(	zb	punct	basic	7-7	_	darbalaiks_14799_112290
7-7	381-384	Var	varēt	vonip_330an	root	basic	7-7	_	darbalaiks_14799_112290
7-8	385-388	arī	arī	q	discourse	basic	7-7	_	darbalaiks_14799_112290
7-9	389-394	runāt	runāt	vmnn0i2000n	xcomp	basic	7-7	_	darbalaiks_14799_112290
7-10	395-397	ar	ar	spsa	case	basic	7-11	_	darbalaiks_14799_112290
7-11	398-405	Ilgmāru	Ilgmārs	ncmsa1	iobj	basic	7-9	person[6]	darbalaiks_14799_112290
7-12	406-412	Eglīti	Eglītis	npmsa2	flat:name	basic	7-11	person[6]	darbalaiks_14799_112290
7-13	412-413	)	)	zb	punct	basic	7-7	_	darbalaiks_14799_112290
7-14	413-414	.	.	zs	punct	basic	7-7	_	darbalaiks_14799_112290
