#FORMAT=WebAnno TSV 3.2
#T_SP=de.tudarmstadt.ukp.dkpro.core.api.segmentation.type.Lemma|value
#T_SP=de.tudarmstadt.ukp.dkpro.core.api.lexmorph.type.pos.POS|PosValue
#T_RL=de.tudarmstadt.ukp.dkpro.core.api.syntax.type.dependency.Dependency|DependencyType|flavor|BT_de.tudarmstadt.ukp.dkpro.core.api.lexmorph.type.pos.POS
#T_SP=de.tudarmstadt.ukp.dkpro.core.api.ner.type.NamedEntity|value
#T_SP=webanno.custom.ID|value


#Text=Varbūt kāds varētu pateikt baznīcas ielas darba laiku??
1-1	0-6	Varbūt	varbūt	q	discourse	basic	1-3	_	darbalaiks_22125_166937
1-2	7-11	kāds	kāds	pi0msnn	nsubj	basic	1-3	_	darbalaiks_22125_166937
1-3	12-18	varētu	varēt	vonc0_300an	root	basic	1-3	_	darbalaiks_22125_166937
1-4	19-26	pateikt	pateikt	vmnn0t1000n	xcomp	basic	1-3	_	darbalaiks_22125_166937
1-5	27-35	baznīcas	baznīca	ncfsg4	nmod	basic	1-6	_	darbalaiks_22125_166937
1-6	36-41	ielas	iela	ncfsg4	nmod	basic	1-7	_	darbalaiks_22125_166937
1-7	42-47	darba	darbs	ncmsg1	nmod	basic	1-8	_	darbalaiks_22125_166937
1-8	48-53	laiku	laiks	ncmsa1	obj	basic	1-4	_	darbalaiks_22125_166937
1-9	53-55	??	??	zs	punct	basic	1-3	_	darbalaiks_22125_166937

#Text=Piezvaniet uz Baznīcas ielu 5, tālr. 67034681
2-1	57-67	Piezvaniet	piezvanīt	vmnm0_32pan	root	basic	2-1	_	darbalaiks_22125_166941
2-2	68-70	uz	uz	sp__	case	basic	2-4	_	darbalaiks_22125_166941
2-3	71-79	Baznīcas	baznīca	ncfsg4	nmod	basic	2-4	location[1]	darbalaiks_22125_166941
2-4	80-84	ielu	iela	ncfsa4	obl	basic	2-1	location[1]	darbalaiks_22125_166941
2-5	85-86	5	5	xn	acl	basic	2-1	location[1]	darbalaiks_22125_166941
2-6	86-87	,	,	zc	punct	basic	2-7	_	darbalaiks_22125_166941
2-7	88-93	tālr.	tālr.	y	conj	basic	2-5	_	darbalaiks_22125_166941
2-8	94-102	67034681	67034681	xn	acl	basic	2-5	_	darbalaiks_22125_166941

#Text=Jā, un kā lai piesakās, ja baznīcas ielai ir tik mainīgs darba laiks un students nemaz nevar tikt??
3-1	104-106	Jā	jā	q	discourse	basic	3-6	_	darbalaiks_22125_166951
3-2	106-107	,	,	zc	punct	basic	3-1	_	darbalaiks_22125_166951
3-3	108-110	un	un	cc	cc	basic	3-6	_	darbalaiks_22125_166951
3-4	111-113	kā	kā	cs	mark	basic	3-6	_	darbalaiks_22125_166951
3-5	114-117	lai	lai	q	discourse	basic	3-6	_	darbalaiks_22125_166951
3-6	118-126	piesakās	piesacīties	vmyip_330an	root	basic	3-6	_	darbalaiks_22125_166951
3-7	126-127	,	,	zc	punct	basic	3-11	_	darbalaiks_22125_166951
3-8	128-130	ja	ja	cs	mark	basic	3-11	_	darbalaiks_22125_166951
3-9	131-139	baznīcas	baznīca	ncfsg4	nmod	basic	3-10	_	darbalaiks_22125_166951
3-10	140-145	ielai	iela	ncfsd4	obl	basic	3-11	_	darbalaiks_22125_166951
3-11	146-148	ir	būt	vcnipii30an	advcl	basic	3-6	_	darbalaiks_22125_166951
3-12	149-152	tik	tik	r0_	advmod	basic	3-13	_	darbalaiks_22125_166951
3-13	153-160	mainīgs	mainīgs	afmsnnp	amod	basic	3-15	_	darbalaiks_22125_166951
3-14	161-166	darba	darbs	ncmsg1	nmod	basic	3-15	_	darbalaiks_22125_166951
3-15	167-172	laiks	laiks	ncmsn1	nsubj	basic	3-11	_	darbalaiks_22125_166951
3-16	173-175	un	un	cc	cc	basic	3-19	_	darbalaiks_22125_166951
3-17	176-184	students	students	ncmsn1	nsubj	basic	3-19	_	darbalaiks_22125_166951
3-18	185-190	nemaz	nemaz	r0_	advmod	basic	3-19	_	darbalaiks_22125_166951
3-19	191-196	nevar	nevarēt	vonip_330an	conj	basic	3-11	_	darbalaiks_22125_166951
3-20	197-201	tikt	tikt	vtnn0i1000n	xcomp	basic	3-19	_	darbalaiks_22125_166951
3-21	201-203	??	??	zs	punct	basic	3-6	_	darbalaiks_22125_166951

#Text=Kāds viņiem ir darba laiks?
4-1	205-209	Kāds	kāds	pq0msnn	nsubj	basic	4-5	_	darbalaiks_22125_166952
4-2	210-216	viņiem	viņš	pp3mpdn	obl	basic	4-1	_	darbalaiks_22125_166952
4-3	217-219	ir	būt	vcnipii30an	cop	basic	4-1	_	darbalaiks_22125_166952
4-4	220-225	darba	darbs	ncmsg1	nmod	basic	4-5	_	darbalaiks_22125_166952
4-5	226-231	laiks	laiks	ncmsn1	root	basic	4-5	_	darbalaiks_22125_166952
4-6	231-232	?	?	zs	punct	basic	4-5	_	darbalaiks_22125_166952
