#FORMAT=WebAnno TSV 3.2
#T_SP=de.tudarmstadt.ukp.dkpro.core.api.segmentation.type.Lemma|value
#T_SP=de.tudarmstadt.ukp.dkpro.core.api.lexmorph.type.pos.POS|PosValue
#T_RL=de.tudarmstadt.ukp.dkpro.core.api.syntax.type.dependency.Dependency|DependencyType|flavor|BT_de.tudarmstadt.ukp.dkpro.core.api.lexmorph.type.pos.POS
#T_SP=de.tudarmstadt.ukp.dkpro.core.api.ner.type.NamedEntity|value
#T_SP=webanno.custom.ID|value


#Text=Labdien!
1-1	0-7	Labdien	labdien	is	root	basic	1-1	_	darbalaiks_4372_34507
1-2	7-8	!	!	zs	punct	basic	1-1	_	darbalaiks_4372_34507

#Text=Kāds, lūdzu, varētu pateikt Ārijas Sproģes pieņemšanas laikus?
2-1	9-13	Kāds	kāds	pi0msnn	nsubj	basic	2-5	_	darbalaiks_4372_34507
2-2	13-14	,	,	zc	punct	basic	2-3	_	darbalaiks_4372_34507
2-3	15-20	lūdzu	lūdzu	is	discourse	basic	2-5	_	darbalaiks_4372_34507
2-4	20-21	,	,	zc	punct	basic	2-3	_	darbalaiks_4372_34507
2-5	22-28	varētu	varēt	vonc0_300an	root	basic	2-5	_	darbalaiks_4372_34507
2-6	29-36	pateikt	pateikt	vmnn0t1000n	xcomp	basic	2-5	_	darbalaiks_4372_34507
2-7	37-43	Ārijas	ārija	ncfsg4	nmod	basic	2-8	person[1]	darbalaiks_4372_34507
2-8	44-51	Sproģes	Sproģe	ncfsg5	nmod	basic	2-9	person[1]	darbalaiks_4372_34507
2-9	52-63	pieņemšanas	pieņemšana	ncfsg4	nmod	basic	2-10	_	darbalaiks_4372_34507
2-10	64-70	laikus	laiks	ncmpa1	obj	basic	2-6	_	darbalaiks_4372_34507
2-11	70-71	?	?	zs	punct	basic	2-5	_	darbalaiks_4372_34507

#Text=http://www.lu.lv/dn/darbinieki/sprogearija.html
3-1	73-120	http://www.lu.lv/dn/darbinieki/sprogearija.html	http://www.lu.lv/dn/darbinieki/sprogearija.html	xf	root	basic	3-1	_	darbalaiks_4372_34508
