#FORMAT=WebAnno TSV 3.2
#T_SP=de.tudarmstadt.ukp.dkpro.core.api.segmentation.type.Lemma|value
#T_SP=de.tudarmstadt.ukp.dkpro.core.api.lexmorph.type.pos.POS|PosValue
#T_RL=de.tudarmstadt.ukp.dkpro.core.api.syntax.type.dependency.Dependency|DependencyType|flavor|BT_de.tudarmstadt.ukp.dkpro.core.api.lexmorph.type.pos.POS
#T_SP=de.tudarmstadt.ukp.dkpro.core.api.ner.type.NamedEntity|value
#T_SP=webanno.custom.ID|value


#Text=Kāds ir dekanāta darba laiks šonedēļ???
1-1	0-4	Kāds	kāds	pq0msnn	root	basic	1-1	_	darbalaiks_4619_36456
1-2	5-7	ir	būt	vcnipii30an	cop	basic	1-1	_	darbalaiks_4619_36456
1-3	8-16	dekanāta	dekanāts	ncmsg1	nmod	basic	1-5	_	darbalaiks_4619_36456
1-4	17-22	darba	darbs	ncmsg1	nmod	basic	1-5	_	darbalaiks_4619_36456
1-5	23-28	laiks	laiks	ncmsn1	nsubj	basic	1-1	_	darbalaiks_4619_36456
1-6	29-36	šonedēļ	šonedēļ	r0_	advmod	basic	1-5	_	darbalaiks_4619_36456
1-7	36-39	???	???	zs	punct	basic	1-1	_	darbalaiks_4619_36456

#Text=Šonedēļ pieņemšanas laiki: otrdien un ceturtdien no plkst.14.00-17.00, trešdien un piektdien no 9.00-13.00.
2-1	41-48	Šonedēļ	šonedēļ	r0_	advmod	basic	2-3	time[1]	darbalaiks_4619_36457
2-2	49-60	pieņemšanas	pieņemšana	ncfsg4	nmod	basic	2-3	_	darbalaiks_4619_36457
2-3	61-66	laiki	laiks	ncmpn1	root	basic	2-3	_	darbalaiks_4619_36457
2-4	66-67	:	:	zo	punct	basic	2-11	_	darbalaiks_4619_36457
2-5	68-75	otrdien	otrdien	r0_	advmod	basic	2-11	time[2]	darbalaiks_4619_36457
2-6	76-78	un	un	cc	cc	basic	2-11	_	darbalaiks_4619_36457
2-7	79-89	ceturtdien	ceturtdien	r0_	advmod	basic	2-11	time[3]	darbalaiks_4619_36457
2-8	90-92	no	no	spsg	case	basic	2-9	time[3]	darbalaiks_4619_36457
2-9	93-99	plkst.	plkst.	y	obl	basic	2-11	time[3]	darbalaiks_4619_36457
2-10	99-104	14.00	14.00	xn	nummod	basic	2-11	time[3]	darbalaiks_4619_36457
2-11	104-105	-	-	zd	conj	basic	2-3	time[3]	darbalaiks_4619_36457
2-12	105-110	17.00	17.00	xn	nummod	basic	2-11	time[3]	darbalaiks_4619_36457
2-13	110-111	,	,	zc	punct	basic	2-14	time[3]	darbalaiks_4619_36457
2-14	112-120	trešdien	trešdien	r0_	conj	basic	2-12	time[3]	darbalaiks_4619_36457
2-15	121-123	un	un	cc	cc	basic	2-16	_	darbalaiks_4619_36457
2-16	124-133	piektdien	piektdien	r0_	conj	basic	2-12	time[4]	darbalaiks_4619_36457
2-17	134-136	no	no	spsg	case	basic	2-18	time[4]	darbalaiks_4619_36457
2-18	137-141	9.00	9.00	xn	nummod	basic	2-16	time[4]	darbalaiks_4619_36457
2-19	141-142	-	-	zd	conj	basic	2-18	time[4]	darbalaiks_4619_36457
2-20	142-147	13.00	13.00	xn	nummod	basic	2-19	time[4]	darbalaiks_4619_36457
2-21	147-148	.	.	zs	punct	basic	2-11	_	darbalaiks_4619_36457
