#FORMAT=WebAnno TSV 3.2
#T_SP=de.tudarmstadt.ukp.dkpro.core.api.segmentation.type.Lemma|value
#T_SP=de.tudarmstadt.ukp.dkpro.core.api.lexmorph.type.pos.POS|PosValue
#T_RL=de.tudarmstadt.ukp.dkpro.core.api.syntax.type.dependency.Dependency|DependencyType|flavor|BT_de.tudarmstadt.ukp.dkpro.core.api.lexmorph.type.pos.POS
#T_SP=de.tudarmstadt.ukp.dkpro.core.api.ner.type.NamedEntity|value
#T_SP=webanno.custom.ID|value


#Text=Vai tu vari pateikt, kāds darba laiks ir starptautisko ekonomisko attiecību lietvedei 11.08.?
1-1	0-3	Vai	vai	q	discourse	basic	1-3	_	darbalaiks_20672_154997
1-2	4-6	tu	tu	pp20snn	nsubj	basic	1-3	_	darbalaiks_20672_154997
1-3	7-11	vari	varēt	vonip_32san	root	basic	1-3	_	darbalaiks_20672_154997
1-4	12-19	pateikt	pateikt	vmnn0t1000n	xcomp	basic	1-3	_	darbalaiks_20672_154997
1-5	19-20	,	,	zc	punct	basic	1-14	_	darbalaiks_20672_154997
1-6	21-25	kāds	kāds	pr0msnn	det	basic	1-8	_	darbalaiks_20672_154997
1-7	26-31	darba	darbs	ncmsg1	nmod	basic	1-8	_	darbalaiks_20672_154997
1-8	32-37	laiks	laiks	ncmsn1	nsubj	basic	1-14	_	darbalaiks_20672_154997
1-9	38-40	ir	būt	vcnipii30an	cop	basic	1-13	_	darbalaiks_20672_154997
1-10	41-54	starptautisko	starptautisks	afmpgyp	amod	basic	1-13	_	darbalaiks_20672_154997
1-11	55-65	ekonomisko	ekonomisks	affsayp	amod	basic	1-12	_	darbalaiks_20672_154997
1-12	66-75	attiecību	attiecība	ncfpg4	nmod	basic	1-13	_	darbalaiks_20672_154997
1-13	76-85	lietvedei	lietvede	ncfsd5	iobj	basic	1-14	_	darbalaiks_20672_154997
1-14	86-92	11.08.	11.08.	xx	ccomp	basic	1-3	_	darbalaiks_20672_154997
1-15	92-93	?	?	zs	punct	basic	1-3	_	darbalaiks_20672_154997

#Text=Es vēlos rīt izņemt studiju līguma eksemplāru.
2-1	94-96	Es	es	pp10snn	nsubj	basic	2-2	_	darbalaiks_20672_154997
2-2	97-102	vēlos	vēlēties	voyipt31san	root	basic	2-2	_	darbalaiks_20672_154997
2-3	103-106	rīt	rīt	r0_	advmod	basic	2-4	_	darbalaiks_20672_154997
2-4	107-113	izņemt	izņemt	vmnn0t1000n	xcomp	basic	2-2	_	darbalaiks_20672_154997
2-5	114-121	studiju	studijas	ncfdg4	nmod	basic	2-6	_	darbalaiks_20672_154997
2-6	122-128	līguma	līgums	ncmsg1	nmod	basic	2-7	_	darbalaiks_20672_154997
2-7	129-139	eksemplāru	eksemplārs	ncmsa1	obj	basic	2-4	_	darbalaiks_20672_154997
2-8	139-140	.	.	zs	punct	basic	2-2	_	darbalaiks_20672_154997
