#FORMAT=WebAnno TSV 3.2
#T_SP=de.tudarmstadt.ukp.dkpro.core.api.segmentation.type.Lemma|value
#T_SP=de.tudarmstadt.ukp.dkpro.core.api.lexmorph.type.pos.POS|PosValue
#T_RL=de.tudarmstadt.ukp.dkpro.core.api.syntax.type.dependency.Dependency|DependencyType|flavor|BT_de.tudarmstadt.ukp.dkpro.core.api.lexmorph.type.pos.POS
#T_SP=de.tudarmstadt.ukp.dkpro.core.api.ner.type.NamedEntity|value
#T_SP=webanno.custom.ID|value


#Text=Vai MVF bibliotēka Visvalža ielā strādās no 20.12?
1-1	0-3	Vai	vai	q	discourse	basic	1-6	_	darbalaiks_4365_34480
1-2	4-7	MVF	MVF	y	nmod	basic	1-3	organization[1]	darbalaiks_4365_34480
1-3	8-18	bibliotēka	bibliotēka	nc000_	nmod	basic	1-5	_	darbalaiks_4365_34480
1-4	19-27	Visvalža	Visvaldis	npmsg2	nmod	basic	1-5	location[2]	darbalaiks_4365_34480
1-5	28-32	ielā	iela	ncfsl4	obl	basic	1-6	location[2]	darbalaiks_4365_34480
1-6	33-40	strādās	strādāt	vmnif_230an	root	basic	1-6	_	darbalaiks_4365_34480
1-7	41-43	no	no	sppd	case	basic	1-8	time[3]	darbalaiks_4365_34480
1-8	44-49	20.12	20.12	xn	nummod	basic	1-6	time[3]	darbalaiks_4365_34480
1-9	49-50	?	?	zs	punct	basic	1-6	_	darbalaiks_4365_34480

#Text=It kā ir brīvdienas...
2-1	51-53	It	it	q	discourse	basic	2-3	_	darbalaiks_4365_34480
2-2	54-56	kā	kā	q	flat	basic	2-1	_	darbalaiks_4365_34480
2-3	57-59	ir	būt	vcnipii30an	root	basic	2-3	_	darbalaiks_4365_34480
2-4	60-70	brīvdienas	brīvdiena	ncfpn4	nsubj	basic	2-3	_	darbalaiks_4365_34480
2-5	70-73	...	...	zs	punct	basic	2-3	_	darbalaiks_4365_34480

#Text=Kādi ir darba laiki?
3-1	74-78	Kādi	kāds	pq0mpnn	root	basic	3-1	_	darbalaiks_4365_34480
3-2	79-81	ir	būt	vcnipii30an	cop	basic	3-1	_	darbalaiks_4365_34480
3-3	82-87	darba	darbs	ncmsg1	nmod	basic	3-4	_	darbalaiks_4365_34480
3-4	88-93	laiki	laiks	ncmpn1	nsubj	basic	3-1	_	darbalaiks_4365_34480
3-5	93-94	?	?	zs	punct	basic	3-1	_	darbalaiks_4365_34480

#Text=20.12. Bibliotēkas filiāles strādās pēc normālā darba laika.
4-1	96-102	20.12.	20.12.	xx	amod	basic	4-3	_	darbalaiks_4365_34481
4-2	103-114	Bibliotēkas	bibliotēka	ncfsg4	nmod	basic	4-3	organization[4]	darbalaiks_4365_34481
4-3	115-123	filiāles	filiāle	ncfsg5	nsubj	basic	4-4	organization[4]	darbalaiks_4365_34481
4-4	124-131	strādās	strādāt	vmnif_230an	root	basic	4-4	_	darbalaiks_4365_34481
4-5	132-135	pēc	pēc	spsg	case	basic	4-8	_	darbalaiks_4365_34481
4-6	136-143	normālā	normāls	afmsgyp	amod	basic	4-7	_	darbalaiks_4365_34481
4-7	144-149	darba	darbs	ncmsg1	nmod	basic	4-8	_	darbalaiks_4365_34481
4-8	150-155	laika	laiks	ncmsg1	obl	basic	4-4	_	darbalaiks_4365_34481
4-9	155-156	.	.	zs	punct	basic	4-4	_	darbalaiks_4365_34481

#Text=http://www.lu.lv/biblioteka/darbalaiks/
5-1	157-196	http://www.lu.lv/biblioteka/darbalaiks/	http://www.lu.lv/biblioteka/darbalaiks/	i	root	basic	5-1	_	darbalaiks_4365_34481
