#FORMAT=WebAnno TSV 3.2
#T_SP=de.tudarmstadt.ukp.dkpro.core.api.segmentation.type.Lemma|value
#T_SP=de.tudarmstadt.ukp.dkpro.core.api.lexmorph.type.pos.POS|PosValue
#T_RL=de.tudarmstadt.ukp.dkpro.core.api.syntax.type.dependency.Dependency|DependencyType|flavor|BT_de.tudarmstadt.ukp.dkpro.core.api.lexmorph.type.pos.POS
#T_SP=de.tudarmstadt.ukp.dkpro.core.api.ner.type.NamedEntity|value
#T_SP=webanno.custom.ID|value


#Text=Pie manis pa vasaru ir palikušas grāmatas, kuras ir vajadzīgas bakalaura rakstišanai, bet 1. septembrī beidzas termiņš.
1-1	0-3	Pie	pie	spsg	case	basic	1-2	_	darbalaiks_2735_23577
1-2	4-9	manis	es	pp10sgn	obl	basic	1-2	_	darbalaiks_2735_23577
1-3	10-12	pa	pa	spsa	case	basic	1-4	_	darbalaiks_2735_23577
1-4	13-19	vasaru	vasara	ncfsa4	nmod	basic	1-2	_	darbalaiks_2735_23577
1-5	20-22	ir	būt	vcnipii30an	root	basic	1-5	_	darbalaiks_2735_23577
1-6	23-32	palikušas	palikt	vtnpdfpnasnpn	amod	basic	1-7	_	darbalaiks_2735_23577
1-7	33-41	grāmatas	grāmata	ncfpn4	nsubj	basic	1-5	_	darbalaiks_2735_23577
1-8	41-42	,	,	zc	punct	basic	1-10	_	darbalaiks_2735_23577
1-9	43-48	kuras	kura	pr0fpnn	nsubj	basic	1-10	_	darbalaiks_2735_23577
1-10	49-51	ir	būt	vcnipii30an	acl	basic	1-7	_	darbalaiks_2735_23577
1-11	52-62	vajadzīgas	vajadzīgs	affpnnp	amod	basic	1-13	_	darbalaiks_2735_23577
1-12	63-72	bakalaura	bakalaurs	ncmsg1	nmod	basic	1-13	_	darbalaiks_2735_23577
1-13	73-84	rakstišanai	rakstišana	ncfsd4	nsubj	basic	1-10	_	darbalaiks_2735_23577
1-14	84-85	,	,	zc	punct	basic	1-18	_	darbalaiks_2735_23577
1-15	86-89	bet	bet	cc	cc	basic	1-18	_	darbalaiks_2735_23577
1-16	90-92	1.	1.	xo	amod	basic	1-17	time[1]	darbalaiks_2735_23577
1-17	93-102	septembrī	septembris	ncmsl2	obl	basic	1-18	time[1]	darbalaiks_2735_23577
1-18	103-110	beidzas	beigties	vmyip_130an	conj	basic	1-5	_	darbalaiks_2735_23577
1-19	111-118	termiņš	termiņš	ncmsn1	nsubj	basic	1-18	_	darbalaiks_2735_23577
1-20	118-119	.	.	zs	punct	basic	1-5	_	darbalaiks_2735_23577

#Text=Vai fakultātes bibliotēkas jau stradā vai man jāiet uz centrālo ēku?
2-1	120-123	Vai	vai	cs	cc	basic	2-8	_	darbalaiks_2735_23577
2-2	124-134	fakultātes	fakultāte	ncfsg5	nmod	basic	2-3	_	darbalaiks_2735_23577
2-3	135-146	bibliotēkas	bibliotēka	ncfpn4	nsubj:pass	basic	2-8	_	darbalaiks_2735_23577
2-4	147-150	jau	jau	q	discourse	basic	2-5	_	darbalaiks_2735_23577
2-5	151-157	stradā	strada	ncfsl4	obl	basic	2-8	_	darbalaiks_2735_23577
2-6	158-161	vai	vai	cs	cc	basic	2-7	_	darbalaiks_2735_23577
2-7	162-165	man	es	pp10sdn	conj	basic	2-5	_	darbalaiks_2735_23577
2-8	166-171	jāiet	iet	vmnd0i100an	root	basic	2-8	_	darbalaiks_2735_23577
2-9	172-174	uz	uz	spsa	case	basic	2-11	_	darbalaiks_2735_23577
2-10	175-183	centrālo	centrāls	affsayp	amod	basic	2-11	_	darbalaiks_2735_23577
2-11	184-187	ēku	ēka	ncfsa4	obl	basic	2-8	_	darbalaiks_2735_23577
2-12	187-188	?	?	zs	punct	basic	2-8	_	darbalaiks_2735_23577

#Text=Vai piektdien būs kādas fakultātes bibliotēka vaļā?
3-1	189-192	Vai	vai	q	discourse	basic	3-3	_	darbalaiks_2735_23577
3-2	193-202	piektdien	piektdien	r0_	advmod	basic	3-3	_	darbalaiks_2735_23577
3-3	203-206	būs	būt	vmnif_i30an	root	basic	3-3	_	darbalaiks_2735_23577
3-4	207-212	kādas	kāda	pi0fpnn	det	basic	3-6	_	darbalaiks_2735_23577
3-5	213-223	fakultātes	fakultāte	ncfsg5	nmod	basic	3-6	_	darbalaiks_2735_23577
3-6	224-234	bibliotēka	bibliotēka	ncfsn4	nsubj	basic	3-3	_	darbalaiks_2735_23577
3-7	235-239	vaļā	vaļā	r0_	advmod	basic	3-3	_	darbalaiks_2735_23577
3-8	239-240	?	?	zs	punct	basic	3-3	_	darbalaiks_2735_23577

#Text=Apskaties darba laikus.
4-1	242-251	Apskaties	apskatīties	vmym0_32san	root	basic	4-1	_	darbalaiks_2735_23578
4-2	252-257	darba	darbs	ncmsg1	nmod	basic	4-3	_	darbalaiks_2735_23578
4-3	258-264	laikus	laiks	ncmpa1	obj	basic	4-1	_	darbalaiks_2735_23578
4-4	264-265	.	.	zs	punct	basic	4-1	_	darbalaiks_2735_23578

#Text=Fakultāšu bibliotēkas strādās ar 31. augustu.
5-1	266-275	Fakultāšu	fakultāte	ncfpg5	nmod	basic	5-2	organization[2]	darbalaiks_2735_23578
5-2	276-287	bibliotēkas	bibliotēka	ncfsg4	nsubj	basic	5-3	organization[2]	darbalaiks_2735_23578
5-3	288-295	strādās	strādāt	vmnif_230an	root	basic	5-3	_	darbalaiks_2735_23578
5-4	296-298	ar	ar	spsa	case	basic	5-6	_	darbalaiks_2735_23578
5-5	299-302	31.	31.	xo	amod	basic	5-6	time[3]	darbalaiks_2735_23578
5-6	303-310	augustu	augusts	ncmsa1	iobj	basic	5-3	time[3]	darbalaiks_2735_23578
5-7	310-311	.	.	zs	punct	basic	5-3	_	darbalaiks_2735_23578
