#FORMAT=WebAnno TSV 3.2
#T_SP=de.tudarmstadt.ukp.dkpro.core.api.segmentation.type.Lemma|value
#T_SP=de.tudarmstadt.ukp.dkpro.core.api.lexmorph.type.pos.POS|PosValue
#T_RL=de.tudarmstadt.ukp.dkpro.core.api.syntax.type.dependency.Dependency|DependencyType|flavor|BT_de.tudarmstadt.ukp.dkpro.core.api.lexmorph.type.pos.POS
#T_SP=de.tudarmstadt.ukp.dkpro.core.api.ner.type.NamedEntity|value
#T_SP=webanno.custom.ID|value


#Text=Labdien!
1-1	0-7	Labdien	labdien	is	root	basic	1-1	_	darbalaiks_18679_139706
1-2	7-8	!	!	zs	punct	basic	1-1	_	darbalaiks_18679_139706

#Text=Vēlējos uzzināt, kāds ir LU Saimniecības pārvaldes Baznīcas ielā 5 darba laiks?
2-1	9-16	Vēlējos	vēlēties	voyist31san	root	basic	2-1	_	darbalaiks_18679_139706
2-2	17-24	uzzināt	uzzināt	vmnn0t3000n	ccomp	basic	2-1	_	darbalaiks_18679_139706
2-3	24-25	,	,	zc	punct	basic	2-13	_	darbalaiks_18679_139706
2-4	26-30	kāds	kāds	pr0msnn	nsubj	basic	2-13	_	darbalaiks_18679_139706
2-5	31-33	ir	būt	vcnipii30an	cop	basic	2-4	_	darbalaiks_18679_139706
2-6	34-36	LU	LU	yp	nmod	basic	2-7	organization[1]	darbalaiks_18679_139706
2-7	37-49	Saimniecības	saimniecība	ncfsg4	nmod	basic	2-10	organization[1]	darbalaiks_18679_139706
2-8	50-59	pārvaldes	pārvalde	ncfsg5	nmod	basic	2-9	organization[1]	darbalaiks_18679_139706
2-9	60-68	Baznīcas	baznīca	ncfsg4	nmod	basic	2-10	location[2]	darbalaiks_18679_139706
2-10	69-73	ielā	iela	ncfsl4	nmod	basic	2-13	location[2]	darbalaiks_18679_139706
2-11	74-75	5	5	xn	dep	basic	2-10	location[2]	darbalaiks_18679_139706
2-12	76-81	darba	darbs	ncmsg1	nmod	basic	2-13	_	darbalaiks_18679_139706
2-13	82-87	laiks	laiks	ncmsn1	ccomp	basic	2-2	_	darbalaiks_18679_139706
2-14	87-88	?	?	zs	punct	basic	2-1	_	darbalaiks_18679_139706

#Text=LU mājas lapā nav norādīts darba laiks un sazvanīt arī neizdodas.
3-1	89-91	LU	LU	yp	nmod	basic	3-3	organization[3]	darbalaiks_18679_139706
3-2	92-97	mājas	māja	ncfsg4	nmod	basic	3-3	_	darbalaiks_18679_139706
3-3	98-102	lapā	lapa	ncfsl4	obl	basic	3-5	_	darbalaiks_18679_139706
3-4	103-106	nav	nebūt	vcnipii30ay	aux:pass	basic	3-5	_	darbalaiks_18679_139706
3-5	107-115	norādīts	norādīt	vmnpdmsnpsnpn	root	basic	3-5	_	darbalaiks_18679_139706
3-6	116-121	darba	darbs	ncmsg1	nmod	basic	3-7	_	darbalaiks_18679_139706
3-7	122-127	laiks	laiks	ncmsn1	nsubj:pass	basic	3-5	_	darbalaiks_18679_139706
3-8	128-130	un	un	cc	cc	basic	3-9	_	darbalaiks_18679_139706
3-9	131-139	sazvanīt	sazvanīt	vmnn0t3000n	conj	basic	3-7	_	darbalaiks_18679_139706
3-10	140-143	arī	arī	q	discourse	basic	3-11	_	darbalaiks_18679_139706
3-11	144-153	neizdodas	neizdoties	vmyip_130ay	conj	basic	3-5	_	darbalaiks_18679_139706
3-12	153-154	.	.	zs	punct	basic	3-5	_	darbalaiks_18679_139706

#Text=Pirmdienās, otrdienās, ceturtdienās - 9.00 - 11.00\nTrešdienās - 15.00 - 18.00
4-1	156-166	Pirmdienās	pirmdiena	ncfpl4	obl	basic	4-1	_	darbalaiks_18679_139707
4-2	166-167	,	,	zc	punct	basic	4-3	_	darbalaiks_18679_139707
4-3	168-177	otrdienās	otrdiena	ncfpl4	acl	basic	4-1	_	darbalaiks_18679_139707
4-4	177-178	,	,	zc	punct	basic	4-3	_	darbalaiks_18679_139707
4-5	179-191	ceturtdienās	ceturtdiena	ncfpl4	obl	basic	4-5	_	darbalaiks_18679_139707
4-6	192-193	-	-	zd	punct	basic	4-6	_	darbalaiks_18679_139707
4-7	194-198	9.00	9.00	xn	nummod	basic	4-10	_	darbalaiks_18679_139707
4-8	199-200	-	-	zd	flat:name	basic	4-7	_	darbalaiks_18679_139707
4-9	201-206	11.00	11.00	xn	nummod	basic	4-8	_	darbalaiks_18679_139707
4-10	207-217	Trešdienās	trešdiena	ncfpl4	obl	basic	4-6	_	darbalaiks_18679_139707
4-11	218-219	-	-	zd	punct	basic	4-13	_	darbalaiks_18679_139707
4-12	220-225	15.00	15.00	xn	nsubj	basic	4-13	_	darbalaiks_18679_139707
4-13	226-227	-	-	zd	parataxis	basic	4-10	_	darbalaiks_18679_139707
4-14	228-233	18.00	18.00	xn	nummod	basic	4-13	_	darbalaiks_18679_139707
