#FORMAT=WebAnno TSV 3.2
#T_SP=de.tudarmstadt.ukp.dkpro.core.api.segmentation.type.Lemma|value
#T_SP=de.tudarmstadt.ukp.dkpro.core.api.lexmorph.type.pos.POS|PosValue
#T_RL=de.tudarmstadt.ukp.dkpro.core.api.syntax.type.dependency.Dependency|DependencyType|flavor|BT_de.tudarmstadt.ukp.dkpro.core.api.lexmorph.type.pos.POS
#T_SP=de.tudarmstadt.ukp.dkpro.core.api.ner.type.NamedEntity|value
#T_SP=webanno.custom.ID|value


#Text=Kāds var pateikt, vai EVF dekanāts strādā arī sestdienās???!
1-1	0-4	Kāds	kāds	pq0msnn	nsubj	basic	1-2	_	darbalaiks_4617_36449
1-2	5-8	var	varēt	vonip_330an	root	basic	1-2	_	darbalaiks_4617_36449
1-3	9-16	pateikt	pateikt	vmnn0t1000n	xcomp	basic	1-2	_	darbalaiks_4617_36449
1-4	16-17	,	,	zc	punct	basic	1-8	_	darbalaiks_4617_36449
1-5	18-21	vai	vai	cs	mark	basic	1-8	_	darbalaiks_4617_36449
1-6	22-25	EVF	EVF	y	nmod	basic	1-7	organization[1]	darbalaiks_4617_36449
1-7	26-34	dekanāts	dekanāts	ncmsn1	nsubj	basic	1-8	_	darbalaiks_4617_36449
1-8	35-41	strādā	strādāt	vmnip_230an	ccomp	basic	1-2	_	darbalaiks_4617_36449
1-9	42-45	arī	arī	q	discourse	basic	1-10	_	darbalaiks_4617_36449
1-10	46-56	sestdienās	sestdiena	ncfpl4	obl	basic	1-8	_	darbalaiks_4617_36449
1-11	56-60	???!	???!	xf	iobj	basic	1-8	_	darbalaiks_4617_36449

#Text=Strādā, bet ne visi lietveži, kā arī darba laiks ir ierobežots.
2-1	62-68	Strādā	strādāt	vmnip_230an	root	basic	2-1	_	darbalaiks_4617_36450
2-2	68-69	,	,	zc	punct	basic	2-6	_	darbalaiks_4617_36450
2-3	70-73	bet	bet	cc	cc	basic	2-6	_	darbalaiks_4617_36450
2-4	74-76	ne	ne	q	discourse	basic	2-5	_	darbalaiks_4617_36450
2-5	77-81	visi	viss	pg0mpnn	det	basic	2-6	_	darbalaiks_4617_36450
2-6	82-90	lietveži	lietvedis	ncmpn2	conj	basic	2-1	_	darbalaiks_4617_36450
2-7	90-91	,	,	zc	punct	basic	2-13	_	darbalaiks_4617_36450
2-8	92-94	kā	kā	cs	cc	basic	2-13	_	darbalaiks_4617_36450
2-9	95-98	arī	arī	q	discourse	basic	2-8	_	darbalaiks_4617_36450
2-10	99-104	darba	darbs	ncmsg1	nmod	basic	2-11	_	darbalaiks_4617_36450
2-11	105-110	laiks	laiks	ncmsn1	nsubj:pass	basic	2-13	_	darbalaiks_4617_36450
2-12	111-113	ir	būt	vcnipii30an	aux:pass	basic	2-13	_	darbalaiks_4617_36450
2-13	114-124	ierobežots	ierobežot	vmnpdmsnpsnpn	conj	basic	2-1	_	darbalaiks_4617_36450
2-14	124-125	.	.	zs	punct	basic	2-1	_	darbalaiks_4617_36450

#Text=Dekāns mēdz būs darbā sestdienās, taču labāk būtu iepriekš pieteikties, ja vēlaties satikties.
3-1	126-132	Dekāns	dekāns	ncmsn1	nsubj	basic	3-2	person[2]	darbalaiks_4617_36450
3-2	133-137	mēdz	mēgt	vonipi130an	root	basic	3-2	_	darbalaiks_4617_36450
3-3	138-141	būs	būt	vcnif_i30an	xcomp	basic	3-2	_	darbalaiks_4617_36450
3-4	142-147	darbā	darbs	ncmsl1	obl	basic	3-3	_	darbalaiks_4617_36450
3-5	148-158	sestdienās	sestdiena	ncfpl4	obl	basic	3-2	_	darbalaiks_4617_36450
3-6	158-159	,	,	zc	punct	basic	3-8	_	darbalaiks_4617_36450
3-7	160-164	taču	taču	cc	cc	basic	3-8	_	darbalaiks_4617_36450
3-8	165-170	labāk	labi	rc_	conj	basic	3-2	_	darbalaiks_4617_36450
3-9	171-175	būtu	būt	vcnc0_i00an	cop	basic	3-8	_	darbalaiks_4617_36450
3-10	176-184	iepriekš	iepriekš	r0_	advmod	basic	3-11	_	darbalaiks_4617_36450
3-11	185-196	pieteikties	pieteikties	vmyn0_1000n	ccomp	basic	3-8	_	darbalaiks_4617_36450
3-12	196-197	,	,	zc	punct	basic	3-14	_	darbalaiks_4617_36450
3-13	198-200	ja	ja	cs	mark	basic	3-14	_	darbalaiks_4617_36450
3-14	201-209	vēlaties	vēlēties	vmyip_32pan	advcl	basic	3-8	_	darbalaiks_4617_36450
3-15	210-219	satikties	satikties	vmyn0_1000n	acl	basic	3-14	_	darbalaiks_4617_36450
3-16	219-220	.	.	zs	punct	basic	3-2	_	darbalaiks_4617_36450
