#FORMAT=WebAnno TSV 3.2
#T_SP=de.tudarmstadt.ukp.dkpro.core.api.segmentation.type.Lemma|value
#T_SP=de.tudarmstadt.ukp.dkpro.core.api.lexmorph.type.pos.POS|PosValue
#T_RL=de.tudarmstadt.ukp.dkpro.core.api.syntax.type.dependency.Dependency|DependencyType|flavor|BT_de.tudarmstadt.ukp.dkpro.core.api.lexmorph.type.pos.POS
#T_SP=de.tudarmstadt.ukp.dkpro.core.api.ner.type.NamedEntity|value
#T_SP=webanno.custom.ID|value


#Text=Sveikiņi visiem, sakiet, lūdzu, vai abas dienas (23., 24. jūnijs) skaitās kā brīvdienas vai arī vienā no tām lietvedes, bibliotēkas un pārējie tomēr strādās?
1-1	0-8	Sveikiņi	Sveikiņs	ncmpn1	nsubj	basic	1-17	_	darbalaiks_383_3117
1-2	9-15	visiem	viss	pg0mpdn	nmod	basic	1-1	_	darbalaiks_383_3117
1-3	15-16	,	,	zc	punct	basic	1-4	_	darbalaiks_383_3117
1-4	17-23	sakiet	sacīt	vmnm0t32pan	parataxis	basic	1-17	_	darbalaiks_383_3117
1-5	23-24	,	,	zc	punct	basic	1-4	_	darbalaiks_383_3117
1-6	25-30	lūdzu	lūdzu	is	discourse	basic	1-17	_	darbalaiks_383_3117
1-7	30-31	,	,	zc	punct	basic	1-6	_	darbalaiks_383_3117
1-8	32-35	vai	vai	cs	cc	basic	1-17	_	darbalaiks_383_3117
1-9	36-40	abas	abas	pg0fpnn	det	basic	1-10	_	darbalaiks_383_3117
1-10	41-47	dienas	diena	ncfsg4	nsubj	basic	1-17	_	darbalaiks_383_3117
1-11	48-49	(	(	zb	punct	basic	1-15	_	darbalaiks_383_3117
1-12	49-52	23.	23.	xo	amod	basic	1-15	time[1]	darbalaiks_383_3117
1-13	52-53	,	,	zc	punct	basic	1-14	time[1]	darbalaiks_383_3117
1-14	54-57	24.	24.	xo	conj	basic	1-12	time[1]	darbalaiks_383_3117
1-15	58-64	jūnijs	jūnijs	ncmsn1	discourse	basic	1-10	time[1]	darbalaiks_383_3117
1-16	64-65	)	)	zb	punct	basic	1-15	_	darbalaiks_383_3117
1-17	66-73	skaitās	skaitīties	vmyip_330an	root	basic	1-17	_	darbalaiks_383_3117
1-18	74-76	kā	kā	cs	case	basic	1-19	_	darbalaiks_383_3117
1-19	77-87	brīvdienas	brīvdiena	ncfsg4	obl	basic	1-17	_	darbalaiks_383_3117
1-20	88-91	vai	vai	cs	cc	basic	1-22	_	darbalaiks_383_3117
1-21	92-95	arī	arī	q	discourse	basic	1-22	_	darbalaiks_383_3117
1-22	96-101	vienā	viens	mcsfsl	conj	basic	1-19	_	darbalaiks_383_3117
1-23	102-104	no	no	sppd	case	basic	1-25	_	darbalaiks_383_3117
1-24	105-108	tām	tā	pd3fpdn	det	basic	1-25	_	darbalaiks_383_3117
1-25	109-118	lietvedes	lietvede	ncfsg5	nmod	basic	1-22	_	darbalaiks_383_3117
1-26	118-119	,	,	zc	punct	basic	1-27	_	darbalaiks_383_3117
1-27	120-131	bibliotēkas	bibliotēka	ncfsg4	conj	basic	1-25	_	darbalaiks_383_3117
1-28	132-134	un	un	cc	cc	basic	1-29	_	darbalaiks_383_3117
1-29	135-142	pārējie	pārējais	afmpnyp	nsubj	basic	1-31	_	darbalaiks_383_3117
1-30	143-148	tomēr	tomēr	q	discourse	basic	1-31	_	darbalaiks_383_3117
1-31	149-156	strādās	strādāt	vmnif_230an	conj	basic	1-17	_	darbalaiks_383_3117
1-32	156-157	?	?	zs	punct	basic	1-17	_	darbalaiks_383_3117

#Text=Sveiki!
2-1	159-165	Sveiki	sveiks	afmpnnp	root	basic	2-1	_	darbalaiks_383_3118
2-2	165-166	!	!	zs	punct	basic	2-1	_	darbalaiks_383_3118

#Text=23. un 24. jūnija ir brīvdienas.
3-1	167-170	23.	23.	xo	amod	basic	3-4	time[2]	darbalaiks_383_3118
3-2	171-173	un	un	cc	cc	basic	3-3	time[2]	darbalaiks_383_3118
3-3	174-177	24.	24.	xo	conj	basic	3-1	time[2]	darbalaiks_383_3118
3-4	178-184	jūnija	jūnijs	ncmsg1	obl	basic	3-5	time[2]	darbalaiks_383_3118
3-5	185-187	ir	būt	vcnipii30an	root	basic	3-5	_	darbalaiks_383_3118
3-6	188-198	brīvdienas	brīvdiena	ncfpn4	nsubj	basic	3-5	_	darbalaiks_383_3118
3-7	198-199	.	.	zs	punct	basic	3-5	_	darbalaiks_383_3118

#Text=22. jūnijs ir saīsinātā darba diena līdz 14.00.\nAr cieņu,\nStudentu servisa konsultants
4-1	200-203	22.	22.	xo	discourse	basic	4-6	time[3]	darbalaiks_383_3118
4-2	204-210	jūnijs	jūnijs	ncmsn1	nsubj	basic	4-6	time[3]	darbalaiks_383_3118
4-3	211-213	ir	būt	vcnipii30an	cop	basic	4-6	_	darbalaiks_383_3118
4-4	214-223	saīsinātā	saīsināts	afmsgyp	amod	basic	4-5	_	darbalaiks_383_3118
4-5	224-229	darba	darbs	ncmsg1	nmod	basic	4-6	_	darbalaiks_383_3118
4-6	230-235	diena	diena	ncfsn4	root	basic	4-6	_	darbalaiks_383_3118
4-7	236-240	līdz	līdz	spsd	case	basic	4-8	_	darbalaiks_383_3118
4-8	241-247	14.00.	14.00.	xx	acl	basic	4-6	_	darbalaiks_383_3118
4-9	248-250	Ar	ar	spsa	case	basic	4-10	_	darbalaiks_383_3118
4-10	251-256	cieņu	cieņa	ncfsa4	nmod	basic	4-8	_	darbalaiks_383_3118
4-11	256-257	,	,	zc	punct	basic	4-14	_	darbalaiks_383_3118
4-12	258-266	Studentu	students	ncmpg1	nmod	basic	4-13	_	darbalaiks_383_3118
4-13	267-274	servisa	serviss	ncmsg1	nmod	basic	4-14	_	darbalaiks_383_3118
4-14	275-286	konsultants	konsultants	ncmsn1	conj	basic	4-6	_	darbalaiks_383_3118

#Text=Labdien!
5-1	288-295	Labdien	labdien	is	root	basic	5-1	_	darbalaiks_383_3119
5-2	295-296	!	!	zs	punct	basic	5-1	_	darbalaiks_383_3119

#Text=LU Bibliotēkas darba laiki svētkos pieejami: http://www.lu.lv/zinas/t/3107/
6-1	297-299	LU	LU	yp	nmod	basic	6-4	organization[4]	darbalaiks_383_3119
6-2	300-311	Bibliotēkas	bibliotēka	ncfsg4	nmod	basic	6-3	organization[4]	darbalaiks_383_3119
6-3	312-317	darba	darbs	ncmsg1	nmod	basic	6-4	organization[4]	darbalaiks_383_3119
6-4	318-323	laiki	laiks	ncmpn1	nsubj	basic	6-6	_	darbalaiks_383_3119
6-5	324-331	svētkos	svētki	ncmdl1	obl	basic	6-6	_	darbalaiks_383_3119
6-6	332-340	pieejami	pieejams	afmpnnp	root	basic	6-6	_	darbalaiks_383_3119
6-7	340-341	:	:	zo	punct	basic	6-8	_	darbalaiks_383_3119
6-8	342-372	http://www.lu.lv/zinas/t/3107/	http://www.lu.lv/zinas/t/3107/	xx	parataxis	basic	6-6	_	darbalaiks_383_3119
