#FORMAT=WebAnno TSV 3.2
#T_SP=de.tudarmstadt.ukp.dkpro.core.api.segmentation.type.Lemma|value
#T_SP=de.tudarmstadt.ukp.dkpro.core.api.lexmorph.type.pos.POS|PosValue
#T_RL=de.tudarmstadt.ukp.dkpro.core.api.syntax.type.dependency.Dependency|DependencyType|flavor|BT_de.tudarmstadt.ukp.dkpro.core.api.lexmorph.type.pos.POS
#T_SP=de.tudarmstadt.ukp.dkpro.core.api.ner.type.NamedEntity|value
#T_SP=webanno.custom.ID|value


#Text=No cikiem līdz cikiem var reģistrēties?
1-1	0-2	No	no	sppd	case	basic	1-2	_	darbalaiks_4366_34482
1-2	3-9	cikiem	ciks	ncmpd1	obl	basic	1-5	_	darbalaiks_4366_34482
1-3	10-14	līdz	līdz	sppd	case	basic	1-4	_	darbalaiks_4366_34482
1-4	15-21	cikiem	ciks	ncmpd1	obl	basic	1-5	_	darbalaiks_4366_34482
1-5	22-25	var	varēt	vonip_330an	root	basic	1-5	_	darbalaiks_4366_34482
1-6	26-38	reģistrēties	reģistrēties	vmyn0_2000n	xcomp	basic	1-5	_	darbalaiks_4366_34482
1-7	38-39	?	?	zs	punct	basic	1-5	_	darbalaiks_4366_34482

#Text=Kaut kā negribas aiziet un tur pusdienlaiks utt... runa ir par EVF.
2-1	40-44	Kaut	kaut	q	discourse	basic	2-2	_	darbalaiks_4366_34482
2-2	45-47	kā	kā	cs	mark	basic	2-3	_	darbalaiks_4366_34482
2-3	48-56	negribas	negribas	vm_ip__30__	root	basic	2-3	_	darbalaiks_4366_34482
2-4	57-63	aiziet	aiziet	vmnn0i1000n	xcomp	basic	2-3	_	darbalaiks_4366_34482
2-5	64-66	un	un	cc	cc	basic	2-13	_	darbalaiks_4366_34482
2-6	67-70	tur	tur	r0_	advmod	basic	2-7	_	darbalaiks_4366_34482
2-7	71-83	pusdienlaiks	pusdienlaiks	ncmsn1	obl	basic	2-13	_	darbalaiks_4366_34482
2-8	84-88	utt.	utt.	y	flat:name	basic	2-7	_	darbalaiks_4366_34482
2-9	88-90	..	..	zx	punct	basic	2-7	_	darbalaiks_4366_34482
2-10	91-95	runa	runa	ncfsn4	nsubj	basic	2-13	_	darbalaiks_4366_34482
2-11	96-98	ir	būt	vcnipii30an	cop	basic	2-13	_	darbalaiks_4366_34482
2-12	99-102	par	par	spsa	case	basic	2-13	_	darbalaiks_4366_34482
2-13	103-106	EVF	EVF	y	conj	basic	2-3	organization[1]	darbalaiks_4366_34482
2-14	106-107	.	.	zs	punct	basic	2-3	_	darbalaiks_4366_34482

#Text=Lai noskaidrotu darba laikus, pirms tam piezvaniet lietvedei!
3-1	109-112	Lai	lai	cs	mark	basic	3-2	_	darbalaiks_4366_34483
3-2	113-124	noskaidrotu	noskaidrot	vmnc0t200an	root	basic	3-2	_	darbalaiks_4366_34483
3-3	125-130	darba	darbs	ncmsg1	nmod	basic	3-4	_	darbalaiks_4366_34483
3-4	131-137	laikus	laiks	ncmpa1	obj	basic	3-2	_	darbalaiks_4366_34483
3-5	137-138	,	,	zc	punct	basic	3-8	_	darbalaiks_4366_34483
3-6	139-144	pirms	pirms	sp__	case	basic	3-7	_	darbalaiks_4366_34483
3-7	145-148	tam	tas	pd3msdn	obl	basic	3-8	_	darbalaiks_4366_34483
3-8	149-159	piezvaniet	piezvanīt	vmnm0_32pan	conj	basic	3-2	_	darbalaiks_4366_34483
3-9	160-169	lietvedei	lietvede	ncfsd5	iobj	basic	3-8	_	darbalaiks_4366_34483
3-10	169-170	!	!	zs	punct	basic	3-2	_	darbalaiks_4366_34483
