#FORMAT=WebAnno TSV 3.2
#T_SP=de.tudarmstadt.ukp.dkpro.core.api.segmentation.type.Lemma|value
#T_SP=de.tudarmstadt.ukp.dkpro.core.api.lexmorph.type.pos.POS|PosValue
#T_RL=de.tudarmstadt.ukp.dkpro.core.api.syntax.type.dependency.Dependency|DependencyType|flavor|BT_de.tudarmstadt.ukp.dkpro.core.api.lexmorph.type.pos.POS
#T_SP=de.tudarmstadt.ukp.dkpro.core.api.ner.type.NamedEntity|value
#T_SP=webanno.custom.ID|value


#Text=Kāds gadījumā nezin vai bibliotēka EVF jau strādā?
1-1	0-4	Kāds	kāds	pq0msnn	det	basic	1-2	_	darbalaiks_5658_44047
1-2	5-13	gadījumā	gadījums	ncmsl1	obl	basic	1-8	_	darbalaiks_5658_44047
1-3	14-19	nezin	nezin	q	discourse	basic	1-8	_	darbalaiks_5658_44047
1-4	20-23	vai	vai	cs	cc	basic	1-8	_	darbalaiks_5658_44047
1-5	24-34	bibliotēka	bibliotēka	ncfsn4	obj	basic	1-8	_	darbalaiks_5658_44047
1-6	35-38	EVF	EVF	y	nsubj	basic	1-8	organization[1]	darbalaiks_5658_44047
1-7	39-42	jau	jau	r0_	advmod	basic	1-8	_	darbalaiks_5658_44047
1-8	43-49	strādā	strādāt	vmnip_230an	root	basic	1-8	_	darbalaiks_5658_44047
1-9	49-50	?	?	zs	punct	basic	1-8	_	darbalaiks_5658_44047

#Text=Un darba laikus?
2-1	51-53	Un	un	cc	cc	basic	2-3	_	darbalaiks_5658_44047
2-2	54-59	darba	darbs	ncmsg1	nmod	basic	2-3	_	darbalaiks_5658_44047
2-3	60-66	laikus	laiks	ncmpa1	root	basic	2-3	_	darbalaiks_5658_44047
2-4	66-67	?	?	zs	punct	basic	2-3	_	darbalaiks_5658_44047

#Text=http://www.lu.lv/biblioteka/darbalaiks/vasara.html
3-1	69-119	http://www.lu.lv/biblioteka/darbalaiks/vasara.html	http://www.lu.lv/biblioteka/darbalaiks/vasara.html	xf	root	basic	3-1	_	darbalaiks_5658_44048

#Text=Manuprāt fakultāšu bibliotēkas ar 28. augustu atsāks strādāt.
4-1	121-129	Manuprāt	manuprāt	r0_	advmod	basic	4-7	_	darbalaiks_5658_44049
4-2	130-139	fakultāšu	fakultāte	ncfpg5	nmod	basic	4-3	_	darbalaiks_5658_44049
4-3	140-151	bibliotēkas	bibliotēka	ncfsg4	obl	basic	4-7	_	darbalaiks_5658_44049
4-4	152-154	ar	ar	spsa	case	basic	4-6	_	darbalaiks_5658_44049
4-5	155-158	28.	28.	xo	amod	basic	4-6	time[2]	darbalaiks_5658_44049
4-6	159-166	augustu	augusts	ncmsa1	nmod	basic	4-3	time[2]	darbalaiks_5658_44049
4-7	167-173	atsāks	atsākt	vpnift130an	root	basic	4-7	_	darbalaiks_5658_44049
4-8	174-181	strādāt	strādāt	vmnn0_2000n	xcomp	basic	4-7	_	darbalaiks_5658_44049
4-9	181-182	.	.	zs	punct	basic	4-7	_	darbalaiks_5658_44049

#Text=Paldies!
5-1	184-191	Paldies	paldies	is	root	basic	5-1	_	darbalaiks_5658_44050
5-2	191-192	!	!	zs	punct	basic	5-1	_	darbalaiks_5658_44050
