#FORMAT=WebAnno TSV 3.2
#T_SP=de.tudarmstadt.ukp.dkpro.core.api.segmentation.type.Lemma|value
#T_SP=de.tudarmstadt.ukp.dkpro.core.api.lexmorph.type.pos.POS|PosValue
#T_RL=de.tudarmstadt.ukp.dkpro.core.api.syntax.type.dependency.Dependency|DependencyType|flavor|BT_de.tudarmstadt.ukp.dkpro.core.api.lexmorph.type.pos.POS
#T_SP=de.tudarmstadt.ukp.dkpro.core.api.ner.type.NamedEntity|value
#T_SP=webanno.custom.ID|value


#Text=Sveiki.
1-1	0-6	Sveiki	sveiks	afmpnnp	root	basic	1-1	_	darbalaiks_4370_34498
1-2	6-7	.	.	zs	punct	basic	1-1	_	darbalaiks_4370_34498

#Text=Līdz cikiem strādā telpa, kurā var apmainīt studenta apliecību....
2-1	8-12	Līdz	līdz	sppd	case	basic	2-2	_	darbalaiks_4370_34498
2-2	13-19	cikiem	ciks	ncmpd1	obl	basic	2-3	_	darbalaiks_4370_34498
2-3	20-26	strādā	strādāt	vmnip_230an	root	basic	2-3	_	darbalaiks_4370_34498
2-4	27-32	telpa	telpa	ncfsn4	nsubj	basic	2-3	_	darbalaiks_4370_34498
2-5	32-33	,	,	zc	punct	basic	2-7	_	darbalaiks_4370_34498
2-6	34-38	kurā	kura	pr0fsln	obl	basic	2-7	_	darbalaiks_4370_34498
2-7	39-42	var	varēt	vonip_330an	acl	basic	2-4	_	darbalaiks_4370_34498
2-8	43-51	apmainīt	apmainīt	vmnn0t3000n	xcomp	basic	2-7	_	darbalaiks_4370_34498
2-9	52-60	studenta	students	ncmsg1	nmod	basic	2-10	_	darbalaiks_4370_34498
2-10	61-70	apliecību	apliecība	ncfsa4	obj	basic	2-8	_	darbalaiks_4370_34498
2-11	70-74	....	....	zs	punct	basic	2-3	_	darbalaiks_4370_34498

#Text=Paldies!
3-1	75-82	Paldies	paldies	is	root	basic	3-1	_	darbalaiks_4370_34498
3-2	82-83	!	!	zs	punct	basic	3-1	_	darbalaiks_4370_34498

#Text=Izdomā, kurā fakultātē tu mācies, pēc tam pamēģini atcerēties programmu.
4-1	85-91	Izdomā	izdomāt	vmnipt230an	root	basic	4-1	_	darbalaiks_4370_34499
4-2	91-92	,	,	zc	punct	basic	4-6	_	darbalaiks_4370_34499
4-3	93-97	kurā	kurš	pr0msln	det	basic	4-4	_	darbalaiks_4370_34499
4-4	98-107	fakultātē	fakultāte	ncfsl5	obl	basic	4-6	_	darbalaiks_4370_34499
4-5	108-110	tu	tu	pp20snn	nsubj	basic	4-6	_	darbalaiks_4370_34499
4-6	111-117	mācies	mācīties	vmyip_32san	ccomp	basic	4-1	_	darbalaiks_4370_34499
4-7	117-118	,	,	zc	punct	basic	4-10	_	darbalaiks_4370_34499
4-8	119-122	pēc	pēc	sp__	case	basic	4-9	_	darbalaiks_4370_34499
4-9	123-126	tam	tas	pd3msdn	obl	basic	4-10	_	darbalaiks_4370_34499
4-10	127-135	pamēģini	pamēģināt	vmnm0t32san	conj	basic	4-6	_	darbalaiks_4370_34499
4-11	136-146	atcerēties	atcerēties	vmyn0t3000n	xcomp	basic	4-10	_	darbalaiks_4370_34499
4-12	147-156	programmu	programma	ncfsa4	obj	basic	4-11	_	darbalaiks_4370_34499
4-13	156-157	.	.	zs	punct	basic	4-1	_	darbalaiks_4370_34499

#Text=Kad būsi to visu izdarījis - atrodi lietvedi, kura atbild par tavu programmu, un paskaties viņas darba laikus.
5-1	158-161	Kad	kad	r0_	advmod	basic	5-2	_	darbalaiks_4370_34499
5-2	162-166	būsi	būt	vmnif_i2san	advcl	basic	5-7	_	darbalaiks_4370_34499
5-3	167-169	to	tas	pd3msan	obj	basic	5-5	_	darbalaiks_4370_34499
5-4	170-174	visu	viss	pg0msan	det	basic	5-5	_	darbalaiks_4370_34499
5-5	175-184	izdarījis	izdarīt	vmnpdmsnasnpn	acl	basic	5-7	_	darbalaiks_4370_34499
5-6	185-186	-	-	zd	punct	basic	5-5	_	darbalaiks_4370_34499
5-7	187-193	atrodi	atrast	vmnm0i12san	root	basic	5-7	_	darbalaiks_4370_34499
5-8	194-202	lietvedi	lietvede	ncfsa5	obj	basic	5-7	_	darbalaiks_4370_34499
5-9	202-203	,	,	zc	punct	basic	5-11	_	darbalaiks_4370_34499
5-10	204-208	kura	kura	pr0fsnn	nsubj	basic	5-11	_	darbalaiks_4370_34499
5-11	209-215	atbild	atbildēt	vmnip_330an	acl	basic	5-8	_	darbalaiks_4370_34499
5-12	216-219	par	par	spsa	case	basic	5-14	_	darbalaiks_4370_34499
5-13	220-224	tavu	tava	ps0fsan	det	basic	5-14	_	darbalaiks_4370_34499
5-14	225-234	programmu	programma	ncfsa4	iobj	basic	5-11	_	darbalaiks_4370_34499
5-15	234-235	,	,	zc	punct	basic	5-11	_	darbalaiks_4370_34499
5-16	236-238	un	un	cc	cc	basic	5-17	_	darbalaiks_4370_34499
5-17	239-248	paskaties	paskatīties	vmym0_32san	conj	basic	5-7	_	darbalaiks_4370_34499
5-18	249-254	viņas	viņa	pp3fsgn	det	basic	5-20	_	darbalaiks_4370_34499
5-19	255-260	darba	darbs	ncmsg1	nmod	basic	5-20	_	darbalaiks_4370_34499
5-20	261-267	laikus	laiks	ncmpa1	obj	basic	5-17	_	darbalaiks_4370_34499
5-21	267-268	.	.	zs	punct	basic	5-7	_	darbalaiks_4370_34499

#Text=Sveiki.
6-1	270-276	Sveiki	sveiks	afmpnnp	root	basic	6-1	_	darbalaiks_4370_34500
6-2	276-277	.	.	zs	punct	basic	6-1	_	darbalaiks_4370_34500

#Text=Vai rītdien juridiskajā fakultātē kāds strādā, kam varētu iesniegt iesniegumu?
7-1	278-281	Vai	vai	q	discourse	basic	7-6	_	darbalaiks_4370_34500
7-2	282-289	rītdien	rītdien	r0_	advmod	basic	7-6	_	darbalaiks_4370_34500
7-3	290-301	juridiskajā	juridisks	affslyp	amod	basic	7-4	_	darbalaiks_4370_34500
7-4	302-311	fakultātē	fakultāte	ncfsl5	obl	basic	7-6	_	darbalaiks_4370_34500
7-5	312-316	kāds	kāds	pi0msnn	nsubj	basic	7-6	_	darbalaiks_4370_34500
7-6	317-323	strādā	strādāt	vmnip_230an	root	basic	7-6	_	darbalaiks_4370_34500
7-7	323-324	,	,	zc	punct	basic	7-9	_	darbalaiks_4370_34500
7-8	325-328	kam	kas	pr000dn	nsubj	basic	7-9	_	darbalaiks_4370_34500
7-9	329-335	varētu	varēt	vonc0_300an	advcl	basic	7-6	_	darbalaiks_4370_34500
7-10	336-344	iesniegt	iesniegt	vmnn0t1000n	xcomp	basic	7-9	_	darbalaiks_4370_34500
7-11	345-355	iesniegumu	iesniegums	ncmsa1	obj	basic	7-10	_	darbalaiks_4370_34500
7-12	355-356	?	?	zs	punct	basic	7-6	_	darbalaiks_4370_34500

#Text=Lietvedes, varbūt dekanāts?
8-1	357-366	Lietvedes	lietvede	ncfpn5	root	basic	8-1	_	darbalaiks_4370_34500
8-2	366-367	,	,	zc	punct	basic	8-4	_	darbalaiks_4370_34500
8-3	368-374	varbūt	varbūt	q	discourse	basic	8-4	_	darbalaiks_4370_34500
8-4	375-383	dekanāts	dekanāts	ncmsn1	conj	basic	8-1	_	darbalaiks_4370_34500
8-5	383-384	?	?	zs	punct	basic	8-1	_	darbalaiks_4370_34500

#Text=Nē, šodien JF noteikti neviena nav!
9-1	387-389	Nē	nē	q	case	basic	9-5	_	darbalaiks_4370_34501
9-2	389-390	,	,	zc	punct	basic	9-1	_	darbalaiks_4370_34501
9-3	391-397	šodien	šodien	r0_	advmod	basic	9-5	_	darbalaiks_4370_34501
9-4	398-400	JF	JF	y	nsubj	basic	9-5	product[1]	darbalaiks_4370_34501
9-5	401-409	noteikti	noteikt	vmnpdmpnpsnpn	root	basic	9-5	_	darbalaiks_4370_34501
9-6	410-417	neviena	neviens	pi0msgy	nsubj	basic	9-7	_	darbalaiks_4370_34501
9-7	418-421	nav	nebūt	vmnipii30ay	cop	basic	9-5	_	darbalaiks_4370_34501
9-8	421-422	!	!	zs	punct	basic	9-5	_	darbalaiks_4370_34501

#Text=Labdien, pieņemšanas laiki metodiķēm: http://www.jf.lu.lv/studiju-veidi/\nAr cieņu,\nStudentu servisa konsultants
10-1	424-431	Labdien	labdien	is	discourse	basic	10-1	_	darbalaiks_4370_34502
10-2	431-432	,	,	zc	punct	basic	10-1	_	darbalaiks_4370_34502
10-3	433-444	pieņemšanas	pieņemšana	ncfsg4	nmod	basic	10-4	_	darbalaiks_4370_34502
10-4	445-450	laiki	laiks	ncmpn1	root	basic	10-4	_	darbalaiks_4370_34502
10-5	451-460	metodiķēm	metodiķe	ncfpd5	nmod	basic	10-4	_	darbalaiks_4370_34502
10-6	460-461	:	:	zo	punct	basic	10-7	_	darbalaiks_4370_34502
10-7	462-496	http://www.jf.lu.lv/studiju-veidi/	http://www.jf.lu.lv/studiju-veidi/	xx	parataxis	basic	10-5	_	darbalaiks_4370_34502
10-8	497-499	Ar	ar	spsa	case	basic	10-9	_	darbalaiks_4370_34502
10-9	500-505	cieņu	cieņa	ncfsa4	nmod	basic	10-7	_	darbalaiks_4370_34502
10-10	505-506	,	,	zc	punct	basic	10-7	_	darbalaiks_4370_34502
10-11	507-515	Studentu	students	ncmpg1	nmod	basic	10-12	_	darbalaiks_4370_34502
10-12	516-523	servisa	serviss	ncmsg1	nmod	basic	10-13	_	darbalaiks_4370_34502
10-13	524-535	konsultants	konsultants	ncmsn1	conj	basic	10-7	_	darbalaiks_4370_34502
