#FORMAT=WebAnno TSV 3.2
#T_SP=de.tudarmstadt.ukp.dkpro.core.api.segmentation.type.Lemma|value
#T_SP=de.tudarmstadt.ukp.dkpro.core.api.lexmorph.type.pos.POS|PosValue
#T_RL=de.tudarmstadt.ukp.dkpro.core.api.syntax.type.dependency.Dependency|DependencyType|flavor|BT_de.tudarmstadt.ukp.dkpro.core.api.lexmorph.type.pos.POS
#T_SP=de.tudarmstadt.ukp.dkpro.core.api.ner.type.NamedEntity|value
#T_SP=webanno.custom.ID|value


#Text=Sveiki.
1-1	0-6	Sveiki	sveiks	afmpnnp	root	basic	1-1	_	darbalaiks_8421_63406
1-2	6-7	.	.	zs	punct	basic	1-1	_	darbalaiks_8421_63406

#Text=Vai kāds nezina Juridiskās fakultātes lietvedes darba laikus šodien, rīt, parīt?
2-1	8-11	Vai	vai	q	discourse	basic	2-3	_	darbalaiks_8421_63406
2-2	12-16	kāds	kāds	pi0msnn	nsubj	basic	2-3	_	darbalaiks_8421_63406
2-3	17-23	nezina	nezināt	vmnipt330an	root	basic	2-3	_	darbalaiks_8421_63406
2-4	24-34	Juridiskās	juridisks	affsgyp	amod	basic	2-5	organization[1]	darbalaiks_8421_63406
2-5	35-45	fakultātes	fakultāte	ncfsg5	nmod	basic	2-6	organization[1]	darbalaiks_8421_63406
2-6	46-55	lietvedes	lietvede	ncfsg5	nmod	basic	2-8	_	darbalaiks_8421_63406
2-7	56-61	darba	darbs	ncmsg1	nmod	basic	2-8	_	darbalaiks_8421_63406
2-8	62-68	laikus	laiks	ncmpa1	obj	basic	2-3	_	darbalaiks_8421_63406
2-9	69-75	šodien	šodien	r0_	advmod	basic	2-3	_	darbalaiks_8421_63406
2-10	75-76	,	,	zc	punct	basic	2-11	_	darbalaiks_8421_63406
2-11	77-80	rīt	rīt	r0_	advcl	basic	2-9	_	darbalaiks_8421_63406
2-12	80-81	,	,	zc	punct	basic	2-13	_	darbalaiks_8421_63406
2-13	82-87	parīt	parīt	r0_	conj	basic	2-9	_	darbalaiks_8421_63406
2-14	87-88	?	?	zs	punct	basic	2-3	_	darbalaiks_8421_63406

#Text=Paldies!
3-1	89-96	Paldies	paldies	is	root	basic	3-1	_	darbalaiks_8421_63406
3-2	96-97	!	!	zs	punct	basic	3-1	_	darbalaiks_8421_63406

#Text=HZF fakultātes lietvedes atrodas fakultātē no 10iem-17iem, varbūt JF darba laiks ir līdzīgs.
4-1	99-102	HZF	HZF	y	nmod	basic	4-2	organization[2]	darbalaiks_8421_63407
4-2	103-113	fakultātes	fakultāte	ncfsg5	nmod	basic	4-3	organization[2]	darbalaiks_8421_63407
4-3	114-123	lietvedes	lietvede	ncfpn5	nsubj	basic	4-4	_	darbalaiks_8421_63407
4-4	124-131	atrodas	atrasties	vmyip_130an	root	basic	4-4	_	darbalaiks_8421_63407
4-5	132-141	fakultātē	fakultāte	ncfsl5	obl	basic	4-4	_	darbalaiks_8421_63407
4-6	142-144	no	no	sppd	case	basic	4-8	_	darbalaiks_8421_63407
4-7	145-147	10	10	xn	nummod	basic	4-8	_	darbalaiks_8421_63407
4-8	147-156	iem-17iem	iem-17iem	xx	nmod	basic	4-5	_	darbalaiks_8421_63407
4-9	156-157	,	,	zc	punct	basic	4-15	_	darbalaiks_8421_63407
4-10	158-164	varbūt	varbūt	q	discourse	basic	4-13	_	darbalaiks_8421_63407
4-11	165-167	JF	JF	y	nmod	basic	4-13	organization[3]	darbalaiks_8421_63407
4-12	168-173	darba	darbs	ncmsg1	flat:name	basic	4-11	_	darbalaiks_8421_63407
4-13	174-179	laiks	laiks	ncmsn1	nsubj	basic	4-15	_	darbalaiks_8421_63407
4-14	180-182	ir	būt	vcnipii30an	cop	basic	4-15	_	darbalaiks_8421_63407
4-15	183-190	līdzīgs	līdzīgs	afmsnnp	conj	basic	4-4	_	darbalaiks_8421_63407
4-16	190-191	.	.	zs	punct	basic	4-4	_	darbalaiks_8421_63407

#Text=http://www.lu.lv/jf/formas.html
5-1	193-224	http://www.lu.lv/jf/formas.html	http://www.lu.lv/jf/formas.html	xf	root	basic	5-1	_	darbalaiks_8421_63408
