#FORMAT=WebAnno TSV 3.2
#T_SP=de.tudarmstadt.ukp.dkpro.core.api.segmentation.type.Lemma|value
#T_SP=de.tudarmstadt.ukp.dkpro.core.api.lexmorph.type.pos.POS|PosValue
#T_RL=de.tudarmstadt.ukp.dkpro.core.api.syntax.type.dependency.Dependency|DependencyType|flavor|BT_de.tudarmstadt.ukp.dkpro.core.api.lexmorph.type.pos.POS
#T_SP=de.tudarmstadt.ukp.dkpro.core.api.ner.type.NamedEntity|value
#T_SP=webanno.custom.ID|value


#Text=Kur es varu atrast lietvedi un no cikiem lidz cikiem viņa strādā?
1-1	0-3	Kur	kur	r0_	advmod	basic	1-3	_	darbalaiks_17817_133567
1-2	4-6	es	es	pp10snn	nsubj	basic	1-3	_	darbalaiks_17817_133567
1-3	7-11	varu	varēt	vonip_31san	root	basic	1-3	_	darbalaiks_17817_133567
1-4	12-18	atrast	atrast	vmnn0i1000n	xcomp	basic	1-3	_	darbalaiks_17817_133567
1-5	19-27	lietvedi	lietvede	ncfsa5	obj	basic	1-4	_	darbalaiks_17817_133567
1-6	28-30	un	un	cc	cc	basic	1-12	_	darbalaiks_17817_133567
1-7	31-33	no	no	sppd	case	basic	1-8	_	darbalaiks_17817_133567
1-8	34-40	cikiem	ciks	ncmpd1	obl	basic	1-12	_	darbalaiks_17817_133567
1-9	41-45	lidz	lidz	xf	det	basic	1-10	_	darbalaiks_17817_133567
1-10	46-52	cikiem	ciks	ncmpd1	iobj	basic	1-12	_	darbalaiks_17817_133567
1-11	53-57	viņa	viņa	pp3fsnn	nsubj	basic	1-12	_	darbalaiks_17817_133567
1-12	58-64	strādā	strādāt	vmnip_230an	conj	basic	1-3	_	darbalaiks_17817_133567
1-13	64-65	?	?	zs	punct	basic	1-3	_	darbalaiks_17817_133567

#Text=Vai pie lietvedes es arī varu saņemt savu līgumu un izziņas?
2-1	66-69	Vai	vai	cs	cc	basic	2-6	_	darbalaiks_17817_133567
2-2	70-73	pie	pie	spsg	case	basic	2-3	_	darbalaiks_17817_133567
2-3	74-83	lietvedes	lietvede	ncfsg5	obl	basic	2-6	_	darbalaiks_17817_133567
2-4	84-86	es	es	pp10snn	nsubj	basic	2-6	_	darbalaiks_17817_133567
2-5	87-90	arī	arī	q	discourse	basic	2-6	_	darbalaiks_17817_133567
2-6	91-95	varu	varēt	vonip_31san	root	basic	2-6	_	darbalaiks_17817_133567
2-7	96-102	saņemt	saņemt	vmnn0t1000n	xcomp	basic	2-6	_	darbalaiks_17817_133567
2-8	103-107	savu	savs	ps0msan	det	basic	2-9	_	darbalaiks_17817_133567
2-9	108-114	līgumu	līgums	ncmsa1	obj	basic	2-7	_	darbalaiks_17817_133567
2-10	115-117	un	un	cc	cc	basic	2-11	_	darbalaiks_17817_133567
2-11	118-125	izziņas	izziņa	ncfpn4	conj	basic	2-9	_	darbalaiks_17817_133567
2-12	125-126	?	?	zs	punct	basic	2-6	_	darbalaiks_17817_133567

#Text=Man līdzīgs jautājums par HZF darba laiku reģistrācijas nedēļā, kā arī par kontaktiem.
3-1	128-131	Man	es	pp10sdn	obl	basic	3-2	_	darbalaiks_17817_133568
3-2	132-139	līdzīgs	līdzīgs	afmsnnp	amod	basic	3-3	_	darbalaiks_17817_133568
3-3	140-149	jautājums	jautājums	ncmsn1	root	basic	3-3	_	darbalaiks_17817_133568
3-4	150-153	par	par	spsa	case	basic	3-9	_	darbalaiks_17817_133568
3-5	154-157	HZF	HZF	y	nmod	basic	3-7	organization[1]	darbalaiks_17817_133568
3-6	158-163	darba	darbs	ncmsg1	nmod	basic	3-7	_	darbalaiks_17817_133568
3-7	164-169	laiku	laiks	ncmpg1	nmod	basic	3-8	_	darbalaiks_17817_133568
3-8	170-183	reģistrācijas	reģistrācija	ncfsg4	nmod	basic	3-9	_	darbalaiks_17817_133568
3-9	184-190	nedēļā	nedēļa	ncfsl4	acl	basic	3-3	_	darbalaiks_17817_133568
3-10	190-191	,	,	zc	punct	basic	3-14	_	darbalaiks_17817_133568
3-11	192-194	kā	kā	cs	cc	basic	3-14	_	darbalaiks_17817_133568
3-12	195-198	arī	arī	q	discourse	basic	3-11	_	darbalaiks_17817_133568
3-13	199-202	par	par	sppd	case	basic	3-14	_	darbalaiks_17817_133568
3-14	203-213	kontaktiem	kontakts	ncmpd1	conj	basic	3-3	_	darbalaiks_17817_133568
3-15	213-214	.	.	zs	punct	basic	3-3	_	darbalaiks_17817_133568

#Text=Ja lietvedes telefona numurs nav norādīts, kam zvanīt?
4-1	215-217	Ja	ja	cs	mark	basic	4-6	_	darbalaiks_17817_133568
4-2	218-227	lietvedes	lietvede	ncfsg5	nmod	basic	4-4	_	darbalaiks_17817_133568
4-3	228-236	telefona	telefons	ncmsg1	nmod	basic	4-4	_	darbalaiks_17817_133568
4-4	237-243	numurs	numurs	ncmsn1	nsubj	basic	4-6	_	darbalaiks_17817_133568
4-5	244-247	nav	nebūt	vcnipii30ay	aux:pass	basic	4-6	_	darbalaiks_17817_133568
4-6	248-256	norādīts	norādīt	vmnpdmsnpsnpn	root	basic	4-6	_	darbalaiks_17817_133568
4-7	256-257	,	,	zc	punct	basic	4-9	_	darbalaiks_17817_133568
4-8	258-261	kam	kas	pr000dn	iobj	basic	4-9	_	darbalaiks_17817_133568
4-9	262-268	zvanīt	zvanīt	vmnn0_3000n	ccomp	basic	4-6	_	darbalaiks_17817_133568
4-10	268-269	?	?	zs	punct	basic	4-6	_	darbalaiks_17817_133568

#Text=Dekānam, izpilddirektoram, vietniekiem, savas studiju nodaļas vadītājam?
5-1	270-277	Dekānam	dekāns	ncmsd1	root	basic	5-1	person[2]	darbalaiks_17817_133568
5-2	277-278	,	,	zc	punct	basic	5-3	_	darbalaiks_17817_133568
5-3	279-295	izpilddirektoram	izpilddirektorēt	vmnip_31pan	conj	basic	5-1	_	darbalaiks_17817_133568
5-4	295-296	,	,	zc	punct	basic	5-5	_	darbalaiks_17817_133568
5-5	297-308	vietniekiem	vietnieks	ncmpd1	vocative	basic	5-3	_	darbalaiks_17817_133568
5-6	308-309	,	,	zc	punct	basic	5-10	_	darbalaiks_17817_133568
5-7	310-315	savas	sava	ps0fsgn	det	basic	5-9	_	darbalaiks_17817_133568
5-8	316-323	studiju	studijas	ncfdg4	nmod	basic	5-9	_	darbalaiks_17817_133568
5-9	324-331	nodaļas	nodaļa	ncfsg4	nmod	basic	5-10	_	darbalaiks_17817_133568
5-10	332-341	vadītājam	vadītājs	ncmsd1	acl	basic	5-3	_	darbalaiks_17817_133568
5-11	341-342	?	?	zs	punct	basic	5-1	_	darbalaiks_17817_133568

#Text=http://www.hzf.lu.lv/studijas/metodiki/
6-1	344-383	http://www.hzf.lu.lv/studijas/metodiki/	http://www.hzf.lu.lv/studijas/metodiki/	i	root	basic	6-1	_	darbalaiks_17817_133570
