#FORMAT=WebAnno TSV 3.2
#T_SP=de.tudarmstadt.ukp.dkpro.core.api.segmentation.type.Lemma|value
#T_SP=de.tudarmstadt.ukp.dkpro.core.api.lexmorph.type.pos.POS|PosValue
#T_RL=de.tudarmstadt.ukp.dkpro.core.api.syntax.type.dependency.Dependency|DependencyType|flavor|BT_de.tudarmstadt.ukp.dkpro.core.api.lexmorph.type.pos.POS
#T_SP=de.tudarmstadt.ukp.dkpro.core.api.ner.type.NamedEntity|value
#T_SP=webanno.custom.ID|value


#Text=Vai LU bibliotēka strādās tajā brīvajā (Lieldienu) nedēļā?
1-1	0-3	Vai	vai	q	discourse	basic	1-4	_	darbalaiks_2758_23694
1-2	4-6	LU	LU	yp	nmod	basic	1-3	organization[1]	darbalaiks_2758_23694
1-3	7-17	bibliotēka	bibliotēka	ncfsn4	nsubj	basic	1-4	organization[1]	darbalaiks_2758_23694
1-4	18-25	strādās	strādāt	vmnif_230an	root	basic	1-4	_	darbalaiks_2758_23694
1-5	26-30	tajā	tā	pd3fsln	det	basic	1-10	_	darbalaiks_2758_23694
1-6	31-38	brīvajā	brīvs	afmslyp	amod	basic	1-10	_	darbalaiks_2758_23694
1-7	39-40	(	(	zb	punct	basic	1-8	_	darbalaiks_2758_23694
1-8	40-49	Lieldienu	Lieldiena	ncfpg4	discourse	basic	1-6	event[2]	darbalaiks_2758_23694
1-9	49-50	)	)	zb	punct	basic	1-8	_	darbalaiks_2758_23694
1-10	51-57	nedēļā	nedēļa	ncfsl4	obl	basic	1-4	_	darbalaiks_2758_23694
1-11	57-58	?	?	zs	punct	basic	1-4	_	darbalaiks_2758_23694

#Text=LU Bibliotēkas darba laiks Lieldienās :  http://www.lu.lv/zinas/t/2495/
2-1	63-65	LU	LU	yp	nmod	basic	2-4	organization[3]	darbalaiks_2758_23696
2-2	66-77	Bibliotēkas	bibliotēka	ncfsg4	nmod	basic	2-3	organization[3]	darbalaiks_2758_23696
2-3	78-83	darba	darbs	ncmsg1	nmod	basic	2-4	organization[3]	darbalaiks_2758_23696
2-4	84-89	laiks	laiks	ncmsn1	root	basic	2-4	_	darbalaiks_2758_23696
2-5	90-100	Lieldienās	Lieldiena	ncfpl4	acl	basic	2-4	GPE[4]	darbalaiks_2758_23696
2-6	101-102	:	:	zo	punct	basic	2-7	_	darbalaiks_2758_23696
2-7	104-134	http://www.lu.lv/zinas/t/2495/	http://www.lu.lv/zinas/t/2495/	xx	parataxis	basic	2-4	_	darbalaiks_2758_23696
