#FORMAT=WebAnno TSV 3.2
#T_SP=de.tudarmstadt.ukp.dkpro.core.api.segmentation.type.Lemma|value
#T_SP=de.tudarmstadt.ukp.dkpro.core.api.lexmorph.type.pos.POS|PosValue
#T_RL=de.tudarmstadt.ukp.dkpro.core.api.syntax.type.dependency.Dependency|DependencyType|flavor|BT_de.tudarmstadt.ukp.dkpro.core.api.lexmorph.type.pos.POS
#T_SP=de.tudarmstadt.ukp.dkpro.core.api.ner.type.NamedEntity|value
#T_SP=webanno.custom.ID|value


#Text=Vai kāds zina, līdz cikiem šodien strādā studentu serviss 125. kabinetā Raiņa bulvārī.
1-1	0-3	Vai	vai	q	discourse	basic	1-3	_	darbalaiks_4376_34520
1-2	4-8	kāds	kāds	pi0msnn	nsubj	basic	1-3	_	darbalaiks_4376_34520
1-3	9-13	zina	zināt	vmnipt330an	root	basic	1-3	_	darbalaiks_4376_34520
1-4	13-14	,	,	zc	punct	basic	1-3	_	darbalaiks_4376_34520
1-5	15-19	līdz	līdz	sppd	case	basic	1-6	_	darbalaiks_4376_34520
1-6	20-26	cikiem	ciks	ncmpd1	obl	basic	1-8	_	darbalaiks_4376_34520
1-7	27-33	šodien	šodien	r0_	advmod	basic	1-8	_	darbalaiks_4376_34520
1-8	34-40	strādā	strādāt	vmnip_230an	conj	basic	1-3	_	darbalaiks_4376_34520
1-9	41-49	studentu	students	ncmpg1	nmod	basic	1-10	_	darbalaiks_4376_34520
1-10	50-57	serviss	serviss	ncmsn1	nsubj	basic	1-8	_	darbalaiks_4376_34520
1-11	58-62	125.	125.	xo	amod	basic	1-12	_	darbalaiks_4376_34520
1-12	63-71	kabinetā	kabinets	ncmsl1	nmod	basic	1-14	_	darbalaiks_4376_34520
1-13	72-77	Raiņa	Raiņs	ncmsg1	nmod	basic	1-14	location[1]	darbalaiks_4376_34520
1-14	78-85	bulvārī	bulvāris	ncmsl2	acl	basic	1-10	location[1]	darbalaiks_4376_34520
1-15	85-86	.	.	zs	punct	basic	1-3	_	darbalaiks_4376_34520

#Text=Studentu serviss: http://www.lu.lv/par/strukturvienibas-un-infrastruktura/departamenti/studentu-serviss/\nInformācijas un konsultāciju nodaļa (Turpat Raiņa bulv. 19, 125. telpa): http://www.lu.lv/par/strukturvienibas-un-infrastruktura/departamenti/studentu-serviss/informacijas-un-konsultaciju-nodala/
2-1	89-97	Studentu	students	ncmpg1	nmod	basic	2-2	organization[2]	darbalaiks_4376_34521
2-2	98-105	serviss	serviss	ncmsn1	root	basic	2-2	organization[2]	darbalaiks_4376_34521
2-3	105-106	:	:	zo	parataxis	basic	2-2	_	darbalaiks_4376_34521
2-4	107-193	http://www.lu.lv/par/strukturvienibas-un-infrastruktura/departamenti/studentu-serviss/	http://www.lu.lv/par/strukturvienibas-un-infrastruktura/departamenti/studentu-serviss/	xx	amod	basic	2-8	_	darbalaiks_4376_34521
2-5	194-206	Informācijas	informācija	ncfsg4	nmod	basic	2-8	organization[3]	darbalaiks_4376_34521
2-6	207-209	un	un	cc	cc	basic	2-7	organization[3]	darbalaiks_4376_34521
2-7	210-222	konsultāciju	konsultācija	ncfpg4	conj	basic	2-5	organization[3]	darbalaiks_4376_34521
2-8	223-229	nodaļa	nodaļa	ncfsn4	acl	basic	2-3	organization[3]	darbalaiks_4376_34521
2-9	230-231	(	(	zb	punct	basic	2-16	_	darbalaiks_4376_34521
2-10	231-237	Turpat	turpat	r0_	advmod	basic	2-11	_	darbalaiks_4376_34521
2-11	238-243	Raiņa	Raiņs	ncmsg1	nmod	basic	2-12	location[4]	darbalaiks_4376_34521
2-12	244-249	bulv.	bulv.	y	obl	basic	2-16	location[4]	darbalaiks_4376_34521
2-13	250-252	19	19	xn	acl	basic	2-12	location[4]	darbalaiks_4376_34521
2-14	252-253	,	,	zc	punct	basic	2-15	_	darbalaiks_4376_34521
2-15	254-258	125.	125.	xo	conj	basic	2-13	_	darbalaiks_4376_34521
2-16	259-264	telpa	telpa	ncfsn4	discourse	basic	2-8	_	darbalaiks_4376_34521
2-17	264-265	)	)	zb	punct	basic	2-16	_	darbalaiks_4376_34521
2-18	265-266	:	:	zo	punct	basic	2-19	_	darbalaiks_4376_34521
2-19	267-389	http://www.lu.lv/par/strukturvienibas-un-infrastruktura/departamenti/studentu-serviss/informacijas-un-konsultaciju-nodala/	http://www.lu.lv/par/strukturvienibas-un-infrastruktura/departamenti/studentu-serviss/informacijas-un-konsultaciju-nodala/	xx	parataxis	basic	2-2	_	darbalaiks_4376_34521
