#FORMAT=WebAnno TSV 3.2
#T_SP=de.tudarmstadt.ukp.dkpro.core.api.segmentation.type.Lemma|value
#T_SP=de.tudarmstadt.ukp.dkpro.core.api.lexmorph.type.pos.POS|PosValue
#T_RL=de.tudarmstadt.ukp.dkpro.core.api.syntax.type.dependency.Dependency|DependencyType|flavor|BT_de.tudarmstadt.ukp.dkpro.core.api.lexmorph.type.pos.POS
#T_SP=de.tudarmstadt.ukp.dkpro.core.api.ner.type.NamedEntity|value
#T_SP=webanno.custom.ID|value


#Text=Sveiki!
1-1	0-6	Sveiki	sveiks	afmpnnp	root	basic	1-1	_	darbalaiks_11570_90443
1-2	6-7	!	!	zs	punct	basic	1-1	_	darbalaiks_11570_90443

#Text=Kāds varētu, lūdzu, pateikt, kāds ir Ārijas Sproģes darba laiks šonedēļ?
2-1	8-12	Kāds	kāds	pq0msnn	nsubj	basic	2-2	_	darbalaiks_11570_90443
2-2	13-19	varētu	varēt	vonc0_300an	root	basic	2-2	_	darbalaiks_11570_90443
2-3	19-20	,	,	zc	punct	basic	2-6	_	darbalaiks_11570_90443
2-4	21-26	lūdzu	lūdzu	is	discourse	basic	2-6	_	darbalaiks_11570_90443
2-5	26-27	,	,	zc	punct	basic	2-4	_	darbalaiks_11570_90443
2-6	28-35	pateikt	pateikt	vmnn0t1000n	conj	basic	2-2	_	darbalaiks_11570_90443
2-7	35-36	,	,	zc	punct	basic	2-13	_	darbalaiks_11570_90443
2-8	37-41	kāds	kāds	pr0msnn	nsubj	basic	2-13	_	darbalaiks_11570_90443
2-9	42-44	ir	būt	vcnipii30an	cop	basic	2-8	_	darbalaiks_11570_90443
2-10	45-51	Ārijas	ārija	ncfsg4	nmod	basic	2-11	person[1]	darbalaiks_11570_90443
2-11	52-59	Sproģes	Sproģe	ncfsg5	nmod	basic	2-13	person[1]	darbalaiks_11570_90443
2-12	60-65	darba	darbs	ncmsg1	nmod	basic	2-13	_	darbalaiks_11570_90443
2-13	66-71	laiks	laiks	ncmsn1	ccomp	basic	2-6	_	darbalaiks_11570_90443
2-14	72-79	šonedēļ	šonedēļ	r0_	advmod	basic	2-13	_	darbalaiks_11570_90443
2-15	79-80	?	?	zs	punct	basic	2-2	_	darbalaiks_11570_90443

#Text=Sproģes kundze ir saslimusi.
3-1	83-90	Sproģes	Sproģe	ncfsg5	nmod	basic	3-2	person[2]	darbalaiks_11570_90446
3-2	91-97	kundze	kundze	ncfsn5	nsubj:pass	basic	3-4	person[2]	darbalaiks_11570_90446
3-3	98-100	ir	būt	vcnipii30an	aux:pass	basic	3-4	_	darbalaiks_11570_90446
3-4	101-110	saslimusi	saslimt	vmnpdfsnasnpn	root	basic	3-4	_	darbalaiks_11570_90446
3-5	110-111	.	.	zs	punct	basic	3-4	_	darbalaiks_11570_90446

#Text=Domājams, darbā būs no 25.marta.
4-1	112-120	Domājams	domāt	vmnpdmsnppnpn	discourse	basic	4-4	_	darbalaiks_11570_90446
4-2	120-121	,	,	zc	punct	basic	4-1	_	darbalaiks_11570_90446
4-3	122-127	darbā	darbs	ncmsl1	obl	basic	4-4	_	darbalaiks_11570_90446
4-4	128-131	būs	būt	vcnif_i30an	root	basic	4-4	_	darbalaiks_11570_90446
4-5	132-134	no	no	spsg	case	basic	4-7	time[3]	darbalaiks_11570_90446
4-6	135-138	25.	25.	xo	amod	basic	4-7	time[3]	darbalaiks_11570_90446
4-7	138-143	marta	marts	ncmsg1	obl	basic	4-4	time[3]	darbalaiks_11570_90446
4-8	143-144	.	.	zs	punct	basic	4-4	_	darbalaiks_11570_90446

#Text=Ja ir kas absolūti neatliekams, runājiet ar mani.
5-1	146-148	Ja	ja	cs	mark	basic	5-2	_	darbalaiks_11570_90446
5-2	149-151	ir	būt	vcnipii30an	advcl	basic	5-7	_	darbalaiks_11570_90446
5-3	152-155	kas	kas	pi000nn	nsubj	basic	5-2	_	darbalaiks_11570_90446
5-4	156-164	absolūti	absolūti	r0_	advmod	basic	5-5	_	darbalaiks_11570_90446
5-5	165-176	neatliekams	neatliekams	afmsnnp	acl	basic	5-3	_	darbalaiks_11570_90446
5-6	176-177	,	,	zc	punct	basic	5-5	_	darbalaiks_11570_90446
5-7	178-186	runājiet	runāt	vmnm0i22p_n	root	basic	5-7	_	darbalaiks_11570_90446
5-8	187-189	ar	ar	spsa	case	basic	5-9	_	darbalaiks_11570_90446
5-9	190-194	mani	es	pp10san	iobj	basic	5-7	_	darbalaiks_11570_90446
5-10	194-195	.	.	zs	punct	basic	5-7	_	darbalaiks_11570_90446

#Text=Prof. Juris Borzovs\nDatorikas fakultātes dekāns
6-1	197-202	Prof.	prof.	y	nmod	basic	6-2	person[4]	darbalaiks_11570_90446
6-2	203-208	Juris	Juris	npmsn2	root	basic	6-2	person[4]	darbalaiks_11570_90446
6-3	209-216	Borzovs	Borzovs	ncmsn1	flat:name	basic	6-2	person[4]	darbalaiks_11570_90446
6-4	217-226	Datorikas	Datorika	ncfsg4	nmod	basic	6-5	organization[5]	darbalaiks_11570_90446
6-5	227-237	fakultātes	fakultāte	ncfsg5	nmod	basic	6-6	organization[5]	darbalaiks_11570_90446
6-6	238-244	dekāns	dekāns	ncmsn1	flat:name	basic	6-2	_	darbalaiks_11570_90446
