#FORMAT=WebAnno TSV 3.2
#T_SP=de.tudarmstadt.ukp.dkpro.core.api.segmentation.type.Lemma|value
#T_SP=de.tudarmstadt.ukp.dkpro.core.api.lexmorph.type.pos.POS|PosValue
#T_RL=de.tudarmstadt.ukp.dkpro.core.api.syntax.type.dependency.Dependency|DependencyType|flavor|BT_de.tudarmstadt.ukp.dkpro.core.api.lexmorph.type.pos.POS
#T_SP=de.tudarmstadt.ukp.dkpro.core.api.ner.type.NamedEntity|value
#T_SP=webanno.custom.ID|value


#Text=Sakiet, lūdzu, kādi ir pieņemšanas laiki Latvijas Universitātes Akadēmiskajā departamentā, Raiņa bulv. 19, 243. telpā?
1-1	0-6	Sakiet	sacīt	vmnm0t32pan	root	basic	1-1	_	darbalaiks_19887_149197
1-2	6-7	,	,	zc	punct	basic	1-3	_	darbalaiks_19887_149197
1-3	8-13	lūdzu	lūdzu	is	discourse	basic	1-8	_	darbalaiks_19887_149197
1-4	13-14	,	,	zc	punct	basic	1-3	_	darbalaiks_19887_149197
1-5	15-19	kādi	kāds	pr0mpnn	nsubj	basic	1-8	_	darbalaiks_19887_149197
1-6	20-22	ir	būt	vcnipii30an	cop	basic	1-8	_	darbalaiks_19887_149197
1-7	23-34	pieņemšanas	pieņemšana	ncfsg4	nmod	basic	1-8	_	darbalaiks_19887_149197
1-8	35-40	laiki	laiks	ncmpn1	ccomp	basic	1-1	_	darbalaiks_19887_149197
1-9	41-49	Latvijas	Latvija	npfsg4	nmod	basic	1-10	organization[1]	darbalaiks_19887_149197
1-10	50-63	Universitātes	universitāte	ncfsg5	nmod	basic	1-12	organization[1]	darbalaiks_19887_149197
1-11	64-76	Akadēmiskajā	akadēmisks	afmslyp	amod	basic	1-12	organization[1]	darbalaiks_19887_149197
1-12	77-89	departamentā	departaments	ncmsl1	obl	basic	1-8	organization[1]	darbalaiks_19887_149197
1-13	89-90	,	,	zc	punct	basic	1-19	_	darbalaiks_19887_149197
1-14	91-96	Raiņa	Raiņs	ncmsg1	nmod	basic	1-15	location[2]	darbalaiks_19887_149197
1-15	97-102	bulv.	bulv.	y	conj	basic	1-19	location[2]	darbalaiks_19887_149197
1-16	103-105	19	19	xn	acl	basic	1-15	location[2]	darbalaiks_19887_149197
1-17	105-106	,	,	zc	punct	basic	1-19	_	darbalaiks_19887_149197
1-18	107-111	243.	243.	xo	amod	basic	1-19	_	darbalaiks_19887_149197
1-19	112-117	telpā	telpa	ncfsl4	conj	basic	1-12	_	darbalaiks_19887_149197
1-20	117-118	?	?	zs	punct	basic	1-1	_	darbalaiks_19887_149197

#Text=Paldies!
2-1	119-126	Paldies	paldies	is	root	basic	2-1	_	darbalaiks_19887_149197
2-2	126-127	!	!	zs	punct	basic	2-1	_	darbalaiks_19887_149197

#Text=Zvaniet uz tālruņa numuru 7034311 un Jums precīzi atbildēs.
3-1	129-136	Zvaniet	zvanīt	vmnm0_32pan	root	basic	3-1	_	darbalaiks_19887_149198
3-2	137-139	uz	uz	sp__	case	basic	3-4	_	darbalaiks_19887_149198
3-3	140-147	tālruņa	tālrunis	ncmsg2	nmod	basic	3-4	_	darbalaiks_19887_149198
3-4	148-154	numuru	numurs	ncmsa1	obl	basic	3-1	_	darbalaiks_19887_149198
3-5	155-162	7034311	7034311	xn	dep	basic	3-4	_	darbalaiks_19887_149198
3-6	163-165	un	un	cc	cc	basic	3-9	_	darbalaiks_19887_149198
3-7	166-170	Jums	jūs	pp20pdn	obl	basic	3-9	_	darbalaiks_19887_149198
3-8	171-178	precīzi	precīzi	r0_	advmod	basic	3-9	_	darbalaiks_19887_149198
3-9	179-187	atbildēs	atbildēt	vmnif_330an	conj	basic	3-1	_	darbalaiks_19887_149198
3-10	187-188	.	.	zs	punct	basic	3-1	_	darbalaiks_19887_149198
