#FORMAT=WebAnno TSV 3.2
#T_SP=de.tudarmstadt.ukp.dkpro.core.api.segmentation.type.Lemma|value
#T_SP=de.tudarmstadt.ukp.dkpro.core.api.lexmorph.type.pos.POS|PosValue
#T_RL=de.tudarmstadt.ukp.dkpro.core.api.syntax.type.dependency.Dependency|DependencyType|flavor|BT_de.tudarmstadt.ukp.dkpro.core.api.lexmorph.type.pos.POS
#T_SP=de.tudarmstadt.ukp.dkpro.core.api.ner.type.NamedEntity|value
#T_SP=webanno.custom.ID|value


#Text=Lūdzu palīdziet, kā strādā tā studentu pašpārvalde?? No cikiem līdz cikiem?? Jau kuro dienu mēģinu tikt pēc izziņas braukšanas kartiņai, bet tur ir ciet!!!
1-1	0-5	Lūdzu	lūdzu	is	discourse	basic	1-2	_	darbalaiks_7582_58332
1-2	6-15	palīdziet	palīdzēt	vmnm0i32pan	root	basic	1-2	_	darbalaiks_7582_58332
1-3	15-16	,	,	zc	punct	basic	1-5	_	darbalaiks_7582_58332
1-4	17-19	kā	kā	r0_	advmod	basic	1-5	_	darbalaiks_7582_58332
1-5	20-26	strādā	strādāt	vmnip_230an	ccomp	basic	1-2	_	darbalaiks_7582_58332
1-6	27-29	tā	tas	pd3msgn	det	basic	1-8	_	darbalaiks_7582_58332
1-7	30-38	studentu	students	ncmpg1	nmod	basic	1-8	_	darbalaiks_7582_58332
1-8	39-50	pašpārvalde	pašpārvalde	ncfsn5	nsubj	basic	1-5	_	darbalaiks_7582_58332
1-9	50-52	??	??	zs	punct	basic	1-10	_	darbalaiks_7582_58332
1-10	53-55	No	No	xf	obj	basic	1-5	_	darbalaiks_7582_58332
1-11	56-62	cikiem	ciks	ncmpd1	iobj	basic	1-10	_	darbalaiks_7582_58332
1-12	63-67	līdz	līdz	sppd	case	basic	1-13	_	darbalaiks_7582_58332
1-13	68-74	cikiem	ciks	ncmpd1	nmod	basic	1-10	_	darbalaiks_7582_58332
1-14	74-76	??	??	zs	punct	basic	1-18	_	darbalaiks_7582_58332
1-15	77-80	Jau	jau	r0_	advmod	basic	1-18	_	darbalaiks_7582_58332
1-16	81-85	kuro	kuro	pi0fsa_	det	basic	1-17	_	darbalaiks_7582_58332
1-17	86-91	dienu	diena	ncfsa4	obl	basic	1-18	_	darbalaiks_7582_58332
1-18	92-98	mēģinu	mēģināt	vonip_31san	conj	basic	1-2	_	darbalaiks_7582_58332
1-19	99-103	tikt	tikt	vtnn0i1000n	xcomp	basic	1-18	_	darbalaiks_7582_58332
1-20	104-107	pēc	pēc	spsg	case	basic	1-22	_	darbalaiks_7582_58332
1-21	108-115	izziņas	izziņa	ncfsg4	nmod	basic	1-22	_	darbalaiks_7582_58332
1-22	116-126	braukšanas	braukšana	ncfsg4	obl	basic	1-19	_	darbalaiks_7582_58332
1-23	127-135	kartiņai	kartiņa	ncfsd4	iobj	basic	1-19	_	darbalaiks_7582_58332
1-24	135-136	,	,	zc	punct	basic	1-28	_	darbalaiks_7582_58332
1-25	137-140	bet	bet	cc	cc	basic	1-28	_	darbalaiks_7582_58332
1-26	141-144	tur	tur	r0_	advmod	basic	1-28	_	darbalaiks_7582_58332
1-27	145-147	ir	būt	vcnipii30an	cop	basic	1-28	_	darbalaiks_7582_58332
1-28	148-152	ciet	ciet	r0_	conj	basic	1-18	_	darbalaiks_7582_58332
1-29	152-155	!!!	!!!	zs	punct	basic	1-2	_	darbalaiks_7582_58332

#Text=Aizej uz 109. kabinetu (studentu serviss) ar studenta apliecību.
2-1	157-162	Aizej	aiziet	vmnm0i12san	root	basic	2-1	_	darbalaiks_7582_58333
2-2	163-165	uz	uz	sp__	case	basic	2-4	_	darbalaiks_7582_58333
2-3	166-170	109.	109.	xo	amod	basic	2-4	organization[1]	darbalaiks_7582_58333
2-4	171-179	kabinetu	kabinets	ncmsa1	obl	basic	2-1	organization[1]	darbalaiks_7582_58333
2-5	180-181	(	(	zb	punct	basic	2-7	_	darbalaiks_7582_58333
2-6	181-189	studentu	students	ncmpg1	nmod	basic	2-7	_	darbalaiks_7582_58333
2-7	190-197	serviss	serviss	ncmsn1	discourse	basic	2-1	_	darbalaiks_7582_58333
2-8	197-198	)	)	zb	punct	basic	2-7	_	darbalaiks_7582_58333
2-9	199-201	ar	ar	spsa	case	basic	2-11	_	darbalaiks_7582_58333
2-10	202-210	studenta	students	ncmsg1	nmod	basic	2-11	_	darbalaiks_7582_58333
2-11	211-220	apliecību	apliecība	ncfsa4	iobj	basic	2-7	_	darbalaiks_7582_58333
2-12	220-221	.	.	zs	punct	basic	2-1	_	darbalaiks_7582_58333

#Text=Tur izsniedz izziņas.
3-1	222-225	Tur	tur	r0_	advmod	basic	3-2	_	darbalaiks_7582_58333
3-2	226-234	izsniedz	izsniegt	vmnipt130an	root	basic	3-2	_	darbalaiks_7582_58333
3-3	235-242	izziņas	izziņa	ncfpa4	obj	basic	3-2	_	darbalaiks_7582_58333
3-4	242-243	.	.	zs	punct	basic	3-2	_	darbalaiks_7582_58333
