#FORMAT=WebAnno TSV 3.2
#T_SP=de.tudarmstadt.ukp.dkpro.core.api.segmentation.type.Lemma|value
#T_SP=de.tudarmstadt.ukp.dkpro.core.api.lexmorph.type.pos.POS|PosValue
#T_RL=de.tudarmstadt.ukp.dkpro.core.api.syntax.type.dependency.Dependency|DependencyType|flavor|BT_de.tudarmstadt.ukp.dkpro.core.api.lexmorph.type.pos.POS
#T_SP=de.tudarmstadt.ukp.dkpro.core.api.ner.type.NamedEntity|value
#T_SP=webanno.custom.ID|value


#Text=Kur var uzzināt MVF sekretāres J.Zālītes darba laikus?
1-1	0-3	Kur	kur	r0_	advmod	basic	1-2	_	darbalaiks_10596_81032
1-2	4-7	var	varēt	vonip_330an	root	basic	1-2	_	darbalaiks_10596_81032
1-3	8-15	uzzināt	uzzināt	vmnn0t3000n	xcomp	basic	1-2	_	darbalaiks_10596_81032
1-4	16-19	MVF	MVF	y	nmod	basic	1-5	organization[1]	darbalaiks_10596_81032
1-5	20-30	sekretāres	sekretāre	ncfsg5	nmod	basic	1-6	_	darbalaiks_10596_81032
1-6	31-33	J.	j.	y	nmod	basic	1-9	person[2]	darbalaiks_10596_81032
1-7	33-40	Zālītes	Zālīte	npfsg5	nmod	basic	1-9	person[2]	darbalaiks_10596_81032
1-8	41-46	darba	darbs	ncmsg1	nmod	basic	1-9	_	darbalaiks_10596_81032
1-9	47-53	laikus	laiks	ncmpa1	obj	basic	1-3	_	darbalaiks_10596_81032
1-10	53-54	?	?	zs	punct	basic	1-2	_	darbalaiks_10596_81032

#Text=Jo vienmēr, kad mēģinu pie viņas tikt, viņas nav.
2-1	55-57	Jo	jo	cs	mark	basic	2-2	_	darbalaiks_10596_81032
2-2	58-65	vienmēr	vienmēr	r0_	advcl	basic	2-11	_	darbalaiks_10596_81032
2-3	65-66	,	,	zc	punct	basic	2-5	_	darbalaiks_10596_81032
2-4	67-70	kad	kad	r0_	advmod	basic	2-5	_	darbalaiks_10596_81032
2-5	71-77	mēģinu	mēģināt	vonip_31san	advcl	basic	2-2	_	darbalaiks_10596_81032
2-6	78-81	pie	pie	spsg	case	basic	2-7	_	darbalaiks_10596_81032
2-7	82-87	viņas	viņa	pp3fsgn	iobj	basic	2-8	_	darbalaiks_10596_81032
2-8	88-92	tikt	tikt	vtnn0i1000n	xcomp	basic	2-5	_	darbalaiks_10596_81032
2-9	92-93	,	,	zc	punct	basic	2-5	_	darbalaiks_10596_81032
2-10	94-99	viņas	viņa	pp3fpnn	nsubj	basic	2-11	_	darbalaiks_10596_81032
2-11	100-103	nav	nebūt	vmnipii30ay	root	basic	2-11	_	darbalaiks_10596_81032
2-12	103-104	.	.	zs	punct	basic	2-11	_	darbalaiks_10596_81032

#Text=Fakultātes sekretāre: Jolanta Zālīte\n333.kabinets\nTālr.: 67034812\nE-pasts: jolanta.zalite@lu.lv
3-1	106-116	Fakultātes	fakultāte	ncfsg5	nmod	basic	3-2	_	darbalaiks_10596_81033
3-2	117-126	sekretāre	sekretāre	ncfsn5	nmod	basic	3-4	_	darbalaiks_10596_81033
3-3	126-127	:	:	zo	punct	basic	3-2	_	darbalaiks_10596_81033
3-4	128-135	Jolanta	Jolanta	npfsn4	nmod	basic	3-7	person[3]	darbalaiks_10596_81033
3-5	136-142	Zālīte	Zālīte	npfsn5	flat:name	basic	3-4	person[3]	darbalaiks_10596_81033
3-6	143-147	333.	333.	xo	amod	basic	3-7	_	darbalaiks_10596_81033
3-7	147-155	kabinets	kabinets	ncmsn1	root	basic	3-7	_	darbalaiks_10596_81033
3-8	156-161	Tālr.	tālr.	y	acl	basic	3-7	_	darbalaiks_10596_81033
3-9	161-162	:	:	zo	punct	basic	3-11	_	darbalaiks_10596_81033
3-10	163-171	67034812	67034812	xn	nummod	basic	3-11	_	darbalaiks_10596_81033
3-11	172-179	E-pasts	E-pasts	ncmsn1	acl	basic	3-7	_	darbalaiks_10596_81033
3-12	179-180	:	:	zo	punct	basic	3-13	_	darbalaiks_10596_81033
3-13	181-201	jolanta.zalite@lu.lv	jolanta.zalite@lu.lv	xx	parataxis	basic	3-7	_	darbalaiks_10596_81033

#Text=Variet pat doties uz noraadiito kabinetu un visu noskaidrot personiigi!
4-1	203-209	Variet	varēt	vonm0_32pan	root	basic	4-1	_	darbalaiks_10596_81035
4-2	210-213	pat	pat	q	discourse	basic	4-3	_	darbalaiks_10596_81035
4-3	214-220	doties	doties	vmyn0_1000n	ccomp	basic	4-1	_	darbalaiks_10596_81035
4-4	221-223	uz	uz	spsa	case	basic	4-6	_	darbalaiks_10596_81035
4-5	224-234	noraadiito	noraadiits	afmpgy_	amod	basic	4-6	_	darbalaiks_10596_81035
4-6	235-243	kabinetu	kabinets	ncmsa1	obl	basic	4-3	_	darbalaiks_10596_81035
4-7	244-246	un	un	cc	cc	basic	4-9	_	darbalaiks_10596_81035
4-8	247-251	visu	viss	pg0msan	obj	basic	4-9	_	darbalaiks_10596_81035
4-9	252-262	noskaidrot	noskaidrot	vmnn0t2000n	conj	basic	4-6	_	darbalaiks_10596_81035
4-10	263-273	personiigi	personiigis	ncmsa2	obj	basic	4-9	_	darbalaiks_10596_81035
4-11	273-274	!	!	zs	punct	basic	4-1	_	darbalaiks_10596_81035

#Text=Tikai viņas tur nekad nav.
5-1	276-281	Tikai	tikai	q	discourse	basic	5-5	_	darbalaiks_10596_81036
5-2	282-287	viņas	viņa	pp3fpnn	nsubj	basic	5-5	_	darbalaiks_10596_81036
5-3	288-291	tur	tur	r0_	advmod	basic	5-5	_	darbalaiks_10596_81036
5-4	292-297	nekad	nekad	r0_	advmod	basic	5-5	_	darbalaiks_10596_81036
5-5	298-301	nav	nebūt	vmnipii30ay	root	basic	5-5	_	darbalaiks_10596_81036
5-6	301-302	.	.	zs	punct	basic	5-5	_	darbalaiks_10596_81036

#Text=Tādā gadījumā uzrakstiet e-pastu vai uzzvaniet uz norādīto tālruņa numuru un noskaidrosiet!
6-1	304-308	Tādā	tāds	pd0msln	det	basic	6-2	_	darbalaiks_10596_81037
6-2	309-317	gadījumā	gadījums	ncmsl1	obl	basic	6-3	_	darbalaiks_10596_81037
6-3	318-328	uzrakstiet	uzrakstīt	vmnm0t32pan	root	basic	6-3	_	darbalaiks_10596_81037
6-4	329-336	e-pastu	e-pasts	ncmsa1	obj	basic	6-3	_	darbalaiks_10596_81037
6-5	337-340	vai	vai	cs	cc	basic	6-6	_	darbalaiks_10596_81037
6-6	341-350	uzzvaniet	uzzvanīt	vmnm0_32pan	conj	basic	6-3	_	darbalaiks_10596_81037
6-7	351-353	uz	uz	sp__	case	basic	6-10	_	darbalaiks_10596_81037
6-8	354-362	norādīto	norādīt	vmnpdmsapsypn	amod	basic	6-10	_	darbalaiks_10596_81037
6-9	363-370	tālruņa	tālrunis	ncmsg2	nmod	basic	6-10	_	darbalaiks_10596_81037
6-10	371-377	numuru	numurs	ncmpg1	iobj	basic	6-6	_	darbalaiks_10596_81037
6-11	378-380	un	un	cc	cc	basic	6-12	_	darbalaiks_10596_81037
6-12	381-394	noskaidrosiet	noskaidrot	vmnift22pan	conj	basic	6-3	_	darbalaiks_10596_81037
6-13	394-395	!	!	zs	punct	basic	6-3	_	darbalaiks_10596_81037
