#FORMAT=WebAnno TSV 3.2
#T_SP=de.tudarmstadt.ukp.dkpro.core.api.segmentation.type.Lemma|value
#T_SP=de.tudarmstadt.ukp.dkpro.core.api.lexmorph.type.pos.POS|PosValue
#T_RL=de.tudarmstadt.ukp.dkpro.core.api.syntax.type.dependency.Dependency|DependencyType|flavor|BT_de.tudarmstadt.ukp.dkpro.core.api.lexmorph.type.pos.POS
#T_SP=de.tudarmstadt.ukp.dkpro.core.api.ner.type.NamedEntity|value
#T_SP=webanno.custom.ID|value


#Text=Nevaru atrast EVF lietvedes darba laiku.
1-1	0-6	Nevaru	nevarēt	vonip_31san	root	basic	1-1	_	darbalaiks_17070_128487
1-2	7-13	atrast	atrast	vmnn0i1000n	xcomp	basic	1-1	_	darbalaiks_17070_128487
1-3	14-17	EVF	EVF	y	nmod	basic	1-6	organization[1]	darbalaiks_17070_128487
1-4	18-27	lietvedes	lietvede	ncfsg5	nmod	basic	1-6	_	darbalaiks_17070_128487
1-5	28-33	darba	darbs	ncmsg1	nmod	basic	1-6	_	darbalaiks_17070_128487
1-6	34-39	laiku	laiks	ncmsa1	obj	basic	1-2	_	darbalaiks_17070_128487
1-7	39-40	.	.	zs	punct	basic	1-1	_	darbalaiks_17070_128487

#Text=Vai vari palīdzēt?
2-1	41-44	Vai	vai	cs	cc	basic	2-2	_	darbalaiks_17070_128487
2-2	45-49	vari	varēt	vonip_32san	root	basic	2-2	_	darbalaiks_17070_128487
2-3	50-58	palīdzēt	palīdzēt	vmnn0i3000n	xcomp	basic	2-2	_	darbalaiks_17070_128487
2-4	58-59	?	?	zs	punct	basic	2-2	_	darbalaiks_17070_128487

#Text=Lietvežu darba laiki nav mājas lapā, tā ka tos varat noskaidrot fakultātē vai iepriekš piezvanot lietvežiem.
3-1	61-69	Lietvežu	lietvedis	ncmpg2	nmod	basic	3-2	_	darbalaiks_17070_128488
3-2	70-75	darba	darbs	ncmsg1	nmod	basic	3-3	_	darbalaiks_17070_128488
3-3	76-81	laiki	laiks	ncmpn1	nsubj	basic	3-4	_	darbalaiks_17070_128488
3-4	82-85	nav	nebūt	vcnipii30ay	root	basic	3-4	_	darbalaiks_17070_128488
3-5	86-91	mājas	māja	ncfsg4	nmod	basic	3-6	_	darbalaiks_17070_128488
3-6	92-96	lapā	lapa	ncfsl4	obl	basic	3-4	_	darbalaiks_17070_128488
3-7	96-97	,	,	zc	punct	basic	3-11	_	darbalaiks_17070_128488
3-8	98-100	tā	tā	r0_	advmod	basic	3-11	_	darbalaiks_17070_128488
3-9	101-103	ka	ka	cs	mark	basic	3-11	_	darbalaiks_17070_128488
3-10	104-107	tos	tas	pd3mpan	obj	basic	3-11	_	darbalaiks_17070_128488
3-11	108-113	varat	varēt	vonip_32pan	advcl	basic	3-4	_	darbalaiks_17070_128488
3-12	114-124	noskaidrot	noskaidrot	vmnn0t2000n	xcomp	basic	3-11	_	darbalaiks_17070_128488
3-13	125-134	fakultātē	fakultāte	ncfsl5	obl	basic	3-12	_	darbalaiks_17070_128488
3-14	135-138	vai	vai	cs	cc	basic	3-16	_	darbalaiks_17070_128488
3-15	139-147	iepriekš	iepriekš	r0_	advmod	basic	3-16	_	darbalaiks_17070_128488
3-16	148-157	piezvanot	piezvanīt	vmnpu0000000n	conj	basic	3-12	_	darbalaiks_17070_128488
3-17	158-168	lietvežiem	lietvedis	ncmpd2	iobj	basic	3-16	_	darbalaiks_17070_128488
3-18	168-169	.	.	zs	punct	basic	3-4	_	darbalaiks_17070_128488
