#FORMAT=WebAnno TSV 3.2
#T_SP=de.tudarmstadt.ukp.dkpro.core.api.segmentation.type.Lemma|value
#T_SP=de.tudarmstadt.ukp.dkpro.core.api.lexmorph.type.pos.POS|PosValue
#T_RL=de.tudarmstadt.ukp.dkpro.core.api.syntax.type.dependency.Dependency|DependencyType|flavor|BT_de.tudarmstadt.ukp.dkpro.core.api.lexmorph.type.pos.POS
#T_SP=de.tudarmstadt.ukp.dkpro.core.api.ner.type.NamedEntity|value
#T_SP=webanno.custom.ID|value


#Text=Ruru, saki, lūdzu, vadībzinību dekanāts strādā sestdien un svētdien un līdz cikiem tas strādā darbdienās?
1-1	0-4	Ruru	Rura	ncfsa4	obj	basic	1-3	person[1]	darbalaiks_21792_164245
1-2	4-5	,	,	zc	punct	basic	1-1	_	darbalaiks_21792_164245
1-3	6-10	saki	sacīt	vmnipt32san	root	basic	1-3	_	darbalaiks_21792_164245
1-4	10-11	,	,	zc	punct	basic	1-5	_	darbalaiks_21792_164245
1-5	12-17	lūdzu	lūdzu	is	discourse	basic	1-9	_	darbalaiks_21792_164245
1-6	17-18	,	,	zc	punct	basic	1-5	_	darbalaiks_21792_164245
1-7	19-30	vadībzinību	vadībzinība	ncfpg4	nmod	basic	1-8	_	darbalaiks_21792_164245
1-8	31-39	dekanāts	dekanāts	ncmsn1	nsubj	basic	1-9	_	darbalaiks_21792_164245
1-9	40-46	strādā	strādāt	vmnip_230an	acl	basic	1-3	_	darbalaiks_21792_164245
1-10	47-55	sestdien	sestdien	r0_	advmod	basic	1-9	time[2]	darbalaiks_21792_164245
1-11	56-58	un	un	cc	cc	basic	1-17	_	darbalaiks_21792_164245
1-12	59-67	svētdien	svētdien	r0_	conj	basic	1-11	time[3]	darbalaiks_21792_164245
1-13	68-70	un	un	cc	cc	basic	1-17	time[3]	darbalaiks_21792_164245
1-14	71-75	līdz	līdz	sppd	case	basic	1-15	time[3]	darbalaiks_21792_164245
1-15	76-82	cikiem	ciks	ncmpd1	obl	basic	1-17	time[3]	darbalaiks_21792_164245
1-16	83-86	tas	tas	pd3msnn	nsubj	basic	1-17	_	darbalaiks_21792_164245
1-17	87-93	strādā	strādāt	vmnip_230an	conj	basic	1-9	_	darbalaiks_21792_164245
1-18	94-104	darbdienās	darbdiena	ncfpl4	obl	basic	1-17	_	darbalaiks_21792_164245
1-19	104-105	?	?	zs	punct	basic	1-9	_	darbalaiks_21792_164245

#Text=Vienkārši 25. datumā individuāli kārtošu eksāmenu līdz 18:00 un uztraucos par to, vai paspēšu nodot individuālo lapu ar atzīmi, lai līdz 27. datumam paspēj LUISā ievadīt atzīmi un neveidojas parāds.
2-1	106-115	Vienkārši	vienkārši	r0_	advmod	basic	2-3	_	darbalaiks_21792_164245
2-2	116-119	25.	25.	xo	amod	basic	2-3	_	darbalaiks_21792_164245
2-3	120-126	datumā	datums	ncmsl1	obl	basic	2-5	_	darbalaiks_21792_164245
2-4	127-138	individuāli	individuāli	r0_	advmod	basic	2-5	_	darbalaiks_21792_164245
2-5	139-146	kārtošu	kārtot	vmnift21san	root	basic	2-5	_	darbalaiks_21792_164245
2-6	147-155	eksāmenu	eksāmens	ncmsa1	obj	basic	2-5	_	darbalaiks_21792_164245
2-7	156-160	līdz	līdz	spsd	case	basic	2-8	_	darbalaiks_21792_164245
2-8	161-166	18:00	18:00	xx	obl	basic	2-5	_	darbalaiks_21792_164245
2-9	167-169	un	un	cc	cc	basic	2-10	_	darbalaiks_21792_164245
2-10	170-179	uztraucos	uztraukties	vmyip_11san	conj	basic	2-5	_	darbalaiks_21792_164245
2-11	180-183	par	par	spsa	case	basic	2-12	_	darbalaiks_21792_164245
2-12	184-186	to	tas	pd3msan	iobj	basic	2-10	_	darbalaiks_21792_164245
2-13	186-187	,	,	zc	punct	basic	2-15	_	darbalaiks_21792_164245
2-14	188-191	vai	vai	cs	mark	basic	2-15	_	darbalaiks_21792_164245
2-15	192-199	paspēšu	paspēt	vmnift11san	ccomp	basic	2-12	_	darbalaiks_21792_164245
2-16	200-205	nodot	nodot	vmnn0t1000n	xcomp	basic	2-15	_	darbalaiks_21792_164245
2-17	206-217	individuālo	individuāls	afmpgyp	amod	basic	2-18	_	darbalaiks_21792_164245
2-18	218-222	lapu	lapa	ncfsa4	obj	basic	2-16	_	darbalaiks_21792_164245
2-19	223-225	ar	ar	spsa	case	basic	2-20	_	darbalaiks_21792_164245
2-20	226-232	atzīmi	atzīme	ncfsa5	nmod	basic	2-18	_	darbalaiks_21792_164245
2-21	232-233	,	,	zc	punct	basic	2-26	_	darbalaiks_21792_164245
2-22	234-237	lai	lai	cs	mark	basic	2-26	_	darbalaiks_21792_164245
2-23	238-242	līdz	līdz	spsd	case	basic	2-25	time[4]	darbalaiks_21792_164245
2-24	243-246	27.	27.	xo	amod	basic	2-25	time[4]	darbalaiks_21792_164245
2-25	247-254	datumam	datums	ncmsd1	obl	basic	2-26	time[4]	darbalaiks_21792_164245
2-26	255-261	paspēj	paspēt	vmnipt130an	advcl	basic	2-15	_	darbalaiks_21792_164245
2-27	262-267	LUISā	Luisa	ncfsl4	obl	basic	2-28	person[5]	darbalaiks_21792_164245
2-28	268-275	ievadīt	ievadīt	vmnn0t3000n	xcomp	basic	2-26	_	darbalaiks_21792_164245
2-29	276-282	atzīmi	atzīme	ncfsa5	obj	basic	2-28	_	darbalaiks_21792_164245
2-30	283-285	un	un	cc	cc	basic	2-31	_	darbalaiks_21792_164245
2-31	286-296	neveidojas	neveidoties	vmyip_230ay	conj	basic	2-26	_	darbalaiks_21792_164245
2-32	297-303	parāds	parāds	ncmsn1	nsubj	basic	2-31	_	darbalaiks_21792_164245
2-33	303-304	.	.	zs	punct	basic	2-5	_	darbalaiks_21792_164245

#Text=Kā tu domā, vai viss būs kārtībā?
3-1	305-307	Kā	kā	r0_	advmod	basic	3-3	_	darbalaiks_21792_164245
3-2	308-310	tu	tu	pp20snn	nsubj	basic	3-3	_	darbalaiks_21792_164245
3-3	311-315	domā	domāt	vmnip_22san	root	basic	3-3	_	darbalaiks_21792_164245
3-4	315-316	,	,	zc	punct	basic	3-3	_	darbalaiks_21792_164245
3-5	317-320	vai	vai	cs	mark	basic	3-7	_	darbalaiks_21792_164245
3-6	321-325	viss	viss	pg0msnn	nsubj	basic	3-7	_	darbalaiks_21792_164245
3-7	326-329	būs	būt	vcnif_i30an	ccomp	basic	3-4	_	darbalaiks_21792_164245
3-8	330-337	kārtībā	kārtība	ncfsl4	obl	basic	3-7	_	darbalaiks_21792_164245
3-9	337-338	?	?	zs	punct	basic	3-3	_	darbalaiks_21792_164245
