#FORMAT=WebAnno TSV 3.2
#T_SP=de.tudarmstadt.ukp.dkpro.core.api.segmentation.type.Lemma|value
#T_SP=de.tudarmstadt.ukp.dkpro.core.api.lexmorph.type.pos.POS|PosValue
#T_RL=de.tudarmstadt.ukp.dkpro.core.api.syntax.type.dependency.Dependency|DependencyType|flavor|BT_de.tudarmstadt.ukp.dkpro.core.api.lexmorph.type.pos.POS
#T_SP=de.tudarmstadt.ukp.dkpro.core.api.ner.type.NamedEntity|value
#T_SP=webanno.custom.ID|value


#Text=Kad un no cikiem līdz cikiem pieņem VFF dekāns?
1-1	0-3	Kad	kad	r0_	advmod	basic	1-7	_	darbalaiks_22701_170906
1-2	4-6	un	un	cc	cc	basic	1-7	_	darbalaiks_22701_170906
1-3	7-9	no	no	sppd	case	basic	1-4	_	darbalaiks_22701_170906
1-4	10-16	cikiem	ciks	ncmpd1	obl	basic	1-7	_	darbalaiks_22701_170906
1-5	17-21	līdz	līdz	sppd	case	basic	1-6	_	darbalaiks_22701_170906
1-6	22-28	cikiem	ciks	ncmpd1	obl	basic	1-7	_	darbalaiks_22701_170906
1-7	29-35	pieņem	pieņemt	vmnipt130an	root	basic	1-7	_	darbalaiks_22701_170906
1-8	36-39	VFF	VFF	y	nsubj	basic	1-7	organization[1]	darbalaiks_22701_170906
1-9	40-46	dekāns	dekāns	ncmsn1	flat:name	basic	1-8	_	darbalaiks_22701_170906
1-10	46-47	?	?	zs	punct	basic	1-7	_	darbalaiks_22701_170906

#Text=Iesāku uzzvanīt fakultātē un tur arī pajautāt.
2-1	49-55	Iesāku	iesākt	vpnipt11san	root	basic	2-1	_	darbalaiks_22701_170907
2-2	56-64	uzzvanīt	uzzvanīt	vmnn0_3000n	xcomp	basic	2-1	_	darbalaiks_22701_170907
2-3	65-74	fakultātē	fakultāte	ncfsl5	obl	basic	2-2	_	darbalaiks_22701_170907
2-4	75-77	un	un	cc	cc	basic	2-7	_	darbalaiks_22701_170907
2-5	78-81	tur	tur	r0_	advmod	basic	2-7	_	darbalaiks_22701_170907
2-6	82-85	arī	arī	q	discourse	basic	2-7	_	darbalaiks_22701_170907
2-7	86-94	pajautāt	pajautāt	vmnn0t2000n	conj	basic	2-2	_	darbalaiks_22701_170907
2-8	94-95	.	.	zs	punct	basic	2-1	_	darbalaiks_22701_170907

#Text=67289862
3-1	96-104	67289862	67289862	xn	root	basic	3-1	_	darbalaiks_22701_170907
