#FORMAT=WebAnno TSV 3.2
#T_SP=de.tudarmstadt.ukp.dkpro.core.api.segmentation.type.Lemma|value
#T_SP=de.tudarmstadt.ukp.dkpro.core.api.lexmorph.type.pos.POS|PosValue
#T_RL=de.tudarmstadt.ukp.dkpro.core.api.syntax.type.dependency.Dependency|DependencyType|flavor|BT_de.tudarmstadt.ukp.dkpro.core.api.lexmorph.type.pos.POS
#T_SP=de.tudarmstadt.ukp.dkpro.core.api.ner.type.NamedEntity|value
#T_SP=webanno.custom.ID|value


#Text=Vai LU bibliotēkas strādās nākamnedēļ, kad mācības nenotiks?
1-1	0-3	Vai	vai	q	discourse	basic	1-4	_	darbalaiks_12023_94057
1-2	4-6	LU	LU	yp	nmod	basic	1-4	organization[1]	darbalaiks_12023_94057
1-3	7-18	bibliotēkas	bibliotēka	ncfpn4	nsubj	basic	1-4	organization[1]	darbalaiks_12023_94057
1-4	19-26	strādās	strādāt	vmnif_230an	root	basic	1-4	_	darbalaiks_12023_94057
1-5	27-37	nākamnedēļ	nākamnedēļ	r0_	advmod	basic	1-4	_	darbalaiks_12023_94057
1-6	37-38	,	,	zc	punct	basic	1-9	_	darbalaiks_12023_94057
1-7	39-42	kad	kad	r0_	advmod	basic	1-9	_	darbalaiks_12023_94057
1-8	43-50	mācības	mācība	ncfpn4	nsubj	basic	1-9	_	darbalaiks_12023_94057
1-9	51-59	nenotiks	nenotikt	vmnifi130ay	advcl	basic	1-5	_	darbalaiks_12023_94057
1-10	59-60	?	?	zs	punct	basic	1-4	_	darbalaiks_12023_94057

#Text=Jā, LU Bibliotēka nākamnedēļ strādās, bet sakarā ar svētkiem, ceturtdien būs saīsināts darba laiks, bet piektdien slēgts.
2-1	62-64	Jā	jā	q	discourse	basic	2-6	_	darbalaiks_12023_94058
2-2	64-65	,	,	zc	punct	basic	2-1	_	darbalaiks_12023_94058
2-3	66-68	LU	LU	yp	nmod	basic	2-4	organization[2]	darbalaiks_12023_94058
2-4	69-79	Bibliotēka	bibliotēka	ncfsn4	nsubj	basic	2-6	organization[2]	darbalaiks_12023_94058
2-5	80-90	nākamnedēļ	nākamnedēļ	r0_	advmod	basic	2-6	_	darbalaiks_12023_94058
2-6	91-98	strādās	strādāt	vmnif_230an	root	basic	2-6	_	darbalaiks_12023_94058
2-7	98-99	,	,	zc	punct	basic	2-22	_	darbalaiks_12023_94058
2-8	100-103	bet	bet	cc	cc	basic	2-9	_	darbalaiks_12023_94058
2-9	104-110	sakarā	sakars	ncmsl1	conj	basic	2-7	_	darbalaiks_12023_94058
2-10	111-113	ar	ar	sppd	case	basic	2-11	_	darbalaiks_12023_94058
2-11	114-122	svētkiem	svētki	ncmdd1	acl	basic	2-9	_	darbalaiks_12023_94058
2-12	122-123	,	,	zc	punct	basic	2-15	_	darbalaiks_12023_94058
2-13	124-134	ceturtdien	ceturtdien	r0_	advmod	basic	2-15	time[3]	darbalaiks_12023_94058
2-14	135-138	būs	būt	vcnif_i30an	cop	basic	2-15	_	darbalaiks_12023_94058
2-15	139-148	saīsināts	saīsināt	vmnpdmsnpsnpn	acl	basic	2-9	_	darbalaiks_12023_94058
2-16	149-154	darba	darbs	ncmsg1	nmod	basic	2-17	_	darbalaiks_12023_94058
2-17	155-160	laiks	laiks	ncmsn1	nsubj:pass	basic	2-15	_	darbalaiks_12023_94058
2-18	160-161	,	,	zc	punct	basic	2-21	_	darbalaiks_12023_94058
2-19	162-165	bet	bet	cc	cc	basic	2-21	_	darbalaiks_12023_94058
2-20	166-175	piektdien	piektdien	r0_	advmod	basic	2-21	time[4]	darbalaiks_12023_94058
2-21	176-182	slēgts	slēgt	vmnpdmsnpsnpn	conj	basic	2-15	time[4]	darbalaiks_12023_94058
2-22	182-183	.	.	zs	punct	basic	2-6	_	darbalaiks_12023_94058

#Text=Vai LU bibliotēkas strādā arī vasarās?
3-1	185-188	Vai	vai	q	discourse	basic	3-4	_	darbalaiks_12023_94059
3-2	189-191	LU	LU	yp	nmod	basic	3-3	organization[5]	darbalaiks_12023_94059
3-3	192-203	bibliotēkas	bibliotēka	ncfpn4	nsubj	basic	3-4	organization[5]	darbalaiks_12023_94059
3-4	204-210	strādā	strādāt	vmnip_230an	root	basic	3-4	_	darbalaiks_12023_94059
3-5	211-214	arī	arī	q	discourse	basic	3-6	_	darbalaiks_12023_94059
3-6	215-222	vasarās	vasara	ncfpl4	obl	basic	3-4	_	darbalaiks_12023_94059
3-7	222-223	?	?	zs	punct	basic	3-4	_	darbalaiks_12023_94059

#Text=LUB nozaru bibliotēkas vasarā no 6.07. - 28.08. būs slēgtas, bet LU Centrālā bibliotēka šajā laikā būs atvērta no 10.00-18.00.
4-1	225-228	LUB	LUB	y	nmod	basic	4-4	organization[6]	darbalaiks_12023_94060
4-2	229-235	nozaru	nozare	ncfpg5	nmod	basic	4-3	_	darbalaiks_12023_94060
4-3	236-247	bibliotēkas	bibliotēka	ncfsg4	nmod	basic	4-4	_	darbalaiks_12023_94060
4-4	248-254	vasarā	vasara	ncfsl4	obl	basic	4-6	time[7]	darbalaiks_12023_94060
4-5	255-257	no	no	spsg	case	basic	4-6	time[7]	darbalaiks_12023_94060
4-6	258-263	6.07.	6.07.	xx	discourse	basic	4-10	time[7]	darbalaiks_12023_94060
4-7	264-265	-	-	zd	punct	basic	4-6	time[7]	darbalaiks_12023_94060
4-8	266-272	28.08.	28.08.	xx	nsubj	basic	4-10	time[7]	darbalaiks_12023_94060
4-9	273-276	būs	būt	vcnif_i30an	cop	basic	4-10	_	darbalaiks_12023_94060
4-10	277-284	slēgtas	slēgts	affpnnp	root	basic	4-10	_	darbalaiks_12023_94060
4-11	284-285	,	,	zc	punct	basic	4-19	_	darbalaiks_12023_94060
4-12	286-289	bet	bet	cc	cc	basic	4-19	_	darbalaiks_12023_94060
4-13	290-292	LU	LU	yp	nmod	basic	4-15	organization[8]	darbalaiks_12023_94060
4-14	293-301	Centrālā	centrāls	affsnyp	amod	basic	4-15	organization[8]	darbalaiks_12023_94060
4-15	302-312	bibliotēka	bibliotēka	ncfsn4	nsubj:pass	basic	4-19	organization[8]	darbalaiks_12023_94060
4-16	313-317	šajā	šis	pd3msln	det	basic	4-17	_	darbalaiks_12023_94060
4-17	318-323	laikā	laiks	ncmsl1	obl	basic	4-19	_	darbalaiks_12023_94060
4-18	324-327	būs	būt	vcnif_i30an	aux	basic	4-19	_	darbalaiks_12023_94060
4-19	328-335	atvērta	atvērt	vmnpdfsnpsnpn	conj	basic	4-10	_	darbalaiks_12023_94060
4-20	336-338	no	no	sppd	case	basic	4-22	time[9]	darbalaiks_12023_94060
4-21	339-344	10.00	10.00	xn	nsubj	basic	4-22	time[9]	darbalaiks_12023_94060
4-22	344-345	-	-	zd	nummod	basic	4-19	time[9]	darbalaiks_12023_94060
4-23	345-350	18.00	18.00	xn	nummod	basic	4-22	time[9]	darbalaiks_12023_94060
4-24	350-351	.	.	zs	punct	basic	4-10	_	darbalaiks_12023_94060

#Text=Kurā datumā vērs vaļā fakultāšu bibliotēkas?
5-1	353-357	Kurā	kurš	pr0msln	det	basic	5-2	_	darbalaiks_12023_94066
5-2	358-364	datumā	datums	ncmsl1	obl	basic	5-3	_	darbalaiks_12023_94066
5-3	365-369	vērs	vērt	vmnift130an	root	basic	5-3	_	darbalaiks_12023_94066
5-4	370-374	vaļā	vaļā	r0_	advmod	basic	5-3	_	darbalaiks_12023_94066
5-5	375-384	fakultāšu	fakultāte	ncfpg5	nmod	basic	5-6	_	darbalaiks_12023_94066
5-6	385-396	bibliotēkas	bibliotēka	ncfsg4	nsubj	basic	5-3	_	darbalaiks_12023_94066
5-7	396-397	?	?	zs	punct	basic	5-3	_	darbalaiks_12023_94066

#Text=Man steidzami vajag.
6-1	398-401	Man	es	pp10sdn	obl	basic	6-3	_	darbalaiks_12023_94066
6-2	402-411	steidzami	steidzami	r0_	advmod	basic	6-3	_	darbalaiks_12023_94066
6-3	412-417	vajag	vajadzēt	vonip_330an	root	basic	6-3	_	darbalaiks_12023_94066
6-4	417-418	.	.	zs	punct	basic	6-3	_	darbalaiks_12023_94066

#Text=Vai 31. augustā jau būs vaļā?
7-1	419-422	Vai	vai	q	discourse	basic	7-5	_	darbalaiks_12023_94066
7-2	423-426	31.	31.	xo	amod	basic	7-3	time[10]	darbalaiks_12023_94066
7-3	427-434	augustā	augusts	ncmsl1	obl	basic	7-5	time[10]	darbalaiks_12023_94066
7-4	435-438	jau	jau	r0_	advmod	basic	7-5	_	darbalaiks_12023_94066
7-5	439-442	būs	būt	vmnif_i30an	root	basic	7-5	_	darbalaiks_12023_94066
7-6	443-447	vaļā	vaļā	r0_	advmod	basic	7-5	_	darbalaiks_12023_94066
7-7	447-448	?	?	zs	punct	basic	7-5	_	darbalaiks_12023_94066

#Text=Jā, 31. augustā būs vaļā!
8-1	450-452	Jā	jā	q	discourse	basic	8-5	_	darbalaiks_12023_94068
8-2	452-453	,	,	zc	punct	basic	8-1	_	darbalaiks_12023_94068
8-3	454-457	31.	31.	xo	amod	basic	8-4	time[11]	darbalaiks_12023_94068
8-4	458-465	augustā	augusts	ncmsl1	obl	basic	8-5	time[11]	darbalaiks_12023_94068
8-5	466-469	būs	būt	vcnif_i30an	cop	basic	8-6	_	darbalaiks_12023_94068
8-6	470-474	vaļā	vaļā	r0_	root	basic	8-6	_	darbalaiks_12023_94068
8-7	474-475	!	!	zs	punct	basic	8-6	_	darbalaiks_12023_94068

#Text=Visa informācija pieejama LU portāla bibliotēkas sadaļā --&gt; kontakti un darba laiki.
9-1	476-480	Visa	visa	pg0fsnn	det	basic	9-2	_	darbalaiks_12023_94068
9-2	481-492	informācija	informācija	ncfsn4	nsubj	basic	9-3	_	darbalaiks_12023_94068
9-3	493-501	pieejama	pieiet	vmnpdfsnppnpn	root	basic	9-3	_	darbalaiks_12023_94068
9-4	502-504	LU	LU	yp	nmod	basic	9-7	organization[12]	darbalaiks_12023_94068
9-5	505-512	portāla	portāls	ncmsg1	nmod	basic	9-6	_	darbalaiks_12023_94068
9-6	513-524	bibliotēkas	bibliotēka	ncfsg4	nmod	basic	9-7	_	darbalaiks_12023_94068
9-7	525-531	sadaļā	sadaļa	ncfsl4	obl	basic	9-3	_	darbalaiks_12023_94068
9-8	532-533	-	-	zd	punct	basic	9-9	_	darbalaiks_12023_94068
9-9	533-534	-	-	zd	punct	basic	9-10	_	darbalaiks_12023_94068
9-10	534-535	&	&	xx	acl	basic	9-7	_	darbalaiks_12023_94068
9-11	535-537	gt	gt	xx	flat:name	basic	9-10	_	darbalaiks_12023_94068
9-12	537-538	\;	\;	zc	punct	basic	9-10	_	darbalaiks_12023_94068
9-13	539-547	kontakti	kontakts	ncmpn1	nsubj	basic	9-3	_	darbalaiks_12023_94068
9-14	548-550	un	un	cc	cc	basic	9-16	_	darbalaiks_12023_94068
9-15	551-556	darba	darbs	ncmsg1	nmod	basic	9-16	_	darbalaiks_12023_94068
9-16	557-562	laiki	laiks	ncmpn1	conj	basic	9-13	_	darbalaiks_12023_94068
9-17	562-563	.	.	zs	punct	basic	9-13	_	darbalaiks_12023_94068

#Text=Dārgie studenti, mācieties izmantot LU portālā pieejamo informāciju!!!
10-1	565-571	Dārgie	dārgs	afmpnyp	amod	basic	10-2	_	darbalaiks_12023_94069
10-2	572-580	studenti	students	ncmpn1	nsubj	basic	10-2	_	darbalaiks_12023_94069
10-3	580-581	,	,	zc	punct	basic	10-4	_	darbalaiks_12023_94069
10-4	582-591	mācieties	mākties	vmym0_12pan	conj	basic	10-2	_	darbalaiks_12023_94069
10-5	592-600	izmantot	izmantot	vmnn0t2000n	xcomp	basic	10-4	_	darbalaiks_12023_94069
10-6	601-603	LU	LU	yp	nmod	basic	10-9	organization[13]	darbalaiks_12023_94069
10-7	604-611	portālā	portāls	ncmsl1	obl	basic	10-8	_	darbalaiks_12023_94069
10-8	612-620	pieejamo	pieejams	affpgyp	amod	basic	10-9	_	darbalaiks_12023_94069
10-9	621-632	informāciju	informācija	ncfsa4	obj	basic	10-5	_	darbalaiks_12023_94069
10-10	632-635	!!!	!!!	zs	punct	basic	10-4	_	darbalaiks_12023_94069

#Text=http://www.lu.lv/biblioteka/darbalaiks/
11-1	637-676	http://www.lu.lv/biblioteka/darbalaiks/	http://www.lu.lv/biblioteka/darbalaiks/	i	root	basic	11-1	_	darbalaiks_12023_94069

#Text=Vai nākamnedēļ (brīvlaika nedēļā) bibliotēkas strādās?
12-1	678-681	Vai	vai	q	discourse	basic	12-8	_	darbalaiks_12023_94071
12-2	682-692	nākamnedēļ	nākamnedēļ	r0_	advmod	basic	12-8	time[14]	darbalaiks_12023_94071
12-3	693-694	(	(	zb	punct	basic	12-5	time[14]	darbalaiks_12023_94071
12-4	694-703	brīvlaika	brīvlaiks	ncmsg1	nmod	basic	12-5	time[14]	darbalaiks_12023_94071
12-5	704-710	nedēļā	nedēļa	ncfsl4	discourse	basic	12-2	time[14]	darbalaiks_12023_94071
12-6	710-711	)	)	zb	punct	basic	12-5	_	darbalaiks_12023_94071
12-7	712-723	bibliotēkas	bibliotēka	ncfsg4	iobj	basic	12-8	_	darbalaiks_12023_94071
12-8	724-731	strādās	strādāt	vmnif_230an	root	basic	12-8	_	darbalaiks_12023_94071
12-9	731-732	?	?	zs	punct	basic	12-8	_	darbalaiks_12023_94071

#Text=Jā!
13-1	735-737	Jā	jā	q	root	basic	13-1	_	darbalaiks_12023_94072
13-2	737-738	!	!	zs	punct	basic	13-1	_	darbalaiks_12023_94072

#Text=Darba laiks pieejams: http://www.lu.lv/zinas/t/6214/
14-1	739-744	Darba	darbs	ncmsg1	nmod	basic	14-2	_	darbalaiks_12023_94072
14-2	745-750	laiks	laiks	ncmsn1	nsubj	basic	14-3	_	darbalaiks_12023_94072
14-3	751-759	pieejams	pieiet	vmnpdmsnppnpn	root	basic	14-3	_	darbalaiks_12023_94072
14-4	759-760	:	:	zo	punct	basic	14-5	_	darbalaiks_12023_94072
14-5	761-791	http://www.lu.lv/zinas/t/6214/	http://www.lu.lv/zinas/t/6214/	xx	parataxis	basic	14-3	_	darbalaiks_12023_94072
