#FORMAT=WebAnno TSV 3.2
#T_SP=de.tudarmstadt.ukp.dkpro.core.api.segmentation.type.Lemma|value
#T_SP=de.tudarmstadt.ukp.dkpro.core.api.lexmorph.type.pos.POS|PosValue
#T_RL=de.tudarmstadt.ukp.dkpro.core.api.syntax.type.dependency.Dependency|DependencyType|flavor|BT_de.tudarmstadt.ukp.dkpro.core.api.lexmorph.type.pos.POS
#T_SP=de.tudarmstadt.ukp.dkpro.core.api.ner.type.NamedEntity|value
#T_SP=webanno.custom.ID|value


#Text=Vai kāds var pateikt, kādi ir Akadēmiskā departamenta (Raiņa bulv. 19-243) nominālie darba laiki?
1-1	0-3	Vai	vai	q	discourse	basic	1-3	_	darbalaiks_851_7267
1-2	4-8	kāds	kāds	pi0msnn	nsubj	basic	1-3	_	darbalaiks_851_7267
1-3	9-12	var	varēt	vonip_330an	root	basic	1-3	_	darbalaiks_851_7267
1-4	13-20	pateikt	pateikt	vmnn0t1000n	xcomp	basic	1-3	_	darbalaiks_851_7267
1-5	20-21	,	,	zc	punct	basic	1-20	_	darbalaiks_851_7267
1-6	22-26	kādi	kāds	pr0mpnn	ccomp	basic	1-5	_	darbalaiks_851_7267
1-7	27-29	ir	būt	vcnipii30an	cop	basic	1-6	_	darbalaiks_851_7267
1-8	30-40	Akadēmiskā	akadēmisks	afmsgyp	amod	basic	1-9	organization[1]	darbalaiks_851_7267
1-9	41-53	departamenta	departaments	ncmsg1	nmod	basic	1-7	organization[1]	darbalaiks_851_7267
1-10	54-55	(	(	zb	punct	basic	1-17	_	darbalaiks_851_7267
1-11	55-60	Raiņa	Raiņs	ncmsg1	nmod	basic	1-12	location[2]	darbalaiks_851_7267
1-12	61-66	bulv.	bulv.	y	obl	basic	1-17	location[2]	darbalaiks_851_7267
1-13	67-69	19	19	xn	acl	basic	1-12	location[2]	darbalaiks_851_7267
1-14	69-70	-	-	zd	dep	basic	1-12	_	darbalaiks_851_7267
1-15	70-73	243	243	xn	discourse	basic	1-12	_	darbalaiks_851_7267
1-16	73-74	)	)	zb	punct	basic	1-15	_	darbalaiks_851_7267
1-17	75-84	nominālie	nomināls	afmpnyp	amod	basic	1-19	_	darbalaiks_851_7267
1-18	85-90	darba	darbs	ncmsg1	nmod	basic	1-19	_	darbalaiks_851_7267
1-19	91-96	laiki	laiks	ncmpn1	nsubj	basic	1-6	_	darbalaiks_851_7267
1-20	96-97	?	?	zs	punct	basic	1-3	_	darbalaiks_851_7267

#Text=Telefonus (7034311, 7034310) tur neceļ jau otro dienu...
2-1	98-107	Telefonus	telefons	ncmpa1	obj	basic	2-12	_	darbalaiks_851_7267
2-2	108-109	(	(	zb	punct	basic	2-3	_	darbalaiks_851_7267
2-3	109-116	7034311	7034311	xn	discourse	basic	2-1	_	darbalaiks_851_7267
2-4	116-117	,	,	zc	punct	basic	2-5	_	darbalaiks_851_7267
2-5	118-125	7034310	7034310	xn	discourse	basic	2-7	_	darbalaiks_851_7267
2-6	125-126	)	)	zb	punct	basic	2-5	_	darbalaiks_851_7267
2-7	127-130	tur	tur	r0_	punct	basic	2-3	_	darbalaiks_851_7267
2-8	131-136	neceļ	neceļ	q	discourse	basic	2-11	_	darbalaiks_851_7267
2-9	137-140	jau	jau	r0_	advmod	basic	2-10	_	darbalaiks_851_7267
2-10	141-145	otro	otrais	mosfsa	amod	basic	2-11	_	darbalaiks_851_7267
2-11	146-151	dienu	diena	ncfsa4	obl	basic	2-3	_	darbalaiks_851_7267
2-12	151-154	...	...	zs	punct	basic	2-12	_	darbalaiks_851_7267

#Text=Darbinieki ir atvaļinājumā.
3-1	156-166	Darbinieki	darbinieks	ncmpn1	nsubj	basic	3-2	_	darbalaiks_851_7268
3-2	167-169	ir	būt	vcnipii30an	root	basic	3-2	_	darbalaiks_851_7268
3-3	170-182	atvaļinājumā	atvaļinājums	ncmsl1	obl	basic	3-2	_	darbalaiks_851_7268
3-4	182-183	.	.	zs	punct	basic	3-2	_	darbalaiks_851_7268

#Text=Zvaniet no 20. augusta.
4-1	184-191	Zvaniet	zvanīt	vmnm0_32pan	root	basic	4-1	_	darbalaiks_851_7268
4-2	192-194	no	no	spsg	case	basic	4-4	time[3]	darbalaiks_851_7268
4-3	195-198	20.	20.	xo	amod	basic	4-4	time[3]	darbalaiks_851_7268
4-4	199-206	augusta	augusts	ncmsg1	obl	basic	4-1	time[3]	darbalaiks_851_7268
4-5	206-207	.	.	zs	punct	basic	4-1	_	darbalaiks_851_7268

#Text=Es atvainojos - zvaniet no 14. augusta.
5-1	209-211	Es	es	pp10snn	nsubj	basic	5-2	_	darbalaiks_851_7270
5-2	212-222	atvainojos	atvainoties	vmyis_21san	root	basic	5-2	_	darbalaiks_851_7270
5-3	223-224	-	-	zd	punct	basic	5-4	_	darbalaiks_851_7270
5-4	225-232	zvaniet	zvanīt	vmnm0_32pan	ccomp	basic	5-2	_	darbalaiks_851_7270
5-5	233-235	no	no	spsg	case	basic	5-7	time[4]	darbalaiks_851_7270
5-6	236-239	14.	14.	xo	amod	basic	5-7	time[4]	darbalaiks_851_7270
5-7	240-247	augusta	augusts	ncmsg1	obl	basic	5-4	time[4]	darbalaiks_851_7270
5-8	247-248	.	.	zs	punct	basic	5-2	_	darbalaiks_851_7270

#Text=Pieredze liecina, ka pirmajā un otrajā pieteikšanās dienā būs maz reflektantu, bet pēdējās daudz.
6-1	249-257	Pieredze	pieredze	ncfsn5	nsubj	basic	6-2	_	darbalaiks_851_7270
6-2	258-265	liecina	liecināt	vmnipt330an	root	basic	6-2	_	darbalaiks_851_7270
6-3	265-266	,	,	zc	punct	basic	6-17	_	darbalaiks_851_7270
6-4	267-269	ka	ka	cs	mark	basic	6-17	_	darbalaiks_851_7270
6-5	270-277	pirmajā	pirmais	mosmsl	amod	basic	6-9	_	darbalaiks_851_7270
6-6	278-280	un	un	cc	cc	basic	6-7	_	darbalaiks_851_7270
6-7	281-287	otrajā	otrais	mosfsl	conj	basic	6-5	_	darbalaiks_851_7270
6-8	288-300	pieteikšanās	pieteikšanās	ncfsgr	nmod	basic	6-9	_	darbalaiks_851_7270
6-9	301-306	dienā	diena	ncfsl4	obl	basic	6-4	_	darbalaiks_851_7270
6-10	307-310	būs	būt	vmnif_i30an	cop	basic	6-11	_	darbalaiks_851_7270
6-11	311-314	maz	maz	r0_	advmod	basic	6-9	_	darbalaiks_851_7270
6-12	315-326	reflektantu	reflektants	ncmpg1	nsubj	basic	6-11	_	darbalaiks_851_7270
6-13	326-327	,	,	zc	punct	basic	6-15	_	darbalaiks_851_7270
6-14	328-331	bet	bet	cc	cc	basic	6-15	_	darbalaiks_851_7270
6-15	332-339	pēdējās	pēdējā	affpnyp	conj	basic	6-12	_	darbalaiks_851_7270
6-16	340-345	daudz	daudz	r0_	advmod	basic	6-15	_	darbalaiks_851_7270
6-17	345-346	.	.	zs	punct	basic	6-2	_	darbalaiks_851_7270

#Text=Kāds ir akadēmiskā departamenta (Raiņa bulvāris) darba laiks?
7-1	348-352	Kāds	kāds	pq0msnn	root	basic	7-1	_	darbalaiks_851_7271
7-2	353-355	ir	būt	vcnipii30an	cop	basic	7-1	_	darbalaiks_851_7271
7-3	356-366	akadēmiskā	akadēmisks	afmsgyp	amod	basic	7-4	_	darbalaiks_851_7271
7-4	367-379	departamenta	departaments	ncmsg1	nmod	basic	7-10	_	darbalaiks_851_7271
7-5	380-381	(	(	zb	punct	basic	7-7	_	darbalaiks_851_7271
7-6	381-386	Raiņa	Raiņs	ncmsg1	nmod	basic	7-7	location[5]	darbalaiks_851_7271
7-7	387-395	bulvāris	bulvāris	ncmsn2	discourse	basic	7-4	location[5]	darbalaiks_851_7271
7-8	395-396	)	)	zb	punct	basic	7-7	_	darbalaiks_851_7271
7-9	397-402	darba	darbs	ncmsg1	nmod	basic	7-10	_	darbalaiks_851_7271
7-10	403-408	laiks	laiks	ncmsn1	nsubj	basic	7-1	_	darbalaiks_851_7271
7-11	408-409	?	?	zs	punct	basic	7-1	_	darbalaiks_851_7271

#Text=Labdien!!
8-1	412-419	Labdien	labdien	is	root	basic	8-1	_	darbalaiks_851_7272
8-2	419-421	!!	!!	zs	punct	basic	8-1	_	darbalaiks_851_7272

#Text=http://www.lu.lv/par/strukt/departamenti/akademiskais-departaments/\n9.00 - 17.00\n\nŅemiet vērā, ka vasara ir atvaļinājumu laiks, konsultācija ir jāpiesaka!!
9-1	423-490	http://www.lu.lv/par/strukt/departamenti/akademiskais-departaments/	http://www.lu.lv/par/strukt/departamenti/akademiskais-departaments/	xx	discourse	basic	9-5	time[6]	darbalaiks_851_7272
9-2	491-495	9.00	9.00	xn	flat	basic	9-1	time[6]	darbalaiks_851_7272
9-3	496-497	-	-	zd	punct	basic	9-1	_	darbalaiks_851_7272
9-4	498-503	17.00	17.00	xn	nsubj	basic	9-5	_	darbalaiks_851_7272
9-5	505-511	Ņemiet	ņemt	vmnm0t12pan	root	basic	9-5	_	darbalaiks_851_7272
9-6	512-516	vērā	vērā	r0_	advmod	basic	9-5	_	darbalaiks_851_7272
9-7	516-517	,	,	zc	punct	basic	9-12	_	darbalaiks_851_7272
9-8	518-520	ka	ka	cs	mark	basic	9-12	_	darbalaiks_851_7272
9-9	521-527	vasara	vasara	ncfsn4	nsubj	basic	9-12	_	darbalaiks_851_7272
9-10	528-530	ir	būt	vcnipii30an	cop	basic	9-12	_	darbalaiks_851_7272
9-11	531-543	atvaļinājumu	atvaļinājums	ncmpg1	nmod	basic	9-12	_	darbalaiks_851_7272
9-12	544-549	laiks	laiks	ncmsn1	advcl	basic	9-5	_	darbalaiks_851_7272
9-13	549-550	,	,	zc	punct	basic	9-16	_	darbalaiks_851_7272
9-14	551-563	konsultācija	konsultācija	ncfsn4	obj	basic	9-16	_	darbalaiks_851_7272
9-15	564-566	ir	būt	vcnipii30an	aux	basic	9-16	_	darbalaiks_851_7272
9-16	567-576	jāpiesaka	piesacīt	vmnd0t300an	conj	basic	9-5	_	darbalaiks_851_7272
9-17	576-578	!!	!!	zs	punct	basic	9-5	_	darbalaiks_851_7272

#Text=Cieņā,\nStudentu servisa konsultants
10-1	580-585	Cieņā	cieņa	ncfsl4	acl	basic	10-1	_	darbalaiks_851_7272
10-2	585-586	,	,	zc	punct	basic	10-1	_	darbalaiks_851_7272
10-3	587-595	Studentu	students	ncmpg1	nmod	basic	10-4	_	darbalaiks_851_7272
10-4	596-603	servisa	serviss	ncmsg1	nmod	basic	10-5	_	darbalaiks_851_7272
10-5	604-615	konsultants	konsultants	ncmsn1	root	basic	10-5	_	darbalaiks_851_7272
