#FORMAT=WebAnno TSV 3.2
#T_SP=de.tudarmstadt.ukp.dkpro.core.api.segmentation.type.Lemma|value
#T_SP=de.tudarmstadt.ukp.dkpro.core.api.lexmorph.type.pos.POS|PosValue
#T_RL=de.tudarmstadt.ukp.dkpro.core.api.syntax.type.dependency.Dependency|DependencyType|flavor|BT_de.tudarmstadt.ukp.dkpro.core.api.lexmorph.type.pos.POS
#T_SP=de.tudarmstadt.ukp.dkpro.core.api.ner.type.NamedEntity|value
#T_SP=webanno.custom.ID|value


#Text=Kur var uzzināt?
1-1	0-3	Kur	kur	r0_	advmod	basic	1-2	_	darbalaiks_2784_24059
1-2	4-7	var	varēt	vonip_330an	root	basic	1-2	_	darbalaiks_2784_24059
1-3	8-15	uzzināt	uzzināt	vmnn0t3000n	xcomp	basic	1-2	_	darbalaiks_2784_24059
1-4	15-16	?	?	zs	punct	basic	1-2	_	darbalaiks_2784_24059

#Text=Vai darba laiks netiek mainīts.
2-1	17-20	Vai	vai	q	discourse	basic	2-5	_	darbalaiks_2784_24059
2-2	21-26	darba	darbs	ncmsg1	nmod	basic	2-3	_	darbalaiks_2784_24059
2-3	27-32	laiks	laiks	ncmsn1	nsubj:pass	basic	2-5	_	darbalaiks_2784_24059
2-4	33-39	netiek	netikt	vtnipi130ay	aux:pass	basic	2-5	_	darbalaiks_2784_24059
2-5	40-47	mainīts	mainīt	vmnpdmsnpsnpn	root	basic	2-5	_	darbalaiks_2784_24059
2-6	47-48	.	.	zs	punct	basic	2-5	_	darbalaiks_2784_24059

#Text=Labdien!
3-1	50-57	Labdien	labdien	is	root	basic	3-1	_	darbalaiks_2784_24060
3-2	57-58	!	!	zs	punct	basic	3-1	_	darbalaiks_2784_24060

#Text=LU Bibliotēkas Ekonomikas zinātņu bibliotēkas 1. aprīlī strādās no 10.00.-14.00., bet no 2. līdz 5. aprīlim bibliotēka ir slēgta.
4-1	59-61	LU	LU	yp	nmod	basic	4-7	organization[1]	darbalaiks_2784_24060
4-2	62-73	Bibliotēkas	bibliotēka	ncfsg4	nmod	basic	4-3	organization[1]	darbalaiks_2784_24060
4-3	74-84	Ekonomikas	ekonomika	ncfsg4	nmod	basic	4-4	organization[1]	darbalaiks_2784_24060
4-4	85-92	zinātņu	zinātne	ncfpg5	nmod	basic	4-5	organization[1]	darbalaiks_2784_24060
4-5	93-104	bibliotēkas	bibliotēka	ncfsg4	nmod	basic	4-7	organization[1]	darbalaiks_2784_24060
4-6	105-107	1.	1.	xo	amod	basic	4-7	time[2]	darbalaiks_2784_24060
4-7	108-114	aprīlī	aprīlis	ncmsl2	obl	basic	4-8	time[2]	darbalaiks_2784_24060
4-8	115-122	strādās	strādāt	vmnif_230an	root	basic	4-8	_	darbalaiks_2784_24060
4-9	123-125	no	no	spsg	case	basic	4-10	time[3]	darbalaiks_2784_24060
4-10	126-132	10.00.	10.00.	xx	acl	basic	4-8	time[3]	darbalaiks_2784_24060
4-11	132-133	-	-	zd	punct	basic	4-12	time[3]	darbalaiks_2784_24060
4-12	133-139	14.00.	14.00.	xx	acl	basic	4-10	time[3]	darbalaiks_2784_24060
4-13	139-140	,	,	zc	punct	basic	4-12	_	darbalaiks_2784_24060
4-14	141-144	bet	bet	cc	cc	basic	4-22	_	darbalaiks_2784_24060
4-15	145-147	no	no	spsg	case	basic	4-16	time[4]	darbalaiks_2784_24060
4-16	148-150	2.	2.	xo	obl	basic	4-22	time[4]	darbalaiks_2784_24060
4-17	151-155	līdz	līdz	spsd	case	basic	4-19	time[4]	darbalaiks_2784_24060
4-18	156-158	5.	5.	xo	amod	basic	4-19	time[4]	darbalaiks_2784_24060
4-19	159-166	aprīlim	aprīlis	ncmsd2	obl	basic	4-22	time[4]	darbalaiks_2784_24060
4-20	167-177	bibliotēka	bibliotēka	ncfsn4	nsubj:pass	basic	4-22	_	darbalaiks_2784_24060
4-21	178-180	ir	būt	vcnipii30an	aux:pass	basic	4-22	_	darbalaiks_2784_24060
4-22	181-187	slēgta	slēgt	vmnpdfsnpsnpn	conj	basic	4-8	_	darbalaiks_2784_24060
4-23	187-188	.	.	zs	punct	basic	4-8	_	darbalaiks_2784_24060

#Text=Paldies!
5-1	190-197	Paldies	paldies	is	root	basic	5-1	_	darbalaiks_2784_24061
5-2	197-198	!	!	zs	punct	basic	5-1	_	darbalaiks_2784_24061
