#FORMAT=WebAnno TSV 3.2
#T_SP=de.tudarmstadt.ukp.dkpro.core.api.segmentation.type.Lemma|value
#T_SP=de.tudarmstadt.ukp.dkpro.core.api.lexmorph.type.pos.POS|PosValue
#T_RL=de.tudarmstadt.ukp.dkpro.core.api.syntax.type.dependency.Dependency|DependencyType|flavor|BT_de.tudarmstadt.ukp.dkpro.core.api.lexmorph.type.pos.POS
#T_SP=de.tudarmstadt.ukp.dkpro.core.api.ner.type.NamedEntity|value
#T_SP=webanno.custom.ID|value


#Text=Kāds būs sporta centra darba laiks?
1-1	0-4	Kāds	kāds	pq0msnn	root	basic	1-1	_	darbalaiks_19375_145291
1-2	5-8	būs	būt	vcnif_i30an	cop	basic	1-1	_	darbalaiks_19375_145291
1-3	9-15	sporta	sports	ncmsg1	nmod	basic	1-4	_	darbalaiks_19375_145291
1-4	16-22	centra	centrs	ncmsg1	nmod	basic	1-6	_	darbalaiks_19375_145291
1-5	23-28	darba	darbs	ncmsg1	nmod	basic	1-6	_	darbalaiks_19375_145291
1-6	29-34	laiks	laiks	ncmsn1	nsubj	basic	1-1	_	darbalaiks_19375_145291
1-7	34-35	?	?	zs	punct	basic	1-1	_	darbalaiks_19375_145291

#Text=Precīzi laiki vēl nav zināmi, taču būs, sekojiet informācijai portālā.
2-1	37-44	Precīzi	precīzs	afmpnnp	amod	basic	2-2	_	darbalaiks_19375_145292
2-2	45-50	laiki	laiks	ncmpn1	nsubj	basic	2-5	_	darbalaiks_19375_145292
2-3	51-54	vēl	vēl	r0_	advmod	basic	2-5	_	darbalaiks_19375_145292
2-4	55-58	nav	nebūt	vcnipii30ay	cop	basic	2-5	_	darbalaiks_19375_145292
2-5	59-65	zināmi	zināt	vmnpdmpnppnpn	root	basic	2-5	_	darbalaiks_19375_145292
2-6	65-66	,	,	zc	punct	basic	2-8	_	darbalaiks_19375_145292
2-7	67-71	taču	taču	cc	cc	basic	2-8	_	darbalaiks_19375_145292
2-8	72-75	būs	būt	vmnif_i30an	conj	basic	2-5	_	darbalaiks_19375_145292
2-9	75-76	,	,	zc	punct	basic	2-10	_	darbalaiks_19375_145292
2-10	77-85	sekojiet	sekot	vmnm0i22p_n	discourse	basic	2-5	_	darbalaiks_19375_145292
2-11	86-98	informācijai	informācija	ncfsd4	iobj	basic	2-10	_	darbalaiks_19375_145292
2-12	99-106	portālā	portāls	ncmsl1	acl	basic	2-11	_	darbalaiks_19375_145292
2-13	106-107	.	.	zs	punct	basic	2-5	_	darbalaiks_19375_145292
