#FORMAT=WebAnno TSV 3.2
#T_SP=de.tudarmstadt.ukp.dkpro.core.api.segmentation.type.Lemma|value
#T_SP=de.tudarmstadt.ukp.dkpro.core.api.lexmorph.type.pos.POS|PosValue
#T_RL=de.tudarmstadt.ukp.dkpro.core.api.syntax.type.dependency.Dependency|DependencyType|flavor|BT_de.tudarmstadt.ukp.dkpro.core.api.lexmorph.type.pos.POS
#T_SP=de.tudarmstadt.ukp.dkpro.core.api.ner.type.NamedEntity|value
#T_SP=webanno.custom.ID|value


#Text=Es gribētu uzzināt Ekonomikas un Vadības fakultātes lietvežu un atbilgo par rotāciju darba laikus un vai viņi strādā sestdienās?
1-1	0-2	Es	es	pp10snn	nsubj	basic	1-2	_	darbalaiks_4368_34488
1-2	3-10	gribētu	gribēt	vonc0_300an	root	basic	1-2	_	darbalaiks_4368_34488
1-3	11-18	uzzināt	uzzināt	vmnn0t3000n	xcomp	basic	1-2	_	darbalaiks_4368_34488
1-4	19-29	Ekonomikas	ekonomika	ncfsg4	nmod	basic	1-7	organization[1]	darbalaiks_4368_34488
1-5	30-32	un	un	cc	cc	basic	1-7	organization[1]	darbalaiks_4368_34488
1-6	33-40	Vadības	vadība	ncfsg4	nmod	basic	1-7	organization[1]	darbalaiks_4368_34488
1-7	41-51	fakultātes	fakultāte	ncfsg5	nmod	basic	1-8	organization[1]	darbalaiks_4368_34488
1-8	52-60	lietvežu	lietvedis	ncmpg2	obj	basic	1-3	_	darbalaiks_4368_34488
1-9	61-63	un	un	cc	cc	basic	1-10	_	darbalaiks_4368_34488
1-10	64-71	atbilgo	atbilgo	nc___0	conj	basic	1-8	_	darbalaiks_4368_34488
1-11	72-75	par	par	spsa	case	basic	1-12	_	darbalaiks_4368_34488
1-12	76-84	rotāciju	rotācija	ncfsa4	nmod	basic	1-10	_	darbalaiks_4368_34488
1-13	85-90	darba	darbs	ncmsg1	nmod	basic	1-14	_	darbalaiks_4368_34488
1-14	91-97	laikus	laiks	ncmpa1	obj	basic	1-12	_	darbalaiks_4368_34488
1-15	98-100	un	un	cc	cc	basic	1-18	_	darbalaiks_4368_34488
1-16	101-104	vai	vai	cs	cc	basic	1-18	_	darbalaiks_4368_34488
1-17	105-109	viņi	viņš	pp3mpnn	nsubj	basic	1-18	_	darbalaiks_4368_34488
1-18	110-116	strādā	strādāt	vmnip_230an	conj	basic	1-2	_	darbalaiks_4368_34488
1-19	117-127	sestdienās	sestdiena	ncfpl4	obl	basic	1-18	_	darbalaiks_4368_34488
1-20	127-128	?	?	zs	punct	basic	1-2	_	darbalaiks_4368_34488

#Text=p.s. konkrēti man interesē Laila Lisenko...
2-1	130-134	p.s.	p.s.	y	iobj	basic	2-4	_	darbalaiks_4368_34489
2-2	135-143	konkrēti	konkrēti	r0_	advmod	basic	2-4	_	darbalaiks_4368_34489
2-3	144-147	man	es	pp10sdn	obl	basic	2-4	_	darbalaiks_4368_34489
2-4	148-156	interesē	interesēt	vmnipt230an	root	basic	2-4	_	darbalaiks_4368_34489
2-5	157-162	Laila	Laila	npfsn4	nsubj	basic	2-4	person[2]	darbalaiks_4368_34489
2-6	163-170	Lisenko	Lisenko	nc___0	acl	basic	2-5	person[2]	darbalaiks_4368_34489
2-7	170-173	...	...	zs	punct	basic	2-4	_	darbalaiks_4368_34489

#Text=LU mājas lapā nevaru atrast darba laikus.
3-1	174-176	LU	LU	yp	nmod	basic	3-3	organization[3]	darbalaiks_4368_34489
3-2	177-182	mājas	māja	ncfsg4	nmod	basic	3-3	_	darbalaiks_4368_34489
3-3	183-187	lapā	lapa	ncfsl4	obl	basic	3-4	_	darbalaiks_4368_34489
3-4	188-194	nevaru	nevarēt	vonip_31san	root	basic	3-4	_	darbalaiks_4368_34489
3-5	195-201	atrast	atrast	vmnn0i1000n	xcomp	basic	3-4	_	darbalaiks_4368_34489
3-6	202-207	darba	darbs	ncmsg1	nmod	basic	3-7	_	darbalaiks_4368_34489
3-7	208-214	laikus	laiks	ncmpa1	obj	basic	3-5	_	darbalaiks_4368_34489
3-8	214-215	.	.	zs	punct	basic	3-4	_	darbalaiks_4368_34489

#Text=Jā, lietvežu darba laiku kontrolē fakultātes izpilddirektors.
4-1	217-219	Jā	jā	q	discourse	basic	4-6	_	darbalaiks_4368_34491
4-2	219-220	,	,	zc	punct	basic	4-1	_	darbalaiks_4368_34491
4-3	221-229	lietvežu	lietvedis	ncmpg2	nmod	basic	4-4	_	darbalaiks_4368_34491
4-4	230-235	darba	darbs	ncmsg1	nmod	basic	4-5	_	darbalaiks_4368_34491
4-5	236-241	laiku	laiks	ncmsa1	obl	basic	4-6	_	darbalaiks_4368_34491
4-6	242-250	kontrolē	kontrole	ncfsl5	root	basic	4-6	_	darbalaiks_4368_34491
4-7	251-261	fakultātes	fakultāte	ncfsg5	nmod	basic	4-8	_	darbalaiks_4368_34491
4-8	262-277	izpilddirektors	izpilddirektors	ncmsn_	flat:name	basic	4-6	_	darbalaiks_4368_34491
4-9	277-278	.	.	zs	punct	basic	4-6	_	darbalaiks_4368_34491

#Text=Ja Jums ir sūdzības, ejiet pie izpilddirektora, kas Ekonomikas un vadības fakultātē ir Gundars Bērziņš.
5-1	279-281	Ja	ja	cs	mark	basic	5-3	_	darbalaiks_4368_34491
5-2	282-286	Jums	jūs	pp20pdn	obl	basic	5-3	_	darbalaiks_4368_34491
5-3	287-289	ir	būt	vcnipii30an	advcl	basic	5-6	_	darbalaiks_4368_34491
5-4	290-298	sūdzības	sūdzība	ncfpn4	nsubj	basic	5-3	_	darbalaiks_4368_34491
5-5	298-299	,	,	zc	punct	basic	5-3	_	darbalaiks_4368_34491
5-6	300-305	ejiet	iet	vmnm0i12pan	root	basic	5-6	_	darbalaiks_4368_34491
5-7	306-309	pie	pie	spsg	case	basic	5-8	_	darbalaiks_4368_34491
5-8	310-325	izpilddirektora	izpilddirektora	npmsg_	obl	basic	5-6	_	darbalaiks_4368_34491
5-9	325-326	,	,	zc	punct	basic	5-8	_	darbalaiks_4368_34491
5-10	327-330	kas	kas	pr000nn	iobj	basic	5-15	_	darbalaiks_4368_34491
5-11	331-341	Ekonomikas	ekonomika	ncfsg4	nmod	basic	5-14	organization[4]	darbalaiks_4368_34491
5-12	342-344	un	un	cc	cc	basic	5-13	organization[4]	darbalaiks_4368_34491
5-13	345-352	vadības	vadība	ncfsg4	conj	basic	5-11	organization[4]	darbalaiks_4368_34491
5-14	353-362	fakultātē	fakultāte	ncfsl5	obl	basic	5-15	organization[4]	darbalaiks_4368_34491
5-15	363-365	ir	būt	vcnipii30an	conj	basic	5-6	_	darbalaiks_4368_34491
5-16	366-373	Gundars	Gundars	npmsn1	nsubj	basic	5-15	person[5]	darbalaiks_4368_34491
5-17	374-381	Bērziņš	Bērziņš	ncmsn1	flat:name	basic	5-16	person[5]	darbalaiks_4368_34491
5-18	381-382	.	.	zs	punct	basic	5-6	_	darbalaiks_4368_34491
