#FORMAT=WebAnno TSV 3.2
#T_SP=de.tudarmstadt.ukp.dkpro.core.api.segmentation.type.Lemma|value
#T_SP=de.tudarmstadt.ukp.dkpro.core.api.lexmorph.type.pos.POS|PosValue
#T_RL=de.tudarmstadt.ukp.dkpro.core.api.syntax.type.dependency.Dependency|DependencyType|flavor|BT_de.tudarmstadt.ukp.dkpro.core.api.lexmorph.type.pos.POS
#T_SP=de.tudarmstadt.ukp.dkpro.core.api.ner.type.NamedEntity|value
#T_SP=webanno.custom.ID|value


#Text=Kāds ir JF pašpārvaldes darbalaiks, kad ir iespējams saņemt izziņas transporta kartiņu iegādei?
1-1	0-4	Kāds	kāds	pq0msnn	root	basic	1-1	_	darbalaiks_8425_63429
1-2	5-7	ir	būt	vcnipii30an	cop	basic	1-1	_	darbalaiks_8425_63429
1-3	8-10	JF	JF	y	nmod	basic	1-5	organization[1]	darbalaiks_8425_63429
1-4	11-23	pašpārvaldes	pašpārvalde	ncfsg5	nmod	basic	1-5	organization[1]	darbalaiks_8425_63429
1-5	24-34	darbalaiks	darbalaiks	ncmsn1	nsubj	basic	1-1	_	darbalaiks_8425_63429
1-6	34-35	,	,	zc	punct	basic	1-9	_	darbalaiks_8425_63429
1-7	36-39	kad	kad	r0_	advmod	basic	1-9	_	darbalaiks_8425_63429
1-8	40-42	ir	būt	vcnipii30an	cop	basic	1-9	_	darbalaiks_8425_63429
1-9	43-52	iespējams	iespējams	afmsnnp	acl	basic	1-5	_	darbalaiks_8425_63429
1-10	53-59	saņemt	saņemt	vmnn0t1000n	ccomp	basic	1-9	_	darbalaiks_8425_63429
1-11	60-67	izziņas	izziņa	ncfsg4	nmod	basic	1-12	_	darbalaiks_8425_63429
1-12	68-78	transporta	transports	ncmsg1	nmod	basic	1-13	_	darbalaiks_8425_63429
1-13	79-86	kartiņu	kartiņš	ncmpg1	nmod	basic	1-14	_	darbalaiks_8425_63429
1-14	87-94	iegādei	iegāde	ncfsd5	obj	basic	1-10	_	darbalaiks_8425_63429
1-15	94-95	?	?	zs	punct	basic	1-1	_	darbalaiks_8425_63429

#Text=Tāda nav, viņi tikai nodzer saziedoto un "izspiesto" naudu - un tās ir private parties!!!
2-1	97-101	Tāda	tāda	pd0fsnn	nsubj	basic	2-2	_	darbalaiks_8425_63430
2-2	102-105	nav	nebūt	vcnipii30ay	root	basic	2-2	_	darbalaiks_8425_63430
2-3	105-106	,	,	zc	punct	basic	2-6	_	darbalaiks_8425_63430
2-4	107-111	viņi	viņš	pp3mpnn	nsubj	basic	2-6	_	darbalaiks_8425_63430
2-5	112-117	tikai	tikai	q	discourse	basic	2-6	_	darbalaiks_8425_63430
2-6	118-124	nodzer	nodzert	vmnipt130an	conj	basic	2-2	_	darbalaiks_8425_63430
2-7	125-134	saziedoto	saziedot	vmnpdmsapsypn	amod	basic	2-12	_	darbalaiks_8425_63430
2-8	135-137	un	un	cc	cc	basic	2-12	_	darbalaiks_8425_63430
2-9	138-139	"	"	zq	punct	basic	2-10	_	darbalaiks_8425_63430
2-10	139-148	izspiesto	izspiest	vmnpdmsapsypn	conj	basic	2-12	_	darbalaiks_8425_63430
2-11	148-149	"	"	zq	punct	basic	2-10	_	darbalaiks_8425_63430
2-12	150-155	naudu	nauda	ncfsa4	obj	basic	2-6	_	darbalaiks_8425_63430
2-13	156-157	-	-	zd	punct	basic	2-17	_	darbalaiks_8425_63430
2-14	158-160	un	un	cc	cc	basic	2-17	_	darbalaiks_8425_63430
2-15	161-164	tās	tā	pd3fpnn	nsubj	basic	2-17	_	darbalaiks_8425_63430
2-16	165-167	ir	būt	vcnipii30an	cop	basic	2-17	_	darbalaiks_8425_63430
2-17	168-175	private	private	ncfsn5	conj	basic	2-6	_	darbalaiks_8425_63430
2-18	176-183	parties	parties	vm_n0__00__	ccomp	basic	2-17	_	darbalaiks_8425_63430
2-19	183-186	!!!	!!!	zs	punct	basic	2-2	_	darbalaiks_8425_63430
