#FORMAT=WebAnno TSV 3.2
#T_SP=de.tudarmstadt.ukp.dkpro.core.api.segmentation.type.Lemma|value
#T_SP=de.tudarmstadt.ukp.dkpro.core.api.lexmorph.type.pos.POS|PosValue
#T_RL=de.tudarmstadt.ukp.dkpro.core.api.syntax.type.dependency.Dependency|DependencyType|flavor|BT_de.tudarmstadt.ukp.dkpro.core.api.lexmorph.type.pos.POS
#T_SP=de.tudarmstadt.ukp.dkpro.core.api.ner.type.NamedEntity|value
#T_SP=webanno.custom.ID|value


#Text=Sveiki\nSakiet, vai ir zināms, kā bibliotēka strādās vasarā?
1-1	0-6	Sveiki	sveiki	rp_	advmod	basic	1-2	_	darbalaiks_2786_24066
1-2	7-13	Sakiet	sacīt	vmnm0t32pan	root	basic	1-2	_	darbalaiks_2786_24066
1-3	13-14	,	,	zc	punct	basic	1-6	_	darbalaiks_2786_24066
1-4	15-18	vai	vai	cs	mark	basic	1-6	_	darbalaiks_2786_24066
1-5	19-21	ir	būt	vcnipii30an	cop	basic	1-6	_	darbalaiks_2786_24066
1-6	22-28	zināms	zināt	vmnpdmsnppnpn	ccomp	basic	1-2	_	darbalaiks_2786_24066
1-7	28-29	,	,	zc	punct	basic	1-10	_	darbalaiks_2786_24066
1-8	30-32	kā	kā	cs	mark	basic	1-10	_	darbalaiks_2786_24066
1-9	33-43	bibliotēka	bibliotēka	ncfsn4	nsubj	basic	1-10	_	darbalaiks_2786_24066
1-10	44-51	strādās	strādāt	vmnif_230an	csubj	basic	1-6	_	darbalaiks_2786_24066
1-11	52-58	vasarā	vasara	ncfsl4	obl	basic	1-10	_	darbalaiks_2786_24066
1-12	58-59	?	?	zs	punct	basic	1-2	_	darbalaiks_2786_24066

#Text=No kura līdz kuram datumam tā būs slēgta?
2-1	60-62	No	no	spsg	case	basic	2-2	_	darbalaiks_2786_24066
2-2	63-67	kura	kurš	pr0msgn	iobj	basic	2-8	_	darbalaiks_2786_24066
2-3	68-72	līdz	līdz	spsd	case	basic	2-5	_	darbalaiks_2786_24066
2-4	73-78	kuram	kurš	pi0msdn	det	basic	2-5	_	darbalaiks_2786_24066
2-5	79-86	datumam	datums	ncmsd1	obl	basic	2-8	_	darbalaiks_2786_24066
2-6	87-89	tā	tā	pd3fsnn	nsubj	basic	2-8	_	darbalaiks_2786_24066
2-7	90-93	būs	būt	vcnif_i30an	aux	basic	2-8	_	darbalaiks_2786_24066
2-8	94-100	slēgta	slēgt	vmnpdfsnpsnpn	root	basic	2-8	_	darbalaiks_2786_24066
2-9	100-101	?	?	zs	punct	basic	2-8	_	darbalaiks_2786_24066

#Text=Visvairāk mani interesē EVF bibl.\nJau iepriekš paldies
3-1	102-111	Visvairāk	visvairāk	r0_	advmod	basic	3-3	_	darbalaiks_2786_24066
3-2	112-116	mani	es	pp10san	obj	basic	3-3	_	darbalaiks_2786_24066
3-3	117-125	interesē	interesēt	vmnipt230an	root	basic	3-3	_	darbalaiks_2786_24066
3-4	126-129	EVF	EVF	y	nsubj	basic	3-3	organization[1]	darbalaiks_2786_24066
3-5	130-135	bibl.	bibl.	y	flat:name	basic	3-4	_	darbalaiks_2786_24066
3-6	136-139	Jau	jau	r0_	advmod	basic	3-7	_	darbalaiks_2786_24066
3-7	140-148	iepriekš	iepriekš	r0_	advmod	basic	3-8	_	darbalaiks_2786_24066
3-8	149-156	paldies	paldies	is	advmod	basic	3-3	_	darbalaiks_2786_24066

#Text=Labdien!
4-1	158-165	Labdien	labdien	is	root	basic	4-1	_	darbalaiks_2786_24067
4-2	165-166	!	!	zs	punct	basic	4-1	_	darbalaiks_2786_24067

#Text=Patreiz plānots, ka LU Bibliotēkas nozaru bibliotēkas (to skaitā Ekonomikas zinātņu bibliotēka) būs slēgtas, sākot ar 5. jūliju līdz 29. augustam.
5-1	167-174	Patreiz	Patreiz	r_t	advmod	basic	5-2	_	darbalaiks_2786_24067
5-2	175-182	plānots	plānot	vmnpdmsnpsnpn	root	basic	5-2	_	darbalaiks_2786_24067
5-3	182-183	,	,	zc	punct	basic	5-17	_	darbalaiks_2786_24067
5-4	184-186	ka	ka	cs	mark	basic	5-17	_	darbalaiks_2786_24067
5-5	187-189	LU	LU	yp	nmod	basic	5-7	organization[2]	darbalaiks_2786_24067
5-6	190-201	Bibliotēkas	bibliotēka	ncfsg4	nmod	basic	5-7	organization[2]	darbalaiks_2786_24067
5-7	202-208	nozaru	nozare	ncfpg5	nmod	basic	5-8	organization[2]	darbalaiks_2786_24067
5-8	209-220	bibliotēkas	bibliotēka	ncfsg4	nsubj	basic	5-17	organization[2]	darbalaiks_2786_24067
5-9	221-222	(	(	zb	punct	basic	5-14	_	darbalaiks_2786_24067
5-10	222-224	to	tas	pd3mpgn	det	basic	5-11	_	darbalaiks_2786_24067
5-11	225-231	skaitā	skaits	ncmsl1	obl	basic	5-14	_	darbalaiks_2786_24067
5-12	232-242	Ekonomikas	ekonomika	ncfsg4	nmod	basic	5-14	organization[3]	darbalaiks_2786_24067
5-13	243-250	zinātņu	zinātne	ncfpg5	nmod	basic	5-14	organization[3]	darbalaiks_2786_24067
5-14	251-261	bibliotēka	bibliotēka	ncfsn4	discourse	basic	5-8	organization[3]	darbalaiks_2786_24067
5-15	261-262	)	)	zb	punct	basic	5-14	_	darbalaiks_2786_24067
5-16	263-266	būs	būt	vcnif_i30an	cop	basic	5-17	_	darbalaiks_2786_24067
5-17	267-274	slēgtas	slēgts	affpnnp	csubj:pass	basic	5-2	_	darbalaiks_2786_24067
5-18	274-275	,	,	zc	punct	basic	5-19	_	darbalaiks_2786_24067
5-19	276-281	sākot	sākt	vpnpu0000000n	advcl	basic	5-17	time[4]	darbalaiks_2786_24067
5-20	282-284	ar	ar	spsa	case	basic	5-22	time[4]	darbalaiks_2786_24067
5-21	285-287	5.	5.	xo	amod	basic	5-22	time[4]	darbalaiks_2786_24067
5-22	288-294	jūliju	jūlijs	ncmsa1	iobj	basic	5-19	time[4]	darbalaiks_2786_24067
5-23	295-299	līdz	līdz	spsd	case	basic	5-25	time[4]	darbalaiks_2786_24067
5-24	300-303	29.	29.	xo	amod	basic	5-25	time[4]	darbalaiks_2786_24067
5-25	304-312	augustam	augusts	ncmsd1	obl	basic	5-22	time[4]	darbalaiks_2786_24067
5-26	312-313	.	.	zs	punct	basic	5-2	_	darbalaiks_2786_24067

#Text=Šajā periodā LU Biblotēkas centrālā biblotēka strādās darbadienās no 10-18.
6-1	314-318	Šajā	šis	pd3msln	det	basic	6-2	_	darbalaiks_2786_24067
6-2	319-326	periodā	periods	ncmsl1	obl	basic	6-7	_	darbalaiks_2786_24067
6-3	327-329	LU	LU	yp	nmod	basic	6-4	organization[5]	darbalaiks_2786_24067
6-4	330-340	Biblotēkas	Biblotēka	ncfsg4	nmod	basic	6-6	organization[5]	darbalaiks_2786_24067
6-5	341-349	centrālā	centrāls	affsnyp	amod	basic	6-6	organization[5]	darbalaiks_2786_24067
6-6	350-359	biblotēka	biblotēks	ncmsg1	nsubj	basic	6-7	_	darbalaiks_2786_24067
6-7	360-367	strādās	strādāt	vmnif_230an	root	basic	6-7	_	darbalaiks_2786_24067
6-8	368-379	darbadienās	darbadiena	ncfpl4	obl	basic	6-7	time[6]	darbalaiks_2786_24067
6-9	380-382	no	no	sppd	case	basic	6-10	time[6]	darbalaiks_2786_24067
6-10	383-385	10	10	xn	nummod	basic	6-8	time[6]	darbalaiks_2786_24067
6-11	385-386	-	-	zd	punct	basic	6-12	_	darbalaiks_2786_24067
6-12	386-388	18	18	xn	conj	basic	6-8	_	darbalaiks_2786_24067
6-13	388-389	.	.	zs	punct	basic	6-7	_	darbalaiks_2786_24067
