#FORMAT=WebAnno TSV 3.2
#T_SP=de.tudarmstadt.ukp.dkpro.core.api.segmentation.type.Lemma|value
#T_SP=de.tudarmstadt.ukp.dkpro.core.api.lexmorph.type.pos.POS|PosValue
#T_RL=de.tudarmstadt.ukp.dkpro.core.api.syntax.type.dependency.Dependency|DependencyType|flavor|BT_de.tudarmstadt.ukp.dkpro.core.api.lexmorph.type.pos.POS
#T_SP=de.tudarmstadt.ukp.dkpro.core.api.ner.type.NamedEntity|value
#T_SP=webanno.custom.ID|value


#Text=Kāpēc nekur nav uzrakstīts, no cikiem strādā dekanāts?
1-1	0-5	Kāpēc	kāpēc	r0_	advmod	basic	1-4	_	darbalaiks_4620_36460
1-2	6-11	nekur	nekur	r0_	advmod	basic	1-4	_	darbalaiks_4620_36460
1-3	12-15	nav	nebūt	vcnipii30ay	aux:pass	basic	1-4	_	darbalaiks_4620_36460
1-4	16-26	uzrakstīts	uzrakstīt	vmnpdmsnpsnpn	root	basic	1-4	_	darbalaiks_4620_36460
1-5	26-27	,	,	zc	punct	basic	1-8	_	darbalaiks_4620_36460
1-6	28-30	no	no	sppd	case	basic	1-7	_	darbalaiks_4620_36460
1-7	31-37	cikiem	ciks	ncmpd1	iobj	basic	1-8	_	darbalaiks_4620_36460
1-8	38-44	strādā	strādāt	vmnip_230an	conj	basic	1-4	_	darbalaiks_4620_36460
1-9	45-53	dekanāts	dekanāts	ncmsn1	nsubj	basic	1-8	_	darbalaiks_4620_36460
1-10	53-54	?	?	zs	punct	basic	1-4	_	darbalaiks_4620_36460

#Text=Kāds nevar pateikt?
2-1	55-59	Kāds	kāds	pq0msnn	nsubj	basic	2-2	_	darbalaiks_4620_36460
2-2	60-65	nevar	nevarēt	vonip_330an	root	basic	2-2	_	darbalaiks_4620_36460
2-3	66-73	pateikt	pateikt	vmnn0t1000n	xcomp	basic	2-2	_	darbalaiks_4620_36460
2-4	73-74	?	?	zs	punct	basic	2-2	_	darbalaiks_4620_36460

#Text=Kurā fakultātē?
3-1	76-80	Kurā	kurš	pq0msln	det	basic	3-2	_	darbalaiks_4620_36461
3-2	81-90	fakultātē	fakultāte	ncfsl5	root	basic	3-2	_	darbalaiks_4620_36461
3-3	90-91	?	?	zs	punct	basic	3-2	_	darbalaiks_4620_36461

#Text=Bioloģijas
4-1	93-103	Bioloģijas	bioloģija	ncfsg4	root	basic	4-1	_	darbalaiks_4620_36462

#Text=Uzzvaniet un noskaidrosiet!
5-1	105-114	Uzzvaniet	uzzvanīt	vmnm0_32pan	root	basic	5-1	_	darbalaiks_4620_36463
5-2	115-117	un	un	cc	cc	basic	5-3	_	darbalaiks_4620_36463
5-3	118-131	noskaidrosiet	noskaidrot	vmnift22pan	conj	basic	5-1	_	darbalaiks_4620_36463
5-4	131-132	!	!	zs	punct	basic	5-1	_	darbalaiks_4620_36463

#Text=http://www.lu.lv/studijas/koordinatori.
6-1	133-171	http://www.lu.lv/studijas/koordinatori	http://www.lu.lv/studijas/koordinators	ncmpn1	root	basic	6-1	_	darbalaiks_4620_36463
6-2	171-172	.	.	zs	punct	basic	6-1	_	darbalaiks_4620_36463

#Text=html#biol
7-1	172-173	h	h	xx	root	basic	7-1	_	darbalaiks_4620_36463
7-2	173-174	t	t	xx	flat	basic	7-1	_	darbalaiks_4620_36463
7-3	174-175	m	m	xx	flat:name	basic	7-2	_	darbalaiks_4620_36463
7-4	175-176	l	l	xx	flat:name	basic	7-2	_	darbalaiks_4620_36463
7-5	176-177	#	#	xx	flat:name	basic	7-2	_	darbalaiks_4620_36463
7-6	177-181	biol	biol	xf	flat:name	basic	7-2	_	darbalaiks_4620_36463

#Text=Liels paldies!
8-1	183-188	Liels	liels	afmsnnp	amod	basic	8-2	_	darbalaiks_4620_36464
8-2	189-196	paldies	paldies	is	root	basic	8-2	_	darbalaiks_4620_36464
8-3	196-197	!	!	zs	punct	basic	8-2	_	darbalaiks_4620_36464
