#FORMAT=WebAnno TSV 3.2
#T_SP=de.tudarmstadt.ukp.dkpro.core.api.segmentation.type.Lemma|value
#T_SP=de.tudarmstadt.ukp.dkpro.core.api.lexmorph.type.pos.POS|PosValue
#T_RL=de.tudarmstadt.ukp.dkpro.core.api.syntax.type.dependency.Dependency|DependencyType|flavor|BT_de.tudarmstadt.ukp.dkpro.core.api.lexmorph.type.pos.POS
#T_SP=de.tudarmstadt.ukp.dkpro.core.api.ner.type.NamedEntity|value
#T_SP=webanno.custom.ID|value


#Text=Kādi būtu darba laiki vēstures un slāvu bibliotēkas lasītavai?
1-1	0-4	Kādi	kāds	pq0mpnn	nsubj	basic	1-4	_	darbalaiks_22689_170772
1-2	5-9	būtu	būt	vcnc0_i00an	cop	basic	1-1	_	darbalaiks_22689_170772
1-3	10-15	darba	darbs	ncmsg1	nmod	basic	1-4	_	darbalaiks_22689_170772
1-4	16-21	laiki	laiks	ncmpn1	root	basic	1-4	_	darbalaiks_22689_170772
1-5	22-30	vēstures	vēsture	ncfsg5	nmod	basic	1-8	_	darbalaiks_22689_170772
1-6	31-33	un	un	cc	cc	basic	1-7	_	darbalaiks_22689_170772
1-7	34-39	slāvu	slāvs	ncmpg1	conj	basic	1-5	_	darbalaiks_22689_170772
1-8	40-51	bibliotēkas	bibliotēka	ncfsg4	nmod	basic	1-9	_	darbalaiks_22689_170772
1-9	52-61	lasītavai	lasītava	ncfsd4	iobj	basic	1-4	_	darbalaiks_22689_170772
1-10	61-62	?	?	zs	punct	basic	1-4	_	darbalaiks_22689_170772

#Text=Vai arī tā strādā tikai pirmdienās un ceturtdienās?
2-1	63-66	Vai	vai	q	discourse	basic	2-4	_	darbalaiks_22689_170772
2-2	67-70	arī	arī	q	discourse	basic	2-3	_	darbalaiks_22689_170772
2-3	71-73	tā	tā	pd3fsnn	nsubj	basic	2-4	_	darbalaiks_22689_170772
2-4	74-80	strādā	strādāt	vmnip_230an	root	basic	2-4	_	darbalaiks_22689_170772
2-5	81-86	tikai	tikai	q	discourse	basic	2-6	_	darbalaiks_22689_170772
2-6	87-97	pirmdienās	pirmdiena	ncfpl4	obl	basic	2-4	time[1]	darbalaiks_22689_170772
2-7	98-100	un	un	cc	cc	basic	2-8	time[1]	darbalaiks_22689_170772
2-8	101-113	ceturtdienās	ceturtdiena	ncfpl4	conj	basic	2-6	time[1]	darbalaiks_22689_170772
2-9	113-114	?	?	zs	punct	basic	2-4	_	darbalaiks_22689_170772

#Text=Bibliotēkas nodaļu darba laiki:\nhttp://www.lu.lv/biblioteka/darbalaiks/
3-1	116-127	Bibliotēkas	bibliotēka	ncfsg4	nmod	basic	3-2	organization[2]	darbalaiks_22689_170773
3-2	128-134	nodaļu	nodaļa	ncfpg4	nmod	basic	3-3	organization[2]	darbalaiks_22689_170773
3-3	135-140	darba	darbs	ncmsg1	nmod	basic	3-4	_	darbalaiks_22689_170773
3-4	141-146	laiki	laiks	ncmpn1	root	basic	3-4	_	darbalaiks_22689_170773
3-5	146-147	:	:	zo	punct	basic	3-6	_	darbalaiks_22689_170773
3-6	148-187	http://www.lu.lv/biblioteka/darbalaiks/	http://www.lu.lv/biblioteka/darbalaiks/	xx	parataxis	basic	3-4	_	darbalaiks_22689_170773

#Text=Humanitāro zinātņu bibliotēkas (Kr. Valdemāra ielā 69) darba laiks: I, IV no 13 - 18 , tel.
4-1	189-199	Humanitāro	humanitārs	affpgyp	amod	basic	4-3	organization[3]	darbalaiks_22689_170774
4-2	200-207	zinātņu	zinātne	ncfpg5	nmod	basic	4-3	organization[3]	darbalaiks_22689_170774
4-3	208-219	bibliotēkas	bibliotēka	ncfsg4	nmod	basic	4-11	organization[3]	darbalaiks_22689_170774
4-4	220-221	(	(	zb	punct	basic	4-11	_	darbalaiks_22689_170774
4-5	221-224	Kr.	kr.	y	discourse	basic	4-11	_	darbalaiks_22689_170774
4-6	225-234	Valdemāra	Valdemārs	npmsg1	nmod	basic	4-7	location[4]	darbalaiks_22689_170774
4-7	235-239	ielā	iela	ncfsl4	obl	basic	4-5	location[4]	darbalaiks_22689_170774
4-8	240-242	69	69	xn	discourse	basic	4-11	location[4]	darbalaiks_22689_170774
4-9	242-243	)	)	zb	punct	basic	4-8	_	darbalaiks_22689_170774
4-10	244-249	darba	darbs	ncmsg1	nmod	basic	4-11	_	darbalaiks_22689_170774
4-11	250-255	laiks	laiks	ncmsn1	root	basic	4-11	_	darbalaiks_22689_170774
4-12	255-256	:	:	zo	punct	basic	4-11	_	darbalaiks_22689_170774
4-13	257-258	I	i	xn	acl	basic	4-12	_	darbalaiks_22689_170774
4-14	258-259	,	,	zc	punct	basic	4-15	_	darbalaiks_22689_170774
4-15	260-262	IV	iv	xn	conj	basic	4-13	_	darbalaiks_22689_170774
4-16	263-265	no	no	sppd	case	basic	4-17	_	darbalaiks_22689_170774
4-17	266-268	13	13	xn	nummod	basic	4-15	_	darbalaiks_22689_170774
4-18	269-270	-	-	zd	cc	basic	4-19	_	darbalaiks_22689_170774
4-19	271-273	18	18	xn	conj	basic	4-15	_	darbalaiks_22689_170774
4-20	274-275	,	,	zc	punct	basic	4-21	_	darbalaiks_22689_170774
4-21	276-279	tel	tel	i	conj	basic	4-13	_	darbalaiks_22689_170774
4-22	279-280	.	.	zs	punct	basic	4-11	_	darbalaiks_22689_170774

#Text=uzziņām 67273803. Steidzamos gadījumos interesēties Humanitāro zinātņu lasītavā (Visvalža iela 4a), tel.
5-1	281-288	uzziņām	uzziņa	ncfpd4	iobj	basic	5-5	_	darbalaiks_22689_170774
5-2	289-298	67273803.	67273803.	xo	amod	basic	5-4	_	darbalaiks_22689_170774
5-3	299-309	Steidzamos	steidzams	afmpayp	amod	basic	5-4	_	darbalaiks_22689_170774
5-4	310-319	gadījumos	gadījums	ncmpl1	obl	basic	5-5	_	darbalaiks_22689_170774
5-5	320-332	interesēties	interesēties	vmyn0_2000n	root	basic	5-5	_	darbalaiks_22689_170774
5-6	333-343	Humanitāro	humanitārs	affpgyp	amod	basic	5-8	organization[5]	darbalaiks_22689_170774
5-7	344-351	zinātņu	zinātne	ncfpg5	nmod	basic	5-8	organization[5]	darbalaiks_22689_170774
5-8	352-360	lasītavā	lasītava	ncfsl4	obl	basic	5-15	organization[5]	darbalaiks_22689_170774
5-9	361-362	(	(	zb	punct	basic	5-11	_	darbalaiks_22689_170774
5-10	362-370	Visvalža	Visvaldis	npmsg2	nmod	basic	5-11	location[6]	darbalaiks_22689_170774
5-11	371-375	iela	iela	ncfsn4	discourse	basic	5-8	location[6]	darbalaiks_22689_170774
5-12	376-378	4a	4a	xf	orphan	basic	5-11	location[6]	darbalaiks_22689_170774
5-13	378-379	)	)	zb	punct	basic	5-11	_	darbalaiks_22689_170774
5-14	379-380	,	,	zc	punct	basic	5-11	_	darbalaiks_22689_170774
5-15	381-384	tel	tel	i	iobj	basic	5-5	_	darbalaiks_22689_170774
5-16	384-385	.	.	zs	punct	basic	5-5	_	darbalaiks_22689_170774

#Text=67033846.
6-1	385-393	67033846	67033846	xn	root	basic	6-1	_	darbalaiks_22689_170774
6-2	393-394	.	.	zs	punct	basic	6-1	_	darbalaiks_22689_170774
