#FORMAT=WebAnno TSV 3.2
#T_SP=de.tudarmstadt.ukp.dkpro.core.api.segmentation.type.Lemma|value
#T_SP=de.tudarmstadt.ukp.dkpro.core.api.lexmorph.type.pos.POS|PosValue
#T_RL=de.tudarmstadt.ukp.dkpro.core.api.syntax.type.dependency.Dependency|DependencyType|flavor|BT_de.tudarmstadt.ukp.dkpro.core.api.lexmorph.type.pos.POS
#T_SP=de.tudarmstadt.ukp.dkpro.core.api.ner.type.NamedEntity|value
#T_SP=webanno.custom.ID|value


#Text=Kas īsti ir "Izziņa par ģimenes sastāvu"?
1-1	0-3	Kas	kas	pr000nn	root	basic	1-1	_	dokum_4891_38427
1-2	4-8	īsti	īsti	r0_	advmod	basic	1-1	_	dokum_4891_38427
1-3	9-11	ir	būt	vcnipii30an	cop	basic	1-1	_	dokum_4891_38427
1-4	12-13	"	"	zq	punct	basic	1-5	entity[1]	dokum_4891_38427
1-5	13-19	Izziņa	izziņa	ncfsn4	nsubj	basic	1-1	entity[1]	dokum_4891_38427
1-6	20-23	par	par	spsa	case	basic	1-8	entity[1]	dokum_4891_38427
1-7	24-31	ģimenes	ģimene	ncfsg5	nmod	basic	1-8	entity[1]	dokum_4891_38427
1-8	32-39	sastāvu	sastāvs	ncmsa1	nmod	basic	1-5	entity[1]	dokum_4891_38427
1-9	39-40	"	"	zq	punct	basic	1-5	entity[1]	dokum_4891_38427
1-10	40-41	?	?	zs	punct	basic	1-1	_	dokum_4891_38427

#Text=Vai tā pati par deklarēto dzīvesvietu?
2-1	42-45	Vai	vai	q	discourse	basic	2-6	_	dokum_4891_38427
2-2	46-48	tā	tā	pd3fsnn	nsubj	basic	2-6	_	dokum_4891_38427
2-3	49-53	pati	pati	pg0fsnn	compound	basic	2-2	_	dokum_4891_38427
2-4	54-57	par	par	spsa	case	basic	2-6	_	dokum_4891_38427
2-5	58-67	deklarēto	deklarēt	vmnpdfsapsypn	amod	basic	2-6	_	dokum_4891_38427
2-6	68-79	dzīvesvietu	dzīvesvieta	ncfsa4	root	basic	2-6	_	dokum_4891_38427
2-7	79-80	?	?	zs	punct	basic	2-6	_	dokum_4891_38427

#Text=Vai nē - tad kur tā jāizņem?
3-1	81-84	Vai	vai	q	discourse	basic	3-7	_	dokum_4891_38427
3-2	85-87	nē	nē	q	discourse	basic	3-7	_	dokum_4891_38427
3-3	88-89	-	-	zd	punct	basic	3-2	_	dokum_4891_38427
3-4	90-93	tad	tad	r0_	advmod	basic	3-7	_	dokum_4891_38427
3-5	94-97	kur	kur	r0_	advmod	basic	3-7	_	dokum_4891_38427
3-6	98-100	tā	tā	pd3fsnn	nsubj	basic	3-7	_	dokum_4891_38427
3-7	101-108	jāizņem	izņemt	vmnd0t100an	root	basic	3-7	_	dokum_4891_38427
3-8	108-109	?	?	zs	punct	basic	3-7	_	dokum_4891_38427

#Text=Labdien, šajā jautājumā sazinieties ar LU SP.\nPapildu informācija un atbildes uz jautājumiem:\nKaspars Mednis\nE-pasts: kaspars.mednis@lusp.lvŠī e-pasta adrese ir aizsargāta pret mēstuļošanu (spam), Jūsu pārlūkam ir jābūt aktivizētam Javascript, lai to aplūkotu\nTel:+371 26167607 \nAr cieņu,\nStudentu servisa konsultants
4-1	112-119	Labdien	labdien	is	discourse	basic	4-5	_	dokum_4891_38428
4-2	119-120	,	,	zc	punct	basic	4-1	_	dokum_4891_38428
4-3	121-125	šajā	šis	pd3msln	det	basic	4-4	_	dokum_4891_38428
4-4	126-135	jautājumā	jautājums	ncmsl1	obl	basic	4-5	_	dokum_4891_38428
4-5	136-147	sazinieties	sazināties	vmym0_32pan	root	basic	4-5	_	dokum_4891_38428
4-6	148-150	ar	ar	spsa	case	basic	4-10	_	dokum_4891_38428
4-7	151-153	LU	LU	yp	nmod	basic	4-8	organization[2]	dokum_4891_38428
4-8	154-157	SP.	sp.	y	nmod	basic	4-10	_	dokum_4891_38428
4-9	158-165	Papildu	Papildu	afmpgn_	amod	basic	4-10	_	dokum_4891_38428
4-10	166-177	informācija	informācija	ncfsn4	iobj	basic	4-5	_	dokum_4891_38428
4-11	178-180	un	un	cc	cc	basic	4-12	_	dokum_4891_38428
4-12	181-189	atbildes	atbilde	ncfpa5	conj	basic	4-10	_	dokum_4891_38428
4-13	190-192	uz	uz	sppd	case	basic	4-14	_	dokum_4891_38428
4-14	193-204	jautājumiem	jautājums	ncmpd1	nmod	basic	4-12	_	dokum_4891_38428
4-15	204-205	:	:	zo	punct	basic	4-5	_	dokum_4891_38428
4-16	206-213	Kaspars	Kaspars	npmsn1	nmod	basic	4-17	person[3]	dokum_4891_38428
4-17	214-220	Mednis	mednis	ncmsn2	flat:name	basic	4-15	person[3]	dokum_4891_38428
4-18	221-228	E-pasts	E-pasts	ncmsn1	flat:name	basic	4-17	_	dokum_4891_38428
4-19	228-229	:	:	zo	punct	basic	4-24	_	dokum_4891_38428
4-20	230-254	kaspars.mednis@lusp.lvŠī	kaspars.mednis@lusp.lvšī	nc___0	amod	basic	4-22	_	dokum_4891_38428
4-21	255-262	e-pasta	e-pasts	ncmsg1	nmod	basic	4-22	_	dokum_4891_38428
4-22	263-269	adrese	adrese	ncfsn5	nsubj	basic	4-24	_	dokum_4891_38428
4-23	270-272	ir	būt	vcnipii30an	aux	basic	4-24	_	dokum_4891_38428
4-24	273-283	aizsargāta	aizsargāt	vmnpdfsnpsnpn	root	basic	4-24	_	dokum_4891_38428
4-25	284-288	pret	pret	spsa	case	basic	4-26	_	dokum_4891_38428
4-26	289-300	mēstuļošanu	mēstuļošana	ncfsa4	iobj	basic	4-24	_	dokum_4891_38428
4-27	301-302	(	(	zb	punct	basic	4-28	_	dokum_4891_38428
4-28	302-306	spam	spam	xf	discourse	basic	4-26	_	dokum_4891_38428
4-29	306-307	)	)	zb	punct	basic	4-28	_	dokum_4891_38428
4-30	307-308	,	,	zc	punct	basic	4-35	_	dokum_4891_38428
4-31	309-313	Jūsu	jūs	pp20pgn	det	basic	4-32	_	dokum_4891_38428
4-32	314-322	pārlūkam	pārlūks	ncmsd1	nsubj	basic	4-35	_	dokum_4891_38428
4-33	323-325	ir	būt	vcnipii30an	aux	basic	4-35	_	dokum_4891_38428
4-34	326-331	jābūt	būt	vcnd0_i00an	cop	basic	4-35	_	dokum_4891_38428
4-35	332-343	aktivizētam	aktivizēt	vmnpdmsdpsnpn	conj	basic	4-24	_	dokum_4891_38428
4-36	344-354	Javascript	Javascript	vmnn0_i000n	ccomp	basic	4-35	person[4]	dokum_4891_38428
4-37	354-355	,	,	zc	punct	basic	4-40	_	dokum_4891_38428
4-38	356-359	lai	lai	cs	mark	basic	4-40	_	dokum_4891_38428
4-39	360-362	to	tas	pd3msan	obj	basic	4-40	_	dokum_4891_38428
4-40	363-371	aplūkotu	aplūkot	vmnc0t200an	advcl	basic	4-36	_	dokum_4891_38428
4-41	372-375	Tel	Tel	xf	nsubj	basic	4-40	person[5]	dokum_4891_38428
4-42	375-376	:	:	zo	punct	basic	4-43	_	dokum_4891_38428
4-43	376-377	+	+	xx	acl	basic	4-41	_	dokum_4891_38428
4-44	377-384	371 261	371 261	xn	acl	basic	4-43	_	dokum_4891_38428
4-45	384-389	67607	67607	xn	flat	basic	4-43	_	dokum_4891_38428
4-46	391-393	Ar	ar	spsa	case	basic	4-47	_	dokum_4891_38428
4-47	394-399	cieņu	cieņa	ncfsa4	acl	basic	4-43	_	dokum_4891_38428
4-48	399-400	,	,	zc	punct	basic	4-43	_	dokum_4891_38428
4-49	401-409	Studentu	students	ncmpg1	nmod	basic	4-50	_	dokum_4891_38428
4-50	410-417	servisa	serviss	ncmsg1	nmod	basic	4-51	_	dokum_4891_38428
4-51	418-429	konsultants	konsultants	ncmsn1	conj	basic	4-40	_	dokum_4891_38428
