#FORMAT=WebAnno TSV 3.2
#T_SP=de.tudarmstadt.ukp.dkpro.core.api.segmentation.type.Lemma|value
#T_SP=de.tudarmstadt.ukp.dkpro.core.api.lexmorph.type.pos.POS|PosValue
#T_RL=de.tudarmstadt.ukp.dkpro.core.api.syntax.type.dependency.Dependency|DependencyType|flavor|BT_de.tudarmstadt.ukp.dkpro.core.api.lexmorph.type.pos.POS
#T_SP=de.tudarmstadt.ukp.dkpro.core.api.ner.type.NamedEntity|value
#T_SP=webanno.custom.ID|value


#Text=Vai, stājoties maģistratūrā, būs jānodod LU bakalaura diploms LU, līdz kamēr tiks iegūts maģistra grāds vai arī būs tikai jāiesniedz bakalaura diploma kopija un oriģināls paliek pie sevis?
1-1	0-3	Vai	vai	q	discourse	basic	1-7	_	dokum_22103_166809
1-2	3-4	,	,	zc	punct	basic	1-3	_	dokum_22103_166809
1-3	5-14	stājoties	stāties	vmypu0000000n	advcl	basic	1-7	_	dokum_22103_166809
1-4	15-27	maģistratūrā	maģistratūra	ncfsl4	obl	basic	1-3	_	dokum_22103_166809
1-5	27-28	,	,	zc	punct	basic	1-3	_	dokum_22103_166809
1-6	29-32	būs	būt	vcnif_i30an	aux	basic	1-7	_	dokum_22103_166809
1-7	33-40	jānodod	nodot	vmnd0t100an	root	basic	1-7	_	dokum_22103_166809
1-8	41-43	LU	LU	yp	nmod	basic	1-10	organization[1]	dokum_22103_166809
1-9	44-53	bakalaura	bakalaurs	ncmsg1	nmod	basic	1-10	organization[1]	dokum_22103_166809
1-10	54-61	diploms	diploms	ncmsn1	obj	basic	1-7	_	dokum_22103_166809
1-11	62-64	LU	LU	yp	nmod	basic	1-10	organization[2]	dokum_22103_166809
1-12	64-65	,	,	zc	punct	basic	1-16	_	dokum_22103_166809
1-13	66-70	līdz	līdz	cs	mark	basic	1-16	_	dokum_22103_166809
1-14	71-76	kamēr	kamēr	cs	mark	basic	1-16	_	dokum_22103_166809
1-15	77-81	tiks	tikt	vtnifi130an	aux:pass	basic	1-16	_	dokum_22103_166809
1-16	82-88	iegūts	iegūt	vmnpdmsnpsnpn	advcl	basic	1-7	_	dokum_22103_166809
1-17	89-97	maģistra	maģistrs	ncmsg1	nmod	basic	1-18	_	dokum_22103_166809
1-18	98-103	grāds	grāds	ncmsn1	nsubj:pass	basic	1-16	_	dokum_22103_166809
1-19	104-107	vai	vai	cs	cc	basic	1-23	_	dokum_22103_166809
1-20	108-111	arī	arī	q	discourse	basic	1-23	_	dokum_22103_166809
1-21	112-115	būs	būt	vcnif_i30an	aux	basic	1-23	_	dokum_22103_166809
1-22	116-121	tikai	tikai	q	discourse	basic	1-23	_	dokum_22103_166809
1-23	122-132	jāiesniedz	iesniegt	vmnd0t100an	conj	basic	1-16	_	dokum_22103_166809
1-24	133-142	bakalaura	bakalaurs	ncmsg1	nmod	basic	1-25	_	dokum_22103_166809
1-25	143-150	diploma	diploms	ncmsg1	nmod	basic	1-26	_	dokum_22103_166809
1-26	151-157	kopija	kopija	ncfsn4	obj	basic	1-23	_	dokum_22103_166809
1-27	158-160	un	un	cc	cc	basic	1-29	_	dokum_22103_166809
1-28	161-170	oriģināls	oriģināls	ncmsn1	nsubj	basic	1-29	_	dokum_22103_166809
1-29	171-177	paliek	palikt	vtnipi130an	conj	basic	1-16	_	dokum_22103_166809
1-30	178-181	pie	pie	spsg	case	basic	1-31	_	dokum_22103_166809
1-31	182-187	sevis	sevis	px000gn	obl	basic	1-29	_	dokum_22103_166809
1-32	187-188	?	?	zs	punct	basic	1-7	_	dokum_22103_166809

#Text=Protams, ka jānodod būs tikai kopija, bet oriģināls tikai jāuzrāda.
2-1	190-197	Protams	protams	q	discourse	basic	2-1	_	dokum_22103_166810
2-2	197-198	,	,	zc	punct	basic	2-1	_	dokum_22103_166810
2-3	199-201	ka	ka	cs	mark	basic	2-4	_	dokum_22103_166810
2-4	202-209	jānodod	nodot	vmnd0t100an	ccomp	basic	2-1	_	dokum_22103_166810
2-5	210-213	būs	būt	vcnif_i30an	cop	basic	2-4	_	dokum_22103_166810
2-6	214-219	tikai	tikai	q	discourse	basic	2-7	_	dokum_22103_166810
2-7	220-226	kopija	kopija	ncfsn4	nsubj	basic	2-5	_	dokum_22103_166810
2-8	226-227	,	,	zc	punct	basic	2-12	_	dokum_22103_166810
2-9	228-231	bet	bet	cc	cc	basic	2-12	_	dokum_22103_166810
2-10	232-241	oriģināls	oriģināls	afmsnnp	obj	basic	2-12	_	dokum_22103_166810
2-11	242-247	tikai	tikai	q	discourse	basic	2-12	_	dokum_22103_166810
2-12	248-256	jāuzrāda	uzrādīt	vmnd0t300an	conj	basic	2-5	_	dokum_22103_166810
2-13	256-257	.	.	zs	punct	basic	2-4	_	dokum_22103_166810
