#FORMAT=WebAnno TSV 3.2
#T_SP=de.tudarmstadt.ukp.dkpro.core.api.segmentation.type.Lemma|value
#T_SP=de.tudarmstadt.ukp.dkpro.core.api.lexmorph.type.pos.POS|PosValue
#T_RL=de.tudarmstadt.ukp.dkpro.core.api.syntax.type.dependency.Dependency|DependencyType|flavor|BT_de.tudarmstadt.ukp.dkpro.core.api.lexmorph.type.pos.POS
#T_SP=de.tudarmstadt.ukp.dkpro.core.api.ner.type.NamedEntity|value
#T_SP=webanno.custom.ID|value


#Text=Kādi nepieciešamie dokumenti vai kopijas ir vajadzīgi iestājoties maģistros?
1-1	0-4	Kādi	kāds	pq0mpnn	det	basic	1-3	_	dokum_12591_97739
1-2	5-18	nepieciešamie	nepieciešams	afmpnyp	amod	basic	1-3	_	dokum_12591_97739
1-3	19-28	dokumenti	dokuments	ncmpn1	nsubj	basic	1-7	_	dokum_12591_97739
1-4	29-32	vai	vai	cs	cc	basic	1-5	_	dokum_12591_97739
1-5	33-40	kopijas	kopija	ncfsg4	conj	basic	1-3	_	dokum_12591_97739
1-6	41-43	ir	būt	vcnipii30an	cop	basic	1-7	_	dokum_12591_97739
1-7	44-53	vajadzīgi	vajadzīgs	afmpnnp	root	basic	1-7	_	dokum_12591_97739
1-8	54-65	iestājoties	iestāties	vmypu0000000n	advcl	basic	1-7	_	dokum_12591_97739
1-9	66-75	maģistros	maģistrs	ncmpl1	obl	basic	1-8	_	dokum_12591_97739
1-10	75-76	?	?	zs	punct	basic	1-7	_	dokum_12591_97739

#Text=Dokumenti ir minēti šeit:\nhttp://www.lu.lv/gribustudet/augst-dokumenti.html
2-1	78-87	Dokumenti	dokuments	ncmpn1	nsubj	basic	2-3	_	dokum_12591_97740
2-2	88-90	ir	būt	vcnipii30an	aux	basic	2-3	_	dokum_12591_97740
2-3	91-97	minēti	minēt	vmnpdmpnpsnpn	root	basic	2-3	_	dokum_12591_97740
2-4	98-102	šeit	šeit	r0_	advmod	basic	2-3	_	dokum_12591_97740
2-5	102-103	:	:	zo	punct	basic	2-6	_	dokum_12591_97740
2-6	104-153	http://www.lu.lv/gribustudet/augst-dokumenti.html	http://www.lu.lv/gribustudet/augst-dokumenti.html	xf	parataxis	basic	2-3	_	dokum_12591_97740
