#FORMAT=WebAnno TSV 3.2
#T_SP=de.tudarmstadt.ukp.dkpro.core.api.segmentation.type.Lemma|value
#T_SP=de.tudarmstadt.ukp.dkpro.core.api.lexmorph.type.pos.POS|PosValue
#T_RL=de.tudarmstadt.ukp.dkpro.core.api.syntax.type.dependency.Dependency|DependencyType|flavor|BT_de.tudarmstadt.ukp.dkpro.core.api.lexmorph.type.pos.POS
#T_SP=de.tudarmstadt.ukp.dkpro.core.api.ner.type.NamedEntity|value
#T_SP=webanno.custom.ID|value


#Text=Kādi dokumenti ir jāuzrāda reģstrējoties pamatstudijām?
1-1	0-4	Kādi	kāds	pq0mpnn	det	basic	1-2	_	dokum_4887_38391
1-2	5-14	dokumenti	dokuments	ncmpn1	nsubj	basic	1-4	_	dokum_4887_38391
1-3	15-17	ir	būt	vcnipii30an	aux	basic	1-4	_	dokum_4887_38391
1-4	18-26	jāuzrāda	uzrādīt	vmnd0t300an	root	basic	1-4	_	dokum_4887_38391
1-5	27-40	reģstrējoties	reģstrējāties	vmypu0000000n	advcl	basic	1-4	_	dokum_4887_38391
1-6	41-54	pamatstudijām	pamatstudijīt	vmnip_31pan	ccomp	basic	1-5	_	dokum_4887_38391
1-7	54-55	?	?	zs	punct	basic	1-4	_	dokum_4887_38391

#Text=Vai ir jāuzrada arī kaut kādi dokumenti par pamatskolas izglītību?
2-1	56-59	Vai	vai	q	discourse	basic	2-3	_	dokum_4887_38391
2-2	60-62	ir	būt	vcnipii30an	aux	basic	2-3	_	dokum_4887_38391
2-3	63-71	jāuzrada	uzradīt	vmnd0t300an	root	basic	2-3	_	dokum_4887_38391
2-4	72-75	arī	arī	q	discourse	basic	2-7	_	dokum_4887_38391
2-5	76-80	kaut	kaut	q	discourse	basic	2-6	_	dokum_4887_38391
2-6	81-85	kādi	kāds	pi0mpnn	det	basic	2-7	_	dokum_4887_38391
2-7	86-95	dokumenti	dokuments	ncmpn1	nsubj	basic	2-3	_	dokum_4887_38391
2-8	96-99	par	par	spsa	case	basic	2-10	_	dokum_4887_38391
2-9	100-111	pamatskolas	pamatskola	ncfsg4	nmod	basic	2-10	_	dokum_4887_38391
2-10	112-121	izglītību	izglītība	ncfsa4	nmod	basic	2-7	_	dokum_4887_38391
2-11	121-122	?	?	zs	punct	basic	2-3	_	dokum_4887_38391

#Text=http://www.lu.lv/gribustudet/pam-registresanas.html
3-1	124-175	http://www.lu.lv/gribustudet/pam-registresanas.html	http://www.lu.lv/gribustudet/pam-registresanas.html	xf	root	basic	3-1	_	dokum_4887_38392

#Text=Labdien!
4-1	177-184	Labdien	labdien	is	root	basic	4-1	_	dokum_4887_38400
4-2	184-185	!	!	zs	punct	basic	4-1	_	dokum_4887_38400

#Text=Sakiet, lūdzu, kur jānodod dokumenti, ja man jāsāk mācības māszinību fakultātē februārī?
5-1	186-192	Sakiet	sacīt	vmnm0t32pan	root	basic	5-1	_	dokum_4887_38400
5-2	192-193	,	,	zc	punct	basic	5-1	_	dokum_4887_38400
5-3	194-199	lūdzu	lūdzu	is	discourse	basic	5-16	_	dokum_4887_38400
5-4	199-200	,	,	zc	punct	basic	5-6	_	dokum_4887_38400
5-5	201-204	kur	kur	r0_	advmod	basic	5-6	_	dokum_4887_38400
5-6	205-212	jānodod	nodot	vmnd0t100an	ccomp	basic	5-3	_	dokum_4887_38400
5-7	213-222	dokumenti	dokuments	ncmpn1	nsubj	basic	5-6	_	dokum_4887_38400
5-8	222-223	,	,	zc	punct	basic	5-11	_	dokum_4887_38400
5-9	224-226	ja	ja	cs	mark	basic	5-11	_	dokum_4887_38400
5-10	227-230	man	es	pp10sdn	nsubj	basic	5-11	_	dokum_4887_38400
5-11	231-236	jāsāk	sākt	vpnd0t100an	advcl	basic	5-6	_	dokum_4887_38400
5-12	237-244	mācības	mācība	ncfsg4	nmod	basic	5-13	_	dokum_4887_38400
5-13	245-254	māszinību	māszinība	ncfpg4	nmod	basic	5-14	_	dokum_4887_38400
5-14	255-264	fakultātē	fakultāte	ncfsl5	obl	basic	5-15	_	dokum_4887_38400
5-15	265-273	februārī	februāris	ncmsl2	nsubj	basic	5-11	time[1]	dokum_4887_38400
5-16	273-274	?	?	zs	punct	basic	5-1	_	dokum_4887_38400

#Text=Šarlotes ielā vai Raiņa bulvārī?
6-1	275-283	Šarlotes	Šarlote	npfsg5	nmod	basic	6-2	location[2]	dokum_4887_38400
6-2	284-288	ielā	iela	ncfsl4	root	basic	6-2	location[2]	dokum_4887_38400
6-3	289-292	vai	vai	cs	cc	basic	6-5	_	dokum_4887_38400
6-4	293-298	Raiņa	Raiņs	ncmsg1	nmod	basic	6-5	location[3]	dokum_4887_38400
6-5	299-306	bulvārī	bulvāris	ncmsl2	conj	basic	6-2	location[3]	dokum_4887_38400
6-6	306-307	?	?	zs	punct	basic	6-2	_	dokum_4887_38400

#Text=Paldies.
7-1	308-315	Paldies	paldies	is	root	basic	7-1	_	dokum_4887_38400
7-2	315-316	.	.	zs	punct	basic	7-1	_	dokum_4887_38400

#Text=Šarlotes ielā:\nhttp://www.lu.lv/aktualitates/index.html?id=2225
8-1	318-326	Šarlotes	Šarlote	npfsg5	nmod	basic	8-2	location[4]	dokum_4887_38401
8-2	327-331	ielā	iela	ncfsl4	root	basic	8-2	location[4]	dokum_4887_38401
8-3	331-332	:	:	zo	punct	basic	8-4	_	dokum_4887_38401
8-4	333-381	http://www.lu.lv/aktualitates/index.html?id=2225	http://www.lu.lv/aktualitates/index.html?id=2225	xx	parataxis	basic	8-2	_	dokum_4887_38401

#Text=Kādi dokumenti jaiesniedz universitātē, lai pieteiktos mācībām?
9-1	383-387	Kādi	kāds	pq0mpnn	det	basic	9-2	_	dokum_4887_38403
9-2	388-397	dokumenti	dokuments	ncmpn1	root	basic	9-2	_	dokum_4887_38403
9-3	398-408	jaiesniedz	jaiesniedz	yp	nmod	basic	9-4	_	dokum_4887_38403
9-4	409-421	universitātē	universitāte	ncfsl5	obl	basic	9-2	_	dokum_4887_38403
9-5	421-422	,	,	zc	punct	basic	9-7	_	dokum_4887_38403
9-6	423-426	lai	lai	cs	mark	basic	9-7	_	dokum_4887_38403
9-7	427-437	pieteiktos	pieteikties	vmyc0_100an	advcl	basic	9-2	_	dokum_4887_38403
9-8	438-445	mācībām	mācība	ncfpd4	iobj	basic	9-7	_	dokum_4887_38403
9-9	445-446	?	?	zs	punct	basic	9-2	_	dokum_4887_38403

#Text=Nemaz jau nav tik grūti atrast kaut ko mūsu mājas lapā: http://www.lu.lv/gribustudet/pamatstudijas/dokumenti.html
10-1	448-453	Nemaz	nemaz	r0_	advmod	basic	10-5	_	dokum_4887_38404
10-2	454-457	jau	jau	r0_	advmod	basic	10-5	_	dokum_4887_38404
10-3	458-461	nav	nebūt	vcnipii30ay	cop	basic	10-5	_	dokum_4887_38404
10-4	462-465	tik	tik	r0_	advmod	basic	10-5	_	dokum_4887_38404
10-5	466-471	grūti	grūti	r0_	root	basic	10-5	_	dokum_4887_38404
10-6	472-478	atrast	atrast	vmnn0i1000n	ccomp	basic	10-5	_	dokum_4887_38404
10-7	479-483	kaut	kaut	q	discourse	basic	10-8	_	dokum_4887_38404
10-8	484-486	ko	kas	pi000an	det	basic	10-11	_	dokum_4887_38404
10-9	487-491	mūsu	mēs	pp10pgn	det	basic	10-10	_	dokum_4887_38404
10-10	492-497	mājas	māja	ncfsg4	nmod	basic	10-11	_	dokum_4887_38404
10-11	498-502	lapā	lapa	ncfsl4	obl	basic	10-6	_	dokum_4887_38404
10-12	502-503	:	:	zo	punct	basic	10-13	_	dokum_4887_38404
10-13	504-561	http://www.lu.lv/gribustudet/pamatstudijas/dokumenti.html	http://www.lu.lv/gribustudet/pamatstudijas/dokumenti.html	xf	parataxis	basic	10-6	_	dokum_4887_38404

#Text=Tie ir dokumenti pamatstudijām.
11-1	563-566	Tie	tas	pd3mpnn	nsubj	basic	11-4	_	dokum_4887_38405
11-2	567-569	ir	būt	vcnipii30an	cop	basic	11-4	_	dokum_4887_38405
11-3	570-579	dokumenti	dokuments	ncmpn1	nsubj	basic	11-4	_	dokum_4887_38405
11-4	580-593	pamatstudijām	pamatstudijīt	vmnip_31pan	root	basic	11-4	_	dokum_4887_38405
11-5	593-594	.	.	zs	punct	basic	11-4	_	dokum_4887_38405

#Text=Ja gribat pieteikties maģistra studijām, tad dokumenti ir šeit:\nhttp://www.lu.lv/gribustudet/augstakais/dokumenti.html
12-1	595-597	Ja	ja	cs	mark	basic	12-2	_	dokum_4887_38405
12-2	598-604	gribat	gribēt	vonip_32pan	advcl	basic	12-9	_	dokum_4887_38405
12-3	605-616	pieteikties	pieteikties	vmyn0_1000n	xcomp	basic	12-2	_	dokum_4887_38405
12-4	617-625	maģistra	maģistrs	ncmsg1	nmod	basic	12-5	_	dokum_4887_38405
12-5	626-634	studijām	studijas	ncfdd4	obj	basic	12-3	_	dokum_4887_38405
12-6	634-635	,	,	zc	punct	basic	12-2	_	dokum_4887_38405
12-7	636-639	tad	tad	r0_	advmod	basic	12-9	_	dokum_4887_38405
12-8	640-649	dokumenti	dokuments	ncmpn1	nsubj	basic	12-9	_	dokum_4887_38405
12-9	650-652	ir	būt	vcnipii30an	root	basic	12-9	_	dokum_4887_38405
12-10	653-657	šeit	šeit	r0_	advmod	basic	12-9	_	dokum_4887_38405
12-11	657-658	:	:	zo	punct	basic	12-12	_	dokum_4887_38405
12-12	659-713	http://www.lu.lv/gribustudet/augstakais/dokumenti.html	http://www.lu.lv/gribustudet/augstakais/dokumenti.html	xf	root	basic	12-12	_	dokum_4887_38405

#Text=Kādiem dokumentiem jābūt līdzi, lai reģistrētos?
13-1	715-721	Kādiem	kāds	pi0mpdn	det	basic	13-2	_	dokum_4887_38406
13-2	722-733	dokumentiem	dokuments	ncmpd1	nsubj	basic	13-2	_	dokum_4887_38406
13-3	734-739	jābūt	būt	vcnd0_i00an	root	basic	13-3	_	dokum_4887_38406
13-4	740-745	līdzi	līdzi	r0_	advmod	basic	13-3	_	dokum_4887_38406
13-5	745-746	,	,	zc	punct	basic	13-7	_	dokum_4887_38406
13-6	747-750	lai	lai	cs	mark	basic	13-7	_	dokum_4887_38406
13-7	751-762	reģistrētos	reģistrēties	vmyc0_200an	advcl	basic	13-3	_	dokum_4887_38406
13-8	762-763	?	?	zs	punct	basic	13-3	_	dokum_4887_38406

#Text=Pase, atestāts, sekmju izraksts, CE sertifikāts un šo visu dokumentu kopijas.
14-1	765-769	Pase	pase	ncfsn5	root	basic	14-1	_	dokum_4887_38407
14-2	769-770	,	,	zc	punct	basic	14-3	_	dokum_4887_38407
14-3	771-779	atestāts	atestāts	ncmsn1	conj	basic	14-1	_	dokum_4887_38407
14-4	779-780	,	,	zc	punct	basic	14-6	_	dokum_4887_38407
14-5	781-787	sekmju	sekmes	ncfdg5	nmod	basic	14-6	_	dokum_4887_38407
14-6	788-796	izraksts	izraksts	ncmsn1	conj	basic	14-1	_	dokum_4887_38407
14-7	796-797	,	,	zc	punct	basic	14-9	_	dokum_4887_38407
14-8	798-800	CE	CE	y	nmod	basic	14-9	_	dokum_4887_38407
14-9	801-812	sertifikāts	sertifikāts	ncmsn1	conj	basic	14-1	_	dokum_4887_38407
14-10	813-815	un	un	cc	cc	basic	14-14	_	dokum_4887_38407
14-11	816-818	šo	šis	pd3msan	det	basic	14-14	_	dokum_4887_38407
14-12	819-823	visu	viss	pg0msan	det	basic	14-14	_	dokum_4887_38407
14-13	824-833	dokumentu	dokuments	ncmpg1	nmod	basic	14-14	_	dokum_4887_38407
14-14	834-841	kopijas	kopija	ncfsg4	conj	basic	14-1	_	dokum_4887_38407
14-15	841-842	.	.	zs	punct	basic	14-1	_	dokum_4887_38407

#Text=paldies.
15-1	844-851	paldies	paldies	is	root	basic	15-1	_	dokum_4887_38408
15-2	851-852	.	.	zs	punct	basic	15-1	_	dokum_4887_38408
