#FORMAT=WebAnno TSV 3.2
#T_SP=de.tudarmstadt.ukp.dkpro.core.api.segmentation.type.Lemma|value
#T_SP=de.tudarmstadt.ukp.dkpro.core.api.lexmorph.type.pos.POS|PosValue
#T_RL=de.tudarmstadt.ukp.dkpro.core.api.syntax.type.dependency.Dependency|DependencyType|flavor|BT_de.tudarmstadt.ukp.dkpro.core.api.lexmorph.type.pos.POS
#T_SP=de.tudarmstadt.ukp.dkpro.core.api.ner.type.NamedEntity|value
#T_SP=webanno.custom.ID|value


#Text=Labdien, \nGribu uzzināt, kādi dokumenti man būs jāiesneidz gadījumā, ja esmu pabeidzis vispārējo vidējo izglītību 2003. gadā, bet kārtoju CE eksāmenus vēsturē, angļu valodā un latviešu val. un literatūrā.
1-1	0-7	Labdien	labdien	is	discourse	basic	1-3	_	dokum_8466_63947
1-2	7-8	,	,	zc	punct	basic	1-1	_	dokum_8466_63947
1-3	10-15	Gribu	gribēt	vonip_31san	root	basic	1-3	_	dokum_8466_63947
1-4	16-23	uzzināt	uzzināt	vmnn0t3000n	xcomp	basic	1-3	_	dokum_8466_63947
1-5	23-24	,	,	zc	punct	basic	1-9	_	dokum_8466_63947
1-6	25-29	kādi	kāds	pi0mpnn	det	basic	1-7	_	dokum_8466_63947
1-7	30-39	dokumenti	dokuments	ncmpn1	nsubj	basic	1-9	_	dokum_8466_63947
1-8	40-43	man	es	pp10sdn	obl	basic	1-9	_	dokum_8466_63947
1-9	44-47	būs	būt	vmnif_i30an	ccomp	basic	1-4	_	dokum_8466_63947
1-10	48-58	jāiesneidz	jāiesneidz	yp	nmod	basic	1-11	_	dokum_8466_63947
1-11	59-67	gadījumā	gadījums	ncmsl1	obl	basic	1-9	_	dokum_8466_63947
1-12	67-68	,	,	zc	punct	basic	1-15	_	dokum_8466_63947
1-13	69-71	ja	ja	cs	mark	basic	1-15	_	dokum_8466_63947
1-14	72-76	esmu	būt	vcnip_i1san	aux	basic	1-15	_	dokum_8466_63947
1-15	77-86	pabeidzis	pabeigt	vmnpdmsnasnpn	advcl	basic	1-9	_	dokum_8466_63947
1-16	87-96	vispārējo	vispārējs	affsayp	amod	basic	1-18	_	dokum_8466_63947
1-17	97-103	vidējo	vidējs	affsayp	amod	basic	1-18	_	dokum_8466_63947
1-18	104-113	izglītību	izglītība	ncfsa4	obj	basic	1-15	_	dokum_8466_63947
1-19	114-119	2003.	2003.	xo	amod	basic	1-20	time[1]	dokum_8466_63947
1-20	120-124	gadā	gads	ncmsl1	obl	basic	1-15	time[1]	dokum_8466_63947
1-21	124-125	,	,	zc	punct	basic	1-23	_	dokum_8466_63947
1-22	126-129	bet	bet	cc	cc	basic	1-23	_	dokum_8466_63947
1-23	130-137	kārtoju	kārtot	vmnipt21san	conj	basic	1-3	_	dokum_8466_63947
1-24	138-140	CE	CE	y	nmod	basic	1-25	_	dokum_8466_63947
1-25	141-150	eksāmenus	eksāmens	ncmpa1	obj	basic	1-23	_	dokum_8466_63947
1-26	151-158	vēsturē	vēsture	ncfsl5	acl	basic	1-25	_	dokum_8466_63947
1-27	158-159	,	,	zc	punct	basic	1-29	_	dokum_8466_63947
1-28	160-165	angļu	anglis	ncmpg2	nmod	basic	1-29	_	dokum_8466_63947
1-29	166-172	valodā	valoda	ncfsl4	conj	basic	1-25	_	dokum_8466_63947
1-30	173-175	un	un	cc	cc	basic	1-32	_	dokum_8466_63947
1-31	176-184	latviešu	latvietis	ncmpg2	nmod	basic	1-32	_	dokum_8466_63947
1-32	185-189	val.	val.	y	conj	basic	1-29	_	dokum_8466_63947
1-33	190-192	un	un	cc	cc	basic	1-34	_	dokum_8466_63947
1-34	193-203	literatūrā	literatūra	ncfsl4	conj	basic	1-25	_	dokum_8466_63947
1-35	203-204	.	.	zs	punct	basic	1-3	_	dokum_8466_63947

#Text=Tātad, vai pastāv iespēja ierobežoties tikai ar pielikumu atestātam par vispārējo vidējo izglītību un neņemt vērā CE rezultātus?
2-1	206-211	Tātad	tātad	r0_	discourse	basic	2-4	_	dokum_8466_63947
2-2	211-212	,	,	zc	punct	basic	2-1	_	dokum_8466_63947
2-3	213-216	vai	vai	cs	mark	basic	2-4	_	dokum_8466_63947
2-4	217-223	pastāv	pastāvēt	vmnipi330an	root	basic	2-4	_	dokum_8466_63947
2-5	224-231	iespēja	iespēja	ncfsn4	nsubj	basic	2-4	_	dokum_8466_63947
2-6	232-244	ierobežoties	ierobežoties	vmyn0_2000n	acl	basic	2-5	_	dokum_8466_63947
2-7	245-250	tikai	tikai	q	discourse	basic	2-9	_	dokum_8466_63947
2-8	251-253	ar	ar	spsa	case	basic	2-9	_	dokum_8466_63947
2-9	254-263	pielikumu	pielikums	ncmsa1	iobj	basic	2-6	_	dokum_8466_63947
2-10	264-273	atestātam	atestāts	ncmsd1	iobj	basic	2-6	_	dokum_8466_63947
2-11	274-277	par	par	spsa	case	basic	2-14	_	dokum_8466_63947
2-12	278-287	vispārējo	vispārējs	affsayp	amod	basic	2-14	_	dokum_8466_63947
2-13	288-294	vidējo	vidējs	affsayp	amod	basic	2-14	_	dokum_8466_63947
2-14	295-304	izglītību	izglītība	ncfsa4	nmod	basic	2-10	_	dokum_8466_63947
2-15	305-307	un	un	cc	cc	basic	2-16	_	dokum_8466_63947
2-16	308-314	neņemt	neņemt	vmnn0t1000y	conj	basic	2-6	_	dokum_8466_63947
2-17	315-319	vērā	vērā	r0_	advmod	basic	2-16	_	dokum_8466_63947
2-18	320-322	CE	CE	y	nmod	basic	2-19	_	dokum_8466_63947
2-19	323-333	rezultātus	rezultāts	ncmpa1	obj	basic	2-16	_	dokum_8466_63947
2-20	333-334	?	?	zs	punct	basic	2-4	_	dokum_8466_63947

#Text=Iepriekš paldies,\nAr cieņu, \nMaksims
3-1	335-343	Iepriekš	iepriekš	r0_	advmod	basic	3-2	_	dokum_8466_63947
3-2	344-351	paldies	paldies	is	root	basic	3-2	_	dokum_8466_63947
3-3	351-352	,	,	zc	punct	basic	3-5	_	dokum_8466_63947
3-4	353-355	Ar	ar	spsa	case	basic	3-5	_	dokum_8466_63947
3-5	356-361	cieņu	cieņa	ncfsa4	acl	basic	3-2	_	dokum_8466_63947
3-6	361-362	,	,	zc	punct	basic	3-5	_	dokum_8466_63947
3-7	364-371	Maksims	maksims	ncmsn1	conj	basic	3-2	_	dokum_8466_63947

#Text=Jā, Jūs var uzņemt tikai pēc vidusskolas atestāta atzīmēm (izmantojot formulu nr. 2).
4-1	373-375	Jā	jā	q	discourse	basic	4-4	_	dokum_8466_63948
4-2	375-376	,	,	zc	punct	basic	4-1	_	dokum_8466_63948
4-3	377-380	Jūs	jūs	pp20pan	obj	basic	4-4	_	dokum_8466_63948
4-4	381-384	var	varēt	vonip_330an	root	basic	4-4	_	dokum_8466_63948
4-5	385-391	uzņemt	uzņemt	vmnn0t1000n	xcomp	basic	4-4	_	dokum_8466_63948
4-6	392-397	tikai	tikai	q	discourse	basic	4-10	_	dokum_8466_63948
4-7	398-401	pēc	pēc	spsg	case	basic	4-10	_	dokum_8466_63948
4-8	402-413	vidusskolas	vidusskola	ncfsg4	nmod	basic	4-9	_	dokum_8466_63948
4-9	414-422	atestāta	atestāts	ncmsg1	nmod	basic	4-10	_	dokum_8466_63948
4-10	423-430	atzīmēm	atzīme	ncfpd5	iobj	basic	4-5	_	dokum_8466_63948
4-11	431-432	(	(	zb	punct	basic	4-12	_	dokum_8466_63948
4-12	432-442	izmantojot	izmantot	vmnpu0000000n	discourse	basic	4-10	_	dokum_8466_63948
4-13	443-450	formulu	formula	ncfsa4	obj	basic	4-12	_	dokum_8466_63948
4-14	451-454	nr.	nr.	y	nmod	basic	4-15	_	dokum_8466_63948
4-15	455-456	2	2	xn	acl	basic	4-13	_	dokum_8466_63948
4-16	456-457	)	)	zb	punct	basic	4-12	_	dokum_8466_63948
4-17	457-458	.	.	zs	punct	basic	4-4	_	dokum_8466_63948

#Text=Paldies
5-1	460-467	Paldies	paldies	is	root	basic	5-1	_	dokum_8466_63949
