#FORMAT=WebAnno TSV 3.2
#T_SP=de.tudarmstadt.ukp.dkpro.core.api.segmentation.type.Lemma|value
#T_SP=de.tudarmstadt.ukp.dkpro.core.api.lexmorph.type.pos.POS|PosValue
#T_RL=de.tudarmstadt.ukp.dkpro.core.api.syntax.type.dependency.Dependency|DependencyType|flavor|BT_de.tudarmstadt.ukp.dkpro.core.api.lexmorph.type.pos.POS
#T_SP=de.tudarmstadt.ukp.dkpro.core.api.ner.type.NamedEntity|value
#T_SP=webanno.custom.ID|value


#Text=Sakiet, lūdzu, kādiem dokumentiem jābūt līdzi, kad atnāksu pieteikties studijām?
1-1	0-6	Sakiet	sacīt	vmnm0t32pan	root	basic	1-1	_	dokum_4886_38387
1-2	6-7	,	,	zc	punct	basic	1-3	_	dokum_4886_38387
1-3	8-13	lūdzu	lūdzu	is	discourse	basic	1-7	_	dokum_4886_38387
1-4	13-14	,	,	zc	punct	basic	1-3	_	dokum_4886_38387
1-5	15-21	kādiem	kāds	pi0mpdn	det	basic	1-6	_	dokum_4886_38387
1-6	22-33	dokumentiem	dokuments	ncmpd1	nsubj	basic	1-7	_	dokum_4886_38387
1-7	34-39	jābūt	būt	vcnd0_i00an	cop	basic	1-1	_	dokum_4886_38387
1-8	40-45	līdzi	līdzi	r0_	advmod	basic	1-7	_	dokum_4886_38387
1-9	45-46	,	,	zc	punct	basic	1-11	_	dokum_4886_38387
1-10	47-50	kad	kad	r0_	advmod	basic	1-11	_	dokum_4886_38387
1-11	51-58	atnāksu	atnāksāt	vmnip_31san	advcl	basic	1-8	_	dokum_4886_38387
1-12	59-70	pieteikties	pieteikties	vmyn0_1000n	xcomp	basic	1-11	_	dokum_4886_38387
1-13	71-79	studijām	studijas	ncfdd4	obj	basic	1-12	_	dokum_4886_38387
1-14	79-80	?	?	zs	punct	basic	1-1	_	dokum_4886_38387

#Text=Ja vēlos pieteikties dažādām programmām, kādiem dokumentiem jābūt?
2-1	81-83	Ja	ja	cs	mark	basic	2-2	_	dokum_4886_38387
2-2	84-89	vēlos	vēlēties	voyipt31san	root	basic	2-2	_	dokum_4886_38387
2-3	90-101	pieteikties	pieteikties	vmyn0_1000n	xcomp	basic	2-2	_	dokum_4886_38387
2-4	102-109	dažādām	dažāds	affpdnp	amod	basic	2-5	_	dokum_4886_38387
2-5	110-120	programmām	programma	ncfpd4	iobj	basic	2-3	_	dokum_4886_38387
2-6	120-121	,	,	zc	punct	basic	2-9	_	dokum_4886_38387
2-7	122-128	kādiem	kāds	pi0mpdn	det	basic	2-8	_	dokum_4886_38387
2-8	129-140	dokumentiem	dokuments	ncmpd1	acl	basic	2-9	_	dokum_4886_38387
2-9	141-146	jābūt	būt	vmnd0_i00an	cop	basic	2-3	_	dokum_4886_38387
2-10	146-147	?	?	zs	punct	basic	2-2	_	dokum_4886_38387

#Text=Ir tāda sadaļa LU mājaslapā, saucas GRIBU STUDĒT!
3-1	149-151	Ir	būt	vcnipii30an	root	basic	3-1	_	dokum_4886_38388
3-2	152-156	tāda	tāda	pd0fsnn	det	basic	3-3	_	dokum_4886_38388
3-3	157-163	sadaļa	sadaļa	ncfsn4	nsubj	basic	3-1	_	dokum_4886_38388
3-4	164-166	LU	LU	yp	nmod	basic	3-5	organization[1]	dokum_4886_38388
3-5	167-176	mājaslapā	mājaslapa	ncfsl4	obl	basic	3-1	_	dokum_4886_38388
3-6	176-177	,	,	zc	punct	basic	3-7	_	dokum_4886_38388
3-7	178-184	saucas	saukties	vmyip_130an	conj	basic	3-1	_	dokum_4886_38388
3-8	185-190	GRIBU	griba	ncfsa4	obj	basic	3-9	_	dokum_4886_38388
3-9	191-197	STUDĒT	studēt	vmnn0_2000n	xcomp	basic	3-7	_	dokum_4886_38388
3-10	197-198	!	!	zs	punct	basic	3-1	_	dokum_4886_38388

#Text=Tur viss ir apkopots.
4-1	199-202	Tur	tur	r0_	advmod	basic	4-4	_	dokum_4886_38388
4-2	203-207	viss	viss	pg0msnn	nsubj	basic	4-4	_	dokum_4886_38388
4-3	208-210	ir	būt	vcnipii30an	aux	basic	4-4	_	dokum_4886_38388
4-4	211-219	apkopots	apkopot	vmnpdmsnpsnpn	root	basic	4-4	_	dokum_4886_38388
4-5	219-220	.	.	zs	punct	basic	4-4	_	dokum_4886_38388

#Text=Iesniedzamie dokumenti pamatstudiju programmām (bakalaura, profesionālajām):\nhttp://www.lu.lv/gribustudet/pam-dokumenti.html\nIesniedzamie dokumenti augstākā līmeņa studijām (maģistra, profesionālā maģistra, 2. līmeņa (īsajām) profesionālajām):\nhttp://www.lu.lv/gribustudet/augst-dokumenti.html
5-1	222-234	Iesniedzamie	iesniegt	vmnpdmpnppypn	amod	basic	5-2	_	dokum_4886_38390
5-2	235-244	dokumenti	dokuments	ncmpn1	nsubj	basic	5-2	_	dokum_4886_38390
5-3	245-257	pamatstudiju	pamatstudiju	ncfpg_	nmod	basic	5-4	_	dokum_4886_38390
5-4	258-268	programmām	programma	ncfpd4	nmod	basic	5-2	_	dokum_4886_38390
5-5	269-270	(	(	zb	punct	basic	5-6	_	dokum_4886_38390
5-6	270-279	bakalaura	bakalaurs	ncmsg1	discourse	basic	5-4	_	dokum_4886_38390
5-7	279-280	,	,	zc	punct	basic	5-8	_	dokum_4886_38390
5-8	281-296	profesionālajām	profesionāls	affpdyp	acl	basic	5-6	_	dokum_4886_38390
5-9	296-297	)	)	zb	punct	basic	5-6	_	dokum_4886_38390
5-10	297-298	:	:	zo	punct	basic	5-12	_	dokum_4886_38390
5-11	299-346	http://www.lu.lv/gribustudet/pam-dokumenti.html	http://www.lu.lv/gribustudet/pam-dokumenti.html	r_m	advmod	basic	5-12	_	dokum_4886_38390
5-12	347-359	Iesniedzamie	iesniegt	vmnpdmpnppypn	amod	basic	5-13	_	dokum_4886_38390
5-13	360-369	dokumenti	dokuments	ncmpn1	parataxis	basic	5-2	_	dokum_4886_38390
5-14	370-378	augstākā	augsts	afmsgyc	amod	basic	5-15	_	dokum_4886_38390
5-15	379-385	līmeņa	līmenis	ncmsg2	nmod	basic	5-16	_	dokum_4886_38390
5-16	386-394	studijām	studijas	ncfdd4	nmod	basic	5-13	_	dokum_4886_38390
5-17	395-396	(	(	zb	punct	basic	5-28	_	dokum_4886_38390
5-18	396-404	maģistra	maģistrs	ncmsg1	discourse	basic	5-28	_	dokum_4886_38390
5-19	404-405	,	,	zc	punct	basic	5-20	_	dokum_4886_38390
5-20	406-418	profesionālā	profesionāls	afmsgyp	conj	basic	5-18	_	dokum_4886_38390
5-21	419-427	maģistra	maģistrs	ncmsg1	conj	basic	5-18	_	dokum_4886_38390
5-22	427-428	,	,	zc	punct	basic	5-24	_	dokum_4886_38390
5-23	429-431	2.	2.	xo	amod	basic	5-24	_	dokum_4886_38390
5-24	432-438	līmeņa	līmenis	ncmsg2	conj	basic	5-18	_	dokum_4886_38390
5-25	439-440	(	(	zb	punct	basic	5-26	_	dokum_4886_38390
5-26	440-446	īsajām	īss	affpdyp	discourse	basic	5-24	_	dokum_4886_38390
5-27	446-447	)	)	zb	punct	basic	5-26	_	dokum_4886_38390
5-28	448-463	profesionālajām	profesionāls	affpdyp	discourse	basic	5-16	_	dokum_4886_38390
5-29	463-464	)	)	zb	punct	basic	5-28	_	dokum_4886_38390
5-30	464-465	:	:	zo	punct	basic	5-31	_	dokum_4886_38390
5-31	466-515	http://www.lu.lv/gribustudet/augst-dokumenti.html	http://www.lu.lv/gribustudet/augst-dokumenti.html	xf	parataxis	basic	5-13	_	dokum_4886_38390
