#FORMAT=WebAnno TSV 3.2
#T_SP=de.tudarmstadt.ukp.dkpro.core.api.segmentation.type.Lemma|value
#T_SP=de.tudarmstadt.ukp.dkpro.core.api.lexmorph.type.pos.POS|PosValue
#T_RL=de.tudarmstadt.ukp.dkpro.core.api.syntax.type.dependency.Dependency|DependencyType|flavor|BT_de.tudarmstadt.ukp.dkpro.core.api.lexmorph.type.pos.POS
#T_SP=de.tudarmstadt.ukp.dkpro.core.api.ner.type.NamedEntity|value
#T_SP=webanno.custom.ID|value


#Text=Vai pieņems kopētus dokumentus, ja es varu uzrādīt oriģinālu?
1-1	0-3	Vai	vai	q	discourse	basic	1-2	_	dokum_8664_65317
1-2	4-11	pieņems	pieņemt	vmnift130an	root	basic	1-2	_	dokum_8664_65317
1-3	12-19	kopētus	kopēt	vmnpdmpapsnpn	amod	basic	1-4	_	dokum_8664_65317
1-4	20-30	dokumentus	dokuments	ncmpa1	obj	basic	1-2	_	dokum_8664_65317
1-5	30-31	,	,	zc	punct	basic	1-8	_	dokum_8664_65317
1-6	32-34	ja	ja	cs	mark	basic	1-8	_	dokum_8664_65317
1-7	35-37	es	es	pp10snn	nsubj	basic	1-8	_	dokum_8664_65317
1-8	38-42	varu	varēt	vonip_31san	advcl	basic	1-2	_	dokum_8664_65317
1-9	43-50	uzrādīt	uzrādīt	vmnn0t3000n	xcomp	basic	1-8	_	dokum_8664_65317
1-10	51-60	oriģinālu	oriģināls	afmsanp	obj	basic	1-9	_	dokum_8664_65317
1-11	60-61	?	?	zs	punct	basic	1-2	_	dokum_8664_65317

#Text=LU neprasa nekādus dokumentus iesniegt (ja neskaita aizpildītu veidlapu un fotogrāfiju) - tikai uzrādīt.
2-1	63-65	LU	LU	yp	nsubj	basic	2-2	organization[1]	dokum_8664_65318
2-2	66-73	neprasa	neprasīt	vmnipt330ay	root	basic	2-2	_	dokum_8664_65318
2-3	74-81	nekādus	nekāds	pi0mpay	det	basic	2-4	_	dokum_8664_65318
2-4	82-92	dokumentus	dokuments	ncmpa1	obj	basic	2-2	_	dokum_8664_65318
2-5	93-101	iesniegt	iesniegt	vmnn0t1000n	acl	basic	2-4	_	dokum_8664_65318
2-6	102-103	(	(	zb	punct	basic	2-9	_	dokum_8664_65318
2-7	103-105	ja	ja	cs	mark	basic	2-9	_	dokum_8664_65318
2-8	106-114	neskaita	neskaitīt	vmnip_330ay	cop	basic	2-9	_	dokum_8664_65318
2-9	115-125	aizpildītu	aizpildīt	vmnc0t300an	advcl	basic	2-5	_	dokum_8664_65318
2-10	126-134	veidlapu	veidlapa	ncfsa4	obj	basic	2-9	_	dokum_8664_65318
2-11	135-137	un	un	cc	cc	basic	2-12	_	dokum_8664_65318
2-12	138-149	fotogrāfiju	fotogrāfija	ncfpg4	conj	basic	2-10	_	dokum_8664_65318
2-13	149-150	)	)	zb	punct	basic	2-9	_	dokum_8664_65318
2-14	151-152	-	-	zd	punct	basic	2-9	_	dokum_8664_65318
2-15	153-158	tikai	tikai	q	discourse	basic	2-16	_	dokum_8664_65318
2-16	159-166	uzrādīt	uzrādīt	vmnn0t3000n	ccomp	basic	2-2	_	dokum_8664_65318
2-17	166-167	.	.	zs	punct	basic	2-2	_	dokum_8664_65318

#Text=Neviens taču neliek Jums iesniegt oriģinālus!
3-1	169-176	Neviens	neviens	pi0msny	nsubj	basic	3-3	_	dokum_8664_65319
3-2	177-181	taču	taču	q	discourse	basic	3-3	_	dokum_8664_65319
3-3	182-188	neliek	nelikt	vmnip_130ay	root	basic	3-3	_	dokum_8664_65319
3-4	189-193	Jums	jūs	pp20pdn	iobj	basic	3-3	_	dokum_8664_65319
3-5	194-202	iesniegt	iesniegt	vmnn0t1000n	ccomp	basic	3-3	_	dokum_8664_65319
3-6	203-213	oriģinālus	oriģināls	ncmpa1	obj	basic	3-5	_	dokum_8664_65319
3-7	213-214	!	!	zs	punct	basic	3-3	_	dokum_8664_65319

#Text=ok, paldies
4-1	216-218	ok	ok	y	vocative	basic	4-3	_	dokum_8664_65320
4-2	218-219	,	,	zc	punct	basic	4-1	_	dokum_8664_65320
4-3	220-227	paldies	paldies	is	root	basic	4-3	_	dokum_8664_65320
