#FORMAT=WebAnno TSV 3.2
#T_SP=de.tudarmstadt.ukp.dkpro.core.api.segmentation.type.Lemma|value
#T_SP=de.tudarmstadt.ukp.dkpro.core.api.lexmorph.type.pos.POS|PosValue
#T_RL=de.tudarmstadt.ukp.dkpro.core.api.syntax.type.dependency.Dependency|DependencyType|flavor|BT_de.tudarmstadt.ukp.dkpro.core.api.lexmorph.type.pos.POS
#T_SP=de.tudarmstadt.ukp.dkpro.core.api.ner.type.NamedEntity|value
#T_SP=webanno.custom.ID|value


#Text=Vai nepieciešama ārsta izziņa pie visiem tiem dokumentiem, kas jāiesniedz LU?
1-1	0-3	Vai	vai	q	discourse	basic	1-2	_	dokum_21941_165431
1-2	4-16	nepieciešama	nepieciešams	affsnnp	root	basic	1-2	_	dokum_21941_165431
1-3	17-22	ārsta	ārsts	ncmsg1	nmod	basic	1-4	_	dokum_21941_165431
1-4	23-29	izziņa	izziņa	ncfsn4	nsubj	basic	1-2	_	dokum_21941_165431
1-5	30-33	pie	pie	sp__	case	basic	1-8	_	dokum_21941_165431
1-6	34-40	visiem	viss	pg0mpdn	det	basic	1-8	_	dokum_21941_165431
1-7	41-45	tiem	tas	pd3mpdn	det	basic	1-8	_	dokum_21941_165431
1-8	46-57	dokumentiem	dokuments	ncmpd1	nmod	basic	1-4	_	dokum_21941_165431
1-9	57-58	,	,	zc	punct	basic	1-11	_	dokum_21941_165431
1-10	59-62	kas	kas	pr000nn	nsubj	basic	1-11	_	dokum_21941_165431
1-11	63-73	jāiesniedz	iesniegt	vmnd0t100an	acl	basic	1-8	_	dokum_21941_165431
1-12	74-76	LU	LU	yp	obl	basic	1-11	organization[1]	dokum_21941_165431
1-13	76-77	?	?	zs	punct	basic	1-2	_	dokum_21941_165431

#Text=Neatradu, ka jā, bet tomēr.
2-1	78-86	Neatradu	neatrast	vmnisi11say	root	basic	2-1	_	dokum_21941_165431
2-2	86-87	,	,	zc	punct	basic	2-4	_	dokum_21941_165431
2-3	88-90	ka	ka	cs	mark	basic	2-4	_	dokum_21941_165431
2-4	91-93	jā	jā	q	discourse	basic	2-1	_	dokum_21941_165431
2-5	93-94	,	,	zc	punct	basic	2-7	_	dokum_21941_165431
2-6	95-98	bet	bet	cc	cc	basic	2-7	_	dokum_21941_165431
2-7	99-104	tomēr	tomēr	q	discourse	basic	2-4	_	dokum_21941_165431
2-8	104-105	.	.	zs	punct	basic	2-1	_	dokum_21941_165431

#Text=Un izziņa no dzīves vietas???
3-1	106-108	Un	un	cc	cc	basic	3-2	_	dokum_21941_165431
3-2	109-115	izziņa	izziņa	ncfsn4	root	basic	3-2	_	dokum_21941_165431
3-3	116-118	no	no	spsg	case	basic	3-5	_	dokum_21941_165431
3-4	119-125	dzīves	dzīve	ncfsg5	nmod	basic	3-5	_	dokum_21941_165431
3-5	126-132	vietas	vieta	ncfpn4	nmod	basic	3-2	_	dokum_21941_165431
3-6	132-135	???	???	xf	acl	basic	3-5	_	dokum_21941_165431

#Text=Nē, nekādas izziņas nav nepieciešamas.
4-1	137-139	Nē	nē	q	discourse	basic	4-6	_	dokum_21941_165435
4-2	139-140	,	,	zc	punct	basic	4-1	_	dokum_21941_165435
4-3	141-148	nekādas	nekāda	pi0fsgy	det	basic	4-4	_	dokum_21941_165435
4-4	149-156	izziņas	izziņa	ncfpn4	nsubj	basic	4-6	_	dokum_21941_165435
4-5	157-160	nav	nebūt	vcnipii30ay	cop	basic	4-6	_	dokum_21941_165435
4-6	161-174	nepieciešamas	nepieciešams	affpnnp	root	basic	4-6	_	dokum_21941_165435
4-7	174-175	.	.	zs	punct	basic	4-6	_	dokum_21941_165435

#Text=Šeit ir redzami visi dokumenti, kas jāņem līdzi vai jāiesniedz pamatstudiju reflektantiem:\nhttp://www.lu.lv/gribustudet/pam-dokumenti.html
5-1	177-181	Šeit	šeit	r0_	advmod	basic	5-3	_	dokum_21941_165438
5-2	182-184	ir	būt	vcnipii30an	aux	basic	5-3	_	dokum_21941_165438
5-3	185-192	redzami	redzēt	vmnpdmpnppnpn	root	basic	5-3	_	dokum_21941_165438
5-4	193-197	visi	viss	pg0mpnn	det	basic	5-5	_	dokum_21941_165438
5-5	198-207	dokumenti	dokuments	ncmpn1	nsubj	basic	5-3	_	dokum_21941_165438
5-6	207-208	,	,	zc	punct	basic	5-8	_	dokum_21941_165438
5-7	209-212	kas	kas	pr000nn	nsubj	basic	5-8	_	dokum_21941_165438
5-8	213-218	jāņem	ņemt	vmnd0t100an	acl	basic	5-5	_	dokum_21941_165438
5-9	219-224	līdzi	līdzi	r0_	advmod	basic	5-8	_	dokum_21941_165438
5-10	225-228	vai	vai	q	aux	basic	5-11	_	dokum_21941_165438
5-11	229-239	jāiesniedz	iesniegt	vmnd0t100an	dep	basic	5-8	_	dokum_21941_165438
5-12	240-252	pamatstudiju	pamatstudiju	ncfsa_	obj	basic	5-11	_	dokum_21941_165438
5-13	253-266	reflektantiem	reflektants	ncmpd1	iobj	basic	5-11	_	dokum_21941_165438
5-14	266-267	:	:	zo	punct	basic	5-15	_	dokum_21941_165438
5-15	268-315	http://www.lu.lv/gribustudet/pam-dokumenti.html	http://www.lu.lv/gribustudet/pam-dokumenti.html	xf	parataxis	basic	5-11	_	dokum_21941_165438

#Text=Ja gribi stāties uz sporta skolotājiem, tad VAJAG ārsta zīmi!
6-1	317-319	Ja	ja	cs	mark	basic	6-2	_	dokum_21941_165439
6-2	320-325	gribi	gribēt	vonip_32san	advcl	basic	6-9	_	dokum_21941_165439
6-3	326-333	stāties	stāties	vmyn0_1000n	ccomp	basic	6-2	_	dokum_21941_165439
6-4	334-336	uz	uz	sp__	case	basic	6-6	_	dokum_21941_165439
6-5	337-343	sporta	sports	ncmsg1	nmod	basic	6-6	_	dokum_21941_165439
6-6	344-355	skolotājiem	skolotājs	ncmpd1	iobj	basic	6-3	_	dokum_21941_165439
6-7	355-356	,	,	zc	punct	basic	6-3	_	dokum_21941_165439
6-8	357-360	tad	tad	r0_	advmod	basic	6-9	_	dokum_21941_165439
6-9	361-366	VAJAG	vajadzēt	vmnipt330an	root	basic	6-9	_	dokum_21941_165439
6-10	367-372	ārsta	ārsts	ncmsg1	nmod	basic	6-11	_	dokum_21941_165439
6-11	373-377	zīmi	zīme	ncfsa5	obj	basic	6-9	_	dokum_21941_165439
6-12	377-378	!	!	zs	punct	basic	6-9	_	dokum_21941_165439

#Text=Jā, tā ir vienīgā tāda programma.
7-1	380-382	Jā	jā	q	discourse	basic	7-7	_	dokum_21941_165440
7-2	382-383	,	,	zc	punct	basic	7-1	_	dokum_21941_165440
7-3	384-386	tā	tā	pd3fsnn	nsubj	basic	7-7	_	dokum_21941_165440
7-4	387-389	ir	būt	vcnipii30an	cop	basic	7-7	_	dokum_21941_165440
7-5	390-397	vienīgā	vienīgā	affsnyp	amod	basic	7-7	_	dokum_21941_165440
7-6	398-402	tāda	tāda	pd0fsnn	det	basic	7-7	_	dokum_21941_165440
7-7	403-412	programma	programma	ncfsn4	root	basic	7-7	_	dokum_21941_165440
7-8	412-413	.	.	zs	punct	basic	7-7	_	dokum_21941_165440
